#VRML V2.0 utf8
Inline {
url [" pivot nema.wrl "]
bboxSize -1.000000 -1.000000 -1.000000
bboxCenter 0.000000 0.000000 0.000000
}
Inline {
url [" pivot nema-1.wrl "]
bboxSize -1.000000 -1.000000 -1.000000
bboxCenter 0.000000 0.000000 0.000000
}
Inline {
url [" Pied.wrl "]
bboxSize -1.000000 -1.000000 -1.000000
bboxCenter 0.000000 0.000000 0.000000
}
Inline {
url [" Pied-1.wrl "]
bboxSize -1.000000 -1.000000 -1.000000
bboxCenter 0.000000 0.000000 0.000000
}
Inline {
url [" nema17 reducteur.wrl "]
bboxSize -1.000000 -1.000000 -1.000000
bboxCenter 0.000000 0.000000 0.000000
}
Inline {
url [" Pied-2.wrl "]
bboxSize -1.000000 -1.000000 -1.000000
bboxCenter 0.000000 0.000000 0.000000
}
Inline {
url [" profil 45x4 inter1.wrl "]
bboxSize -1.000000 -1.000000 -1.000000
bboxCenter 0.000000 0.000000 0.000000
}
Inline {
url [" profil 45x4 exter 1.wrl "]
bboxSize -1.000000 -1.000000 -1.000000
bboxCenter 0.000000 0.000000 0.000000
}
Inline {
url [" profil 45x4 exter 1-1.wrl "]
bboxSize -1.000000 -1.000000 -1.000000
bboxCenter 0.000000 0.000000 0.000000
}
Inline {
url [" profil 45x4 inter1-1.wrl "]
bboxSize -1.000000 -1.000000 -1.000000
bboxCenter 0.000000 0.000000 0.000000
}
Inline {
url [" profil 45x4 milieu 2.wrl "]
bboxSize -1.000000 -1.000000 -1.000000
bboxCenter 0.000000 0.000000 0.000000
}
Inline {
url [" profil 45x4 exter 1-2.wrl "]
bboxSize -1.000000 -1.000000 -1.000000
bboxCenter 0.000000 0.000000 0.000000
}
Inline {
url [" support central axe1.wrl "]
bboxSize -1.000000 -1.000000 -1.000000
bboxCenter 0.000000 0.000000 0.000000
}
Inline {
url [" coque nema.wrl "]
bboxSize -1.000000 -1.000000 -1.000000
bboxCenter 0.000000 0.000000 0.000000
}
Inline {
url [" coque nema-1.wrl "]
bboxSize -1.000000 -1.000000 -1.000000
bboxCenter 0.000000 0.000000 0.000000
}
Inline {
url [" nema17 reducteur-1.wrl "]
bboxSize -1.000000 -1.000000 -1.000000
bboxCenter 0.000000 0.000000 0.000000
}
Inline {
url [" support central axe1-1.wrl "]
bboxSize -1.000000 -1.000000 -1.000000
bboxCenter 0.000000 0.000000 0.000000
}
Inline {
url [" profil 45x4 exter 2.wrl "]
bboxSize -1.000000 -1.000000 -1.000000
bboxCenter 0.000000 0.000000 0.000000
}
Inline {
url [" roulement 8x22x7.wrl "]
bboxSize -1.000000 -1.000000 -1.000000
bboxCenter 0.000000 0.000000 0.000000
}
Inline {
url [" profil 45x4 exter 2-1.wrl "]
bboxSize -1.000000 -1.000000 -1.000000
bboxCenter 0.000000 0.000000 0.000000
}
Inline {
url [" senring raccord tournant.wrl "]
bboxSize -1.000000 -1.000000 -1.000000
bboxCenter 0.000000 0.000000 0.000000
}
Inline {
url [" roulement 8x22x7-1.wrl "]
bboxSize -1.000000 -1.000000 -1.000000
bboxCenter 0.000000 0.000000 0.000000
}
Inline {
url [" support central axe1 fixe.wrl "]
bboxSize -1.000000 -1.000000 -1.000000
bboxCenter 0.000000 0.000000 0.000000
}
Inline {
url [" profil 45x4 exter 1-3.wrl "]
bboxSize -1.000000 -1.000000 -1.000000
bboxCenter 0.000000 0.000000 0.000000
}
Inline {
url [" profil 45x4 inter2.wrl "]
bboxSize -1.000000 -1.000000 -1.000000
bboxCenter 0.000000 0.000000 0.000000
}
Inline {
url [" profil 45x4 inter1-2.wrl "]
bboxSize -1.000000 -1.000000 -1.000000
bboxCenter 0.000000 0.000000 0.000000
}
Inline {
url [" profil 45x4 inter1-3.wrl "]
bboxSize -1.000000 -1.000000 -1.000000
bboxCenter 0.000000 0.000000 0.000000
}
Inline {
url [" Pied-3.wrl "]
bboxSize -1.000000 -1.000000 -1.000000
bboxCenter 0.000000 0.000000 0.000000
}
Inline {
url [" profil 45x4 inter2-1.wrl "]
bboxSize -1.000000 -1.000000 -1.000000
bboxCenter 0.000000 0.000000 0.000000
}
Inline {
url [" demi charniere.wrl "]
bboxSize -1.000000 -1.000000 -1.000000
bboxCenter 0.000000 0.000000 0.000000
}
Inline {
url [" support central axe1 fixe-1.wrl "]
bboxSize -1.000000 -1.000000 -1.000000
bboxCenter 0.000000 0.000000 0.000000
}
Inline {
url [" chariot coulissant 2.wrl "]
bboxSize -1.000000 -1.000000 -1.000000
bboxCenter 0.000000 0.000000 0.000000
}
Inline {
url [" rigificateur.wrl "]
bboxSize -1.000000 -1.000000 -1.000000
bboxCenter 0.000000 0.000000 0.000000
}
Inline {
url [" MOLETTE D40-6.wrl "]
bboxSize -1.000000 -1.000000 -1.000000
bboxCenter 0.000000 0.000000 0.000000
}
Inline {
url [" senring raccord tournant-1.wrl "]
bboxSize -1.000000 -1.000000 -1.000000
bboxCenter 0.000000 0.000000 0.000000
}
Inline {
url [" demi charniere-1.wrl "]
bboxSize -1.000000 -1.000000 -1.000000
bboxCenter 0.000000 0.000000 0.000000
}
Inline {
url [" chariot coulissant.wrl "]
bboxSize -1.000000 -1.000000 -1.000000
bboxCenter 0.000000 0.000000 0.000000
}
Inline {
url [" profil 45x4 milieu 2-1.wrl "]
bboxSize -1.000000 -1.000000 -1.000000
bboxCenter 0.000000 0.000000 0.000000
}
Inline {
url [" profil 45x4 milieu 2-2.wrl "]
bboxSize -1.000000 -1.000000 -1.000000
bboxCenter 0.000000 0.000000 0.000000
}
Inline {
url [" profil 45x4 milieu 2-3.wrl "]
bboxSize -1.000000 -1.000000 -1.000000
bboxCenter 0.000000 0.000000 0.000000
}
Inline {
url [" profil 45x4 milieu 1.wrl "]
bboxSize -1.000000 -1.000000 -1.000000
bboxCenter 0.000000 0.000000 0.000000
}
Inline {
url [" profil 45x4 milieu 1-1.wrl "]
bboxSize -1.000000 -1.000000 -1.000000
bboxCenter 0.000000 0.000000 0.000000
}
Inline {
url [" profil 45x4 milieu 1-2.wrl "]
bboxSize -1.000000 -1.000000 -1.000000
bboxCenter 0.000000 0.000000 0.000000
}
Inline {
url [" profil 45x4 milieu 1-3.wrl "]
bboxSize -1.000000 -1.000000 -1.000000
bboxCenter 0.000000 0.000000 0.000000
}
