#VRML V2.0 utf8
Transform {
children [
Shape {
appearance Appearance {
material Material {
ambientIntensity 1.000000
diffuseColor 0.792157 0.819608 0.933333
emissiveColor 0.000000 0.000000 0.000000
specularColor 0.396078 0.409804 0.466667
shininess 0.400000
transparency 0.000000
}
}
geometry IndexedFaceSet {
color Color {
color [
 0.792157 0.819608 0.933333
]
}
coord Coordinate {
point [
 0.220925 0.258684 -0.190540, 0.220925 0.261470 -0.191652, 0.220925 0.263398 -0.178731, 0.220925 0.266184 -0.179843, 0.221117 0.264121 -0.176919,
 0.221117 0.266908 -0.178031, 0.221266 0.257724 -0.192944, 0.221266 0.260510 -0.194056, 0.221686 0.264817 -0.175176, 0.221686 0.267603 -0.176289,
 0.222265 0.256830 -0.195184, 0.222265 0.259616 -0.196296, 0.222611 0.265458 -0.173571, 0.222611 0.268244 -0.174683, 0.223854 0.256062 -0.197107,
 0.223854 0.258848 -0.198220, 0.223854 0.266020 -0.172163, 0.223854 0.268806 -0.173276, 0.232925 0.252699 -0.205532, 0.232925 0.255485 -0.206644,
 0.232925 0.269383 -0.163739, 0.232925 0.272169 -0.164851, 0.238925 0.268604 -0.192661, 0.238925 0.272052 -0.184024, 0.238925 0.274177 -0.194886,
 0.238925 0.274659 -0.206761, 0.238925 0.276883 -0.201188, 0.238925 0.277625 -0.186249, 0.238925 0.283296 -0.210209, 0.238925 0.283927 -0.183543,
 0.238925 0.285520 -0.204636, 0.238925 0.286152 -0.177970, 0.238925 0.291823 -0.201930, 0.238925 0.292564 -0.186990, 0.238925 0.294789 -0.181418,
 0.238925 0.295271 -0.193293, 0.238925 0.297395 -0.204155, 0.238925 0.300843 -0.195517, 0.240925 0.266005 -0.193777, 0.240925 0.270936 -0.181425,
 0.240925 0.272060 -0.207877, 0.240925 0.273435 -0.196743, 0.240925 0.275026 -0.200447, 0.240925 0.276034 -0.195627, 0.240925 0.277624 -0.199331,
 0.240925 0.278366 -0.184391, 0.240925 0.279482 -0.186990, 0.240925 0.282070 -0.182801, 0.240925 0.283186 -0.185400, 0.240925 0.284412 -0.212808,
 0.240925 0.285036 -0.175371, 0.240925 0.286262 -0.202779, 0.240925 0.287378 -0.205378, 0.240925 0.289965 -0.201189, 0.240925 0.291081 -0.203788,
 0.240925 0.291823 -0.188848, 0.240925 0.293413 -0.192551, 0.240925 0.294422 -0.187732, 0.240925 0.296012 -0.191435, 0.240925 0.297388 -0.180302,
 0.240925 0.298511 -0.206754, 0.240925 0.303442 -0.194401, 0.250925 0.255485 -0.206644, 0.250925 0.266005 -0.193777, 0.250925 0.270936 -0.181425,
 0.250925 0.272060 -0.207877, 0.250925 0.272169 -0.164851, 0.250925 0.273435 -0.196743, 0.250925 0.275026 -0.200447, 0.250925 0.276034 -0.195627,
 0.250925 0.277624 -0.199331, 0.250925 0.278366 -0.184391, 0.250925 0.279482 -0.186990, 0.250925 0.282070 -0.182801, 0.250925 0.283186 -0.185400,
 0.250925 0.284412 -0.212808, 0.250925 0.285036 -0.175371, 0.250925 0.286262 -0.202779, 0.250925 0.287378 -0.205378, 0.250925 0.289965 -0.201189,
 0.250925 0.291081 -0.203788, 0.250925 0.291823 -0.188848, 0.250925 0.293413 -0.192551, 0.250925 0.294422 -0.187732, 0.250925 0.295421 -0.222586,
 0.250925 0.295853 -0.222705, 0.250925 0.296012 -0.191435, 0.250925 0.296300 -0.222724, 0.250925 0.296741 -0.222643, 0.250925 0.297152 -0.222467,
 0.250925 0.297388 -0.180302, 0.250925 0.297514 -0.222203, 0.250925 0.297808 -0.221865, 0.250925 0.298020 -0.221470, 0.250925 0.298511 -0.206754,
 0.250925 0.303442 -0.194401, 0.250925 0.312105 -0.180793, 0.250925 0.312499 -0.181005, 0.250925 0.312837 -0.181299, 0.250925 0.313101 -0.181661,
 0.250925 0.313221 -0.183392, 0.250925 0.313278 -0.182072, 0.250925 0.313339 -0.182960, 0.250925 0.313358 -0.182513, 0.251125 0.245919 -0.202825,
 0.251125 0.252699 -0.205532, 0.251125 0.262603 -0.161032, 0.251125 0.269383 -0.163739, 0.254125 0.249151 -0.202823, 0.254125 0.264944 -0.163259,
 0.254125 0.297568 -0.222151, 0.254125 0.297808 -0.221865, 0.254125 0.298020 -0.221470, 0.254125 0.313221 -0.183392, 0.254125 0.313339 -0.182960,
 0.254125 0.313362 -0.182587, 0.257125 0.254261 -0.181929, 0.257125 0.257047 -0.183041, 0.257477 0.252938 -0.185245, 0.257477 0.255585 -0.178613,
 0.257477 0.255724 -0.186357, 0.257477 0.258371 -0.179725, 0.258518 0.251665 -0.188433, 0.258518 0.254451 -0.189545, 0.258518 0.256858 -0.175425,
 0.258518 0.259644 -0.176537, 0.260209 0.250492 -0.191371, 0.260209 0.253278 -0.192484, 0.260209 0.258031 -0.172487, 0.260209 0.260817 -0.173599,
 0.262485 0.249464 -0.193947, 0.262485 0.252250 -0.195059, 0.262485 0.259059 -0.169911, 0.262485 0.261845 -0.171023, 0.265258 0.248620 -0.196060,
 0.265258 0.251406 -0.197173, 0.265258 0.259903 -0.167797, 0.265258 0.262689 -0.168910, 0.268422 0.247993 -0.197631, 0.268422 0.250779 -0.198743,
 0.268422 0.260530 -0.166227, 0.268422 0.263316 -0.167339, 0.271855 0.247607 -0.198598, 0.271855 0.250393 -0.199710, 0.271855 0.260916 -0.165260,
 0.271855 0.263702 -0.166372, 0.275425 0.247477 -0.198925, 0.275425 0.250263 -0.200037, 0.275425 0.261046 -0.164933, 0.275425 0.263832 -0.166045,
 0.278995 0.247607 -0.198598, 0.278995 0.250393 -0.199710, 0.278995 0.260916 -0.165260, 0.278995 0.263702 -0.166372, 0.282428 0.247993 -0.197631,
 0.282428 0.250779 -0.198743, 0.282428 0.260530 -0.166227, 0.282428 0.263316 -0.167339, 0.285592 0.248620 -0.196060, 0.285592 0.251406 -0.197173,
 0.285592 0.259903 -0.167797, 0.285592 0.262689 -0.168910, 0.288365 0.249464 -0.193947, 0.288365 0.252250 -0.195059, 0.288365 0.259059 -0.169911,
 0.288365 0.261845 -0.171023, 0.290641 0.250492 -0.191371, 0.290641 0.253278 -0.192484, 0.290641 0.258031 -0.172487, 0.290641 0.260817 -0.173599,
 0.292332 0.251665 -0.188433, 0.292332 0.254451 -0.189545, 0.292332 0.256858 -0.175425, 0.292332 0.259644 -0.176537, 0.293374 0.252938 -0.185245,
 0.293374 0.255585 -0.178613, 0.293374 0.255724 -0.186357, 0.293374 0.258371 -0.179725, 0.293725 0.254261 -0.181929, 0.293725 0.257047 -0.183041,
 0.296725 0.249151 -0.202823, 0.296725 0.264944 -0.163259, 0.296725 0.297568 -0.222151, 0.296725 0.297808 -0.221865, 0.296725 0.298020 -0.221470,
 0.296725 0.300714 -0.204091, 0.296725 0.300722 -0.202343, 0.296725 0.301138 -0.205786, 0.296725 0.301162 -0.200652, 0.296725 0.301969 -0.207323,
 0.296725 0.302008 -0.199122, 0.296725 0.303155 -0.208607, 0.296725 0.303205 -0.197849, 0.296725 0.304680 -0.196912, 0.296725 0.306342 -0.196370,
 0.296725 0.308086 -0.196255, 0.296725 0.313221 -0.183392, 0.296725 0.313339 -0.182960, 0.296725 0.313362 -0.182587, 0.299725 0.245919 -0.202825,
 0.299725 0.252699 -0.205532, 0.299725 0.262603 -0.161032, 0.299725 0.269383 -0.163739, 0.299925 0.255485 -0.206644, 0.299925 0.266005 -0.193777,
 0.299925 0.270936 -0.181425, 0.299925 0.272060 -0.207877, 0.299925 0.272169 -0.164851, 0.299925 0.273435 -0.196743, 0.299925 0.275026 -0.200447,
 0.299925 0.276034 -0.195627, 0.299925 0.277624 -0.199331, 0.299925 0.278366 -0.184391, 0.299925 0.279482 -0.186990, 0.299925 0.282070 -0.182801,
 0.299925 0.283186 -0.185400, 0.299925 0.284412 -0.212808, 0.299925 0.285036 -0.175371, 0.299925 0.286262 -0.202779, 0.299925 0.287378 -0.205378,
 0.299925 0.289965 -0.201189, 0.299925 0.291081 -0.203788, 0.299925 0.291823 -0.188848, 0.299925 0.293413 -0.192551, 0.299925 0.294422 -0.187732,
 0.299925 0.295421 -0.222586, 0.299925 0.295853 -0.222705, 0.299925 0.296012 -0.191435, 0.299925 0.296300 -0.222724, 0.299925 0.296741 -0.222643,
 0.299925 0.297152 -0.222467, 0.299925 0.297388 -0.180302, 0.299925 0.297514 -0.222203, 0.299925 0.297808 -0.221865, 0.299925 0.298020 -0.221470,
 0.299925 0.298511 -0.206754, 0.299925 0.300714 -0.204091, 0.299925 0.300722 -0.202343, 0.299925 0.301138 -0.205786, 0.299925 0.301162 -0.200652,
 0.299925 0.301969 -0.207323, 0.299925 0.302008 -0.199122, 0.299925 0.303155 -0.208607, 0.299925 0.303205 -0.197849, 0.299925 0.303442 -0.194401,
 0.299925 0.304680 -0.196912, 0.299925 0.306342 -0.196370, 0.299925 0.308086 -0.196255, 0.299925 0.312105 -0.180793, 0.299925 0.312499 -0.181005,
 0.299925 0.312837 -0.181299, 0.299925 0.313101 -0.181661, 0.299925 0.313221 -0.183392, 0.299925 0.313278 -0.182072, 0.299925 0.313339 -0.182960,
 0.299925 0.313358 -0.182513, 0.309925 0.266005 -0.193777, 0.309925 0.270936 -0.181425, 0.309925 0.272060 -0.207877, 0.309925 0.273435 -0.196743,
 0.309925 0.275026 -0.200447, 0.309925 0.276034 -0.195627, 0.309925 0.277624 -0.199331, 0.309925 0.278366 -0.184391, 0.309925 0.279482 -0.186990,
 0.309925 0.282070 -0.182801, 0.309925 0.283186 -0.185400, 0.309925 0.284412 -0.212808, 0.309925 0.285036 -0.175371, 0.309925 0.286262 -0.202779,
 0.309925 0.287378 -0.205378, 0.309925 0.289965 -0.201189, 0.309925 0.291081 -0.203788, 0.309925 0.291823 -0.188848, 0.309925 0.293413 -0.192551,
 0.309925 0.294422 -0.187732, 0.309925 0.296012 -0.191435, 0.309925 0.297388 -0.180302, 0.309925 0.298511 -0.206754, 0.309925 0.303442 -0.194401,
 0.311925 0.268604 -0.192661, 0.311925 0.272052 -0.184024, 0.311925 0.274177 -0.194886, 0.311925 0.274659 -0.206761, 0.311925 0.276883 -0.201188,
 0.311925 0.277625 -0.186249, 0.311925 0.283296 -0.210209, 0.311925 0.283927 -0.183543, 0.311925 0.285520 -0.204636, 0.311925 0.286152 -0.177970,
 0.311925 0.291823 -0.201930, 0.311925 0.292564 -0.186990, 0.311925 0.294789 -0.181418, 0.311925 0.295271 -0.193293, 0.311925 0.297395 -0.204155,
 0.311925 0.300843 -0.195517, 0.317925 0.252699 -0.205532, 0.317925 0.255485 -0.206644, 0.317925 0.269383 -0.163739, 0.317925 0.272169 -0.164851,
 0.326996 0.256062 -0.197107, 0.326996 0.258848 -0.198220, 0.326996 0.266020 -0.172163, 0.326996 0.268806 -0.173276, 0.328586 0.256830 -0.195184,
 0.328586 0.259616 -0.196296, 0.328586 0.265252 -0.174087, 0.328586 0.268038 -0.175199, 0.329585 0.257724 -0.192944, 0.329585 0.260510 -0.194056,
 0.329585 0.264358 -0.176327, 0.329585 0.267144 -0.177439, 0.329925 0.258684 -0.190540, 0.329925 0.261470 -0.191652, 0.329925 0.263398 -0.178731,
 0.329925 0.266184 -0.179843
]
}
normal Normal {
vector [
 -1.000000 0.000000 -0.000000, -0.980785 -0.072329 -0.181187, -0.980785 0.072329 0.181187, -0.965926 -0.095957 -0.240374, -0.923880 -0.141879 -0.355411,
 -0.923880 0.141879 0.355411, -0.866025 -0.185374 -0.464367, -0.831470 -0.205977 -0.515977, -0.831470 0.205977 0.515977, -0.707107 -0.656714 0.262159,
 -0.707107 -0.262159 -0.656714, -0.707107 0.262159 0.656714, -0.707107 0.656714 -0.262159, -0.577350 -0.750256 -0.322153, -0.577350 -0.322153 0.750256,
 -0.577350 0.322153 -0.750256, -0.577350 0.750256 0.322153, -0.555570 -0.308266 -0.772214, -0.555570 0.308266 0.772214, -0.382683 -0.342527 -0.858038,
 -0.382683 0.342527 0.858038, -0.195090 -0.363625 -0.910888, -0.195090 0.363625 0.910888, -0.000000 -0.928733 0.370749, -0.000000 -0.918872 -0.394555,
 -0.000000 -0.394555 0.918872, 0.000000 -0.370749 -0.928733, 0.000000 -0.154790 -0.987947, 0.000000 -0.059404 -0.998234, 0.000000 0.068929 -0.997622,
 0.000000 0.189492 -0.981882, 0.000000 0.289193 -0.957271, -0.000000 0.370749 0.928733, 0.000000 0.394555 -0.918872, 0.000000 0.426599 -0.904441,
 0.000000 0.494955 -0.868919, -0.000000 0.568116 0.822949, 0.000000 0.637164 -0.770728, 0.000000 0.644363 0.764720, 0.000000 0.675898 -0.736995,
 0.000000 0.702899 -0.711290, 0.000000 0.736995 0.675898, 0.000000 0.808087 -0.589063, 0.000000 0.813575 0.581460, 0.000000 0.822949 -0.568116,
 0.000000 0.868919 0.494955, 0.000000 0.918872 0.394555, 0.000000 0.928733 -0.370749, 0.000000 0.932169 0.362024, 0.000000 0.957271 0.289193,
 0.000000 0.987947 -0.154790, 0.000000 0.991597 -0.129367, 0.000000 0.992766 0.120063, 0.000000 0.997622 0.068929, 0.000000 0.999498 0.031697,
 0.195090 -0.363625 -0.910888, 0.195090 0.363625 0.910888, 0.382683 -0.342527 -0.858038, 0.382683 0.342527 0.858038, 0.555570 -0.308266 -0.772214,
 0.555570 0.308266 0.772214, 0.577350 -0.750256 -0.322153, 0.577350 -0.322153 0.750256, 0.577350 0.322153 -0.750256, 0.577350 0.750256 0.322153,
 0.707107 -0.656714 0.262159, 0.707107 -0.262159 -0.656714, 0.707107 0.262159 0.656714, 0.707107 0.656714 -0.262159, 0.831470 -0.205977 -0.515977,
 0.831470 0.205977 0.515977, 0.866025 -0.185374 -0.464367, 0.866025 0.185374 0.464367, 0.923880 -0.141879 -0.355411, 0.923880 0.141879 0.355411,
 0.965926 -0.095957 -0.240374, 0.965926 0.095957 0.240374, 0.980785 -0.072329 -0.181187, 0.980785 0.072329 0.181187, 1.000000 -0.000000 0.000000
]
}
coordIndex [
 113, 112, 100, -1, 100, 112, 93, -1, 184, 191, 234, -1,
 234, 191, 242, -1, 202, 200, 296, -1, 310, 306, 302, -1,
 296, 300, 202, -1, 202, 300, 302, -1, 202, 302, 298, -1,
 304, 308, 300, -1, 300, 308, 312, -1, 300, 312, 302, -1,
 302, 312, 314, -1, 302, 314, 310, -1, 252, 247, 196, -1,
 196, 247, 195, -1, 207, 248, 96, -1, 107, 106, 201, -1,
 202, 298, 299, -1, 66, 21, 20, -1, 20, 107, 66, -1,
 66, 107, 201, -1, 66, 201, 96, -1, 96, 201, 202, -1,
 96, 202, 207, -1, 207, 202, 299, -1, 18, 19, 105, -1,
 105, 19, 62, -1, 199, 104, 200, -1, 200, 104, 203, -1,
 200, 203, 296, -1, 296, 203, 297, -1, 84, 225, 62, -1,
 62, 225, 203, -1, 62, 203, 105, -1, 105, 203, 104, -1,
 180, 188, 186, -1, 189, 191, 184, -1, 186, 185, 180, -1,
 180, 185, 187, -1, 180, 187, 182, -1, 182, 187, 189, -1,
 182, 189, 183, -1, 183, 189, 184, -1, 188, 180, 190, -1,
 190, 180, 181, -1, 190, 181, 192, -1, 198, 197, 194, -1,
 194, 197, 196, -1, 194, 196, 195, -1, 198, 194, 181, -1,
 181, 194, 193, -1, 181, 193, 192, -1, 198, 181, 115, -1,
 115, 181, 109, -1, 114, 115, 109, -1, 110, 111, 108, -1,
 108, 111, 112, -1, 108, 112, 109, -1, 109, 112, 113, -1,
 109, 113, 114, -1, 110, 108, 182, -1, 182, 108, 180, -1,
 246, 247, 252, -1, 214, 217, 212, -1, 206, 203, 225, -1,
 234, 242, 240, -1, 234, 235, 221, -1, 234, 240, 235, -1,
 235, 240, 238, -1, 235, 238, 236, -1, 246, 252, 245, -1,
 206, 225, 216, -1, 216, 225, 226, -1, 216, 226, 228, -1,
 228, 229, 216, -1, 216, 229, 230, -1, 216, 230, 232, -1,
 236, 237, 235, -1, 235, 237, 239, -1, 235, 239, 244, -1,
 244, 239, 241, -1, 244, 241, 243, -1, 212, 217, 205, -1,
 210, 220, 223, -1, 243, 245, 244, -1, 244, 245, 252, -1,
 244, 252, 227, -1, 210, 223, 213, -1, 214, 212, 215, -1,
 215, 212, 213, -1, 215, 213, 222, -1, 222, 213, 223, -1,
 222, 223, 224, -1, 224, 223, 227, -1, 224, 227, 231, -1,
 227, 252, 231, -1, 231, 252, 254, -1, 231, 254, 255, -1,
 232, 233, 216, -1, 216, 233, 234, -1, 216, 234, 219, -1,
 219, 234, 221, -1, 219, 221, 218, -1, 218, 221, 220, -1,
 218, 220, 211, -1, 211, 220, 210, -1, 211, 210, 209, -1,
 209, 210, 208, -1, 209, 208, 204, -1, 255, 253, 231, -1,
 231, 253, 251, -1, 231, 251, 250, -1, 250, 249, 231, -1,
 231, 249, 248, -1, 231, 248, 217, -1, 217, 248, 207, -1,
 217, 207, 205, -1, 205, 207, 203, -1, 205, 203, 204, -1,
 204, 203, 206, -1, 204, 206, 209, -1, 77, 70, 79, -1,
 62, 66, 64, -1, 89, 88, 78, -1, 89, 78, 91, -1,
 77, 79, 78, -1, 78, 79, 80, -1, 78, 80, 94, -1,
 63, 67, 65, -1, 64, 63, 62, -1, 62, 63, 65, -1,
 62, 65, 84, -1, 84, 65, 75, -1, 84, 75, 85, -1,
 85, 75, 78, -1, 85, 78, 87, -1, 87, 78, 88, -1,
 69, 72, 82, -1, 103, 102, 90, -1, 90, 102, 100, -1,
 90, 100, 83, -1, 82, 79, 69, -1, 69, 79, 70, -1,
 69, 70, 67, -1, 67, 70, 68, -1, 67, 68, 65, -1,
 71, 73, 72, -1, 72, 73, 74, -1, 72, 74, 82, -1,
 82, 74, 81, -1, 82, 81, 86, -1, 86, 81, 83, -1,
 86, 83, 95, -1, 95, 83, 100, -1, 95, 100, 94, -1,
 94, 100, 93, -1, 94, 93, 78, -1, 78, 93, 92, -1,
 78, 92, 91, -1, 71, 64, 73, -1, 73, 64, 66, -1,
 73, 66, 76, -1, 76, 66, 96, -1, 76, 96, 90, -1,
 90, 96, 97, -1, 90, 97, 98, -1, 98, 99, 90, -1,
 90, 99, 101, -1, 90, 101, 103, -1, 28, 25, 30, -1,
 30, 25, 26, -1, 51, 44, 77, -1, 77, 44, 70, -1,
 42, 40, 68, -1, 68, 40, 65, -1, 49, 75, 40, -1,
 40, 75, 65, -1, 78, 75, 52, -1, 52, 75, 49, -1,
 286, 288, 283, -1, 283, 288, 284, -1, 218, 211, 269, -1,
 269, 211, 262, -1, 260, 209, 258, -1, 258, 209, 206, -1,
 258, 206, 267, -1, 267, 206, 216, -1, 267, 216, 270, -1,
 270, 216, 219, -1, 44, 42, 70, -1, 70, 42, 68, -1,
 42, 26, 40, -1, 40, 26, 25, -1, 42, 44, 26, -1,
 28, 49, 25, -1, 25, 49, 40, -1, 51, 30, 44, -1,
 44, 30, 26, -1, 30, 52, 28, -1, 28, 52, 49, -1,
 30, 51, 52, -1, 77, 78, 51, -1, 51, 78, 52, -1,
 260, 262, 209, -1, 209, 262, 211, -1, 262, 284, 269, -1,
 269, 284, 288, -1, 269, 270, 218, -1, 218, 270, 219, -1,
 262, 260, 284, -1, 269, 288, 270, -1, 258, 283, 260, -1,
 260, 283, 284, -1, 286, 267, 288, -1, 288, 267, 270, -1,
 267, 286, 258, -1, 258, 286, 283, -1, 37, 36, 35, -1,
 35, 36, 32, -1, 56, 53, 82, -1, 82, 53, 79, -1,
 54, 60, 80, -1, 80, 60, 94, -1, 61, 95, 60, -1,
 60, 95, 94, -1, 86, 95, 58, -1, 58, 95, 61, -1,
 295, 293, 294, -1, 294, 293, 290, -1, 223, 220, 274, -1,
 274, 220, 271, -1, 272, 221, 278, -1, 278, 221, 235, -1,
 278, 235, 279, -1, 279, 235, 244, -1, 279, 244, 276, -1,
 276, 244, 227, -1, 31, 34, 29, -1, 29, 34, 33, -1,
 48, 55, 74, -1, 74, 55, 81, -1, 57, 59, 83, -1,
 83, 59, 90, -1, 50, 76, 59, -1, 59, 76, 90, -1,
 73, 76, 47, -1, 47, 76, 50, -1, 289, 287, 292, -1,
 292, 287, 291, -1, 215, 222, 266, -1, 266, 222, 273, -1,
 275, 224, 277, -1, 277, 224, 231, -1, 277, 231, 268, -1,
 268, 231, 217, -1, 268, 217, 265, -1, 265, 217, 214, -1,
 22, 23, 24, -1, 24, 23, 27, -1, 43, 46, 69, -1,
 69, 46, 72, -1, 45, 39, 71, -1, 71, 39, 64, -1,
 38, 63, 39, -1, 39, 63, 64, -1, 67, 63, 41, -1,
 41, 63, 38, -1, 280, 282, 281, -1, 281, 282, 285, -1,
 210, 213, 261, -1, 261, 213, 264, -1, 263, 212, 257, -1,
 257, 212, 205, -1, 257, 205, 256, -1, 256, 205, 204, -1,
 256, 204, 259, -1, 259, 204, 208, -1, 53, 54, 79, -1,
 79, 54, 80, -1, 54, 32, 60, -1, 60, 32, 36, -1,
 54, 53, 32, -1, 37, 61, 36, -1, 36, 61, 60, -1,
 56, 35, 53, -1, 53, 35, 32, -1, 35, 58, 37, -1,
 37, 58, 61, -1, 35, 56, 58, -1, 82, 86, 56, -1,
 56, 86, 58, -1, 272, 271, 221, -1, 221, 271, 220, -1,
 271, 290, 274, -1, 274, 290, 293, -1, 274, 276, 223, -1,
 223, 276, 227, -1, 271, 272, 290, -1, 274, 293, 276, -1,
 278, 294, 272, -1, 272, 294, 290, -1, 295, 279, 293, -1,
 293, 279, 276, -1, 279, 295, 278, -1, 278, 295, 294, -1,
 55, 57, 81, -1, 81, 57, 83, -1, 57, 33, 59, -1,
 59, 33, 34, -1, 57, 55, 33, -1, 31, 50, 34, -1,
 34, 50, 59, -1, 48, 29, 55, -1, 55, 29, 33, -1,
 29, 47, 31, -1, 31, 47, 50, -1, 29, 48, 47, -1,
 74, 73, 48, -1, 48, 73, 47, -1, 275, 273, 224, -1,
 224, 273, 222, -1, 273, 291, 266, -1, 266, 291, 287, -1,
 266, 265, 215, -1, 215, 265, 214, -1, 273, 275, 291, -1,
 266, 287, 265, -1, 277, 292, 275, -1, 275, 292, 291, -1,
 289, 268, 287, -1, 287, 268, 265, -1, 268, 289, 277, -1,
 277, 289, 292, -1, 46, 45, 72, -1, 72, 45, 71, -1,
 45, 27, 39, -1, 39, 27, 23, -1, 45, 46, 27, -1,
 22, 38, 23, -1, 23, 38, 39, -1, 43, 24, 46, -1,
 46, 24, 27, -1, 24, 41, 22, -1, 22, 41, 38, -1,
 24, 43, 41, -1, 69, 67, 43, -1, 43, 67, 41, -1,
 263, 264, 212, -1, 212, 264, 213, -1, 264, 285, 261, -1,
 261, 285, 282, -1, 261, 259, 210, -1, 210, 259, 208, -1,
 264, 263, 285, -1, 261, 282, 259, -1, 257, 281, 263, -1,
 263, 281, 285, -1, 280, 256, 282, -1, 282, 256, 259, -1,
 256, 280, 257, -1, 257, 280, 281, -1, 301, 297, 203, -1,
 207, 299, 203, -1, 203, 299, 303, -1, 203, 303, 307, -1,
 313, 309, 203, -1, 203, 309, 305, -1, 203, 305, 301, -1,
 307, 311, 203, -1, 203, 311, 315, -1, 203, 315, 313, -1,
 62, 19, 66, -1, 66, 19, 15, -1, 1, 3, 66, -1,
 66, 3, 5, -1, 66, 5, 9, -1, 9, 13, 66, -1,
 66, 13, 17, -1, 66, 17, 21, -1, 15, 11, 66, -1,
 66, 11, 7, -1, 66, 7, 1, -1, 313, 315, 312, -1,
 312, 315, 314, -1, 3, 1, 2, -1, 2, 1, 0, -1,
 20, 16, 107, -1, 107, 16, 12, -1, 107, 12, 8, -1,
 6, 10, 105, -1, 105, 10, 14, -1, 105, 14, 18, -1,
 8, 4, 107, -1, 107, 4, 2, -1, 107, 2, 105, -1,
 105, 2, 0, -1, 105, 0, 6, -1, 201, 199, 202, -1,
 202, 199, 200, -1, 104, 106, 105, -1, 105, 106, 107, -1,
 146, 104, 199, -1, 136, 140, 106, -1, 156, 160, 201, -1,
 146, 142, 104, -1, 104, 142, 138, -1, 104, 138, 134, -1,
 134, 130, 104, -1, 104, 130, 126, -1, 104, 126, 122, -1,
 140, 144, 106, -1, 106, 144, 148, -1, 106, 148, 201, -1,
 201, 148, 152, -1, 201, 152, 156, -1, 170, 166, 199, -1,
 199, 166, 162, -1, 199, 162, 158, -1, 160, 164, 201, -1,
 201, 164, 168, -1, 201, 168, 172, -1, 158, 154, 199, -1,
 199, 154, 150, -1, 199, 150, 146, -1, 124, 128, 106, -1,
 106, 128, 132, -1, 106, 132, 136, -1, 172, 175, 201, -1,
 201, 175, 178, -1, 201, 178, 199, -1, 199, 178, 174, -1,
 199, 174, 170, -1, 122, 118, 104, -1, 104, 118, 116, -1,
 104, 116, 106, -1, 106, 116, 119, -1, 106, 119, 124, -1,
 109, 141, 137, -1, 123, 127, 108, -1, 181, 173, 169, -1,
 157, 153, 181, -1, 181, 153, 149, -1, 181, 149, 109, -1,
 109, 149, 145, -1, 109, 145, 141, -1, 180, 167, 171, -1,
 169, 165, 181, -1, 181, 165, 161, -1, 181, 161, 157, -1,
 137, 133, 109, -1, 109, 133, 129, -1, 109, 129, 125, -1,
 127, 131, 108, -1, 108, 131, 135, -1, 108, 135, 139, -1,
 139, 143, 108, -1, 108, 143, 147, -1, 108, 147, 180, -1,
 180, 147, 151, -1, 180, 151, 155, -1, 155, 159, 180, -1,
 180, 159, 163, -1, 180, 163, 167, -1, 171, 176, 180, -1,
 180, 176, 179, -1, 180, 179, 181, -1, 181, 179, 177, -1,
 181, 177, 173, -1, 125, 121, 109, -1, 109, 121, 117, -1,
 109, 117, 108, -1, 108, 117, 120, -1, 108, 120, 123, -1,
 117, 116, 120, -1, 120, 116, 118, -1, 120, 118, 123, -1,
 123, 118, 122, -1, 123, 122, 127, -1, 127, 122, 126, -1,
 127, 126, 131, -1, 131, 126, 130, -1, 131, 130, 135, -1,
 135, 130, 134, -1, 135, 134, 139, -1, 139, 134, 138, -1,
 139, 138, 143, -1, 143, 138, 142, -1, 143, 142, 147, -1,
 147, 142, 146, -1, 147, 146, 151, -1, 151, 146, 150, -1,
 151, 150, 155, -1, 155, 150, 154, -1, 155, 154, 159, -1,
 159, 154, 158, -1, 159, 158, 163, -1, 163, 158, 162, -1,
 163, 162, 167, -1, 167, 162, 166, -1, 167, 166, 171, -1,
 171, 166, 170, -1, 171, 170, 176, -1, 176, 170, 174, -1,
 176, 174, 179, -1, 179, 174, 178, -1, 179, 178, 177, -1,
 177, 178, 175, -1, 177, 175, 173, -1, 173, 175, 172, -1,
 173, 172, 169, -1, 169, 172, 168, -1, 169, 168, 165, -1,
 165, 168, 164, -1, 165, 164, 161, -1, 161, 164, 160, -1,
 161, 160, 157, -1, 157, 160, 156, -1, 157, 156, 153, -1,
 153, 156, 152, -1, 153, 152, 149, -1, 149, 152, 148, -1,
 149, 148, 145, -1, 145, 148, 144, -1, 145, 144, 141, -1,
 141, 144, 140, -1, 141, 140, 137, -1, 137, 140, 136, -1,
 137, 136, 133, -1, 133, 136, 132, -1, 133, 132, 129, -1,
 129, 132, 128, -1, 129, 128, 125, -1, 125, 128, 124, -1,
 125, 124, 121, -1, 121, 124, 119, -1, 121, 119, 117, -1,
 117, 119, 116, -1, 15, 19, 14, -1, 14, 19, 18, -1,
 16, 20, 17, -1, 17, 20, 21, -1, 303, 299, 302, -1,
 302, 299, 298, -1, 300, 296, 301, -1, 301, 296, 297, -1,
 16, 17, 13, -1, 16, 13, 12, -1, 12, 13, 9, -1,
 12, 9, 8, -1, 8, 9, 5, -1, 8, 5, 4, -1,
 4, 5, 3, -1, 4, 3, 2, -1, 15, 14, 10, -1,
 15, 10, 11, -1, 11, 10, 6, -1, 11, 6, 7, -1,
 7, 6, 0, -1, 7, 0, 1, -1, 300, 301, 305, -1,
 300, 305, 304, -1, 304, 305, 309, -1, 304, 309, 308, -1,
 308, 309, 313, -1, 308, 313, 312, -1, 303, 302, 306, -1,
 303, 306, 307, -1, 307, 306, 310, -1, 307, 310, 311, -1,
 311, 310, 314, -1, 311, 314, 315, -1, 195, 247, 194, -1,
 194, 247, 246, -1, 194, 246, 193, -1, 193, 246, 245, -1,
 193, 245, 192, -1, 192, 245, 243, -1, 192, 243, 190, -1,
 190, 243, 241, -1, 190, 241, 188, -1, 188, 241, 239, -1,
 188, 239, 186, -1, 186, 239, 237, -1, 186, 237, 185, -1,
 185, 237, 236, -1, 185, 236, 187, -1, 187, 236, 238, -1,
 187, 238, 189, -1, 189, 238, 240, -1, 189, 240, 191, -1,
 191, 240, 242, -1, 252, 196, 197, -1, 255, 198, 115, -1,
 198, 255, 197, -1, 197, 255, 254, -1, 197, 254, 252, -1,
 100, 102, 113, -1, 113, 102, 114, -1, 114, 102, 115, -1,
 115, 102, 103, -1, 115, 103, 255, -1, 255, 103, 101, -1,
 255, 101, 253, -1, 253, 101, 99, -1, 253, 99, 251, -1,
 251, 99, 98, -1, 251, 98, 250, -1, 250, 98, 97, -1,
 250, 97, 249, -1, 249, 97, 96, -1, 249, 96, 248, -1,
 93, 112, 111, -1, 91, 110, 182, -1, 110, 91, 111, -1,
 111, 91, 92, -1, 111, 92, 93, -1, 234, 233, 184, -1,
 184, 233, 183, -1, 183, 233, 182, -1, 182, 233, 232, -1,
 182, 232, 91, -1, 91, 232, 230, -1, 91, 230, 89, -1,
 89, 230, 229, -1, 89, 229, 88, -1, 88, 229, 228, -1,
 88, 228, 87, -1, 87, 228, 226, -1, 87, 226, 85, -1,
 85, 226, 225, -1, 85, 225, 84, -1
]
colorIndex [
 0, 0, 0, 0, 0, 0, 0, 0, 0, 0, 0, 0, 0, 0,
 0, 0, 0, 0, 0, 0, 0, 0, 0, 0, 0, 0, 0, 0, 0, 0, 0, 0, 0, 0, 0, 0,
 0, 0, 0, 0, 0, 0, 0, 0, 0, 0, 0, 0, 0, 0, 0, 0, 0, 0, 0, 0, 0, 0, 0, 0, 0,
 0, 0, 0, 0, 0, 0, 0, 0, 0, 0, 0, 0, 0, 0, 0, 0, 0, 0, 0, 0, 0, 0, 0, 0, 0, 0, 0, 0, 0, 0, 0, 0, 0, 0, 0, 0, 0, 0, 0, 0, 0, 0, 0, 0, 0, 0, 0, 0, 0, 0, 0, 0, 0, 0, 0, 0, 0, 0, 0, 0, 0, 0, 0, 0, 0, 0, 0, 0, 0, 0, 0, 0, 0, 0, 0, 0, 0, 0, 0, 0, 0, 0, 0, 0, 0, 0, 0, 0, 0, 0, 0, 0, 0, 0, 0, 0, 0, 0, 0, 0, 0, 0, 0, 0, 0, 0, 0, 0, 0,
 0, 0, 0, 0, 0, 0,
 0, 0, 0, 0, 0, 0,
 0, 0, 0, 0, 0, 0,
 0, 0, 0, 0, 0, 0,
 0, 0, 0, 0, 0,
 0, 0, 0, 0, 0,
 0, 0, 0, 0, 0, 0,
 0, 0, 0, 0,
 0, 0, 0, 0, 0, 0,
 0, 0, 0, 0, 0, 0,
 0, 0, 0, 0, 0, 0,
 0, 0, 0, 0, 0, 0,
 0, 0, 0, 0, 0, 0,
 0, 0, 0, 0, 0, 0,
 0, 0, 0, 0, 0, 0,
 0, 0, 0, 0, 0, 0,
 0, 0, 0, 0, 0, 0,
 0, 0, 0, 0, 0, 0,
 0, 0, 0, 0, 0, 0,
 0, 0, 0, 0, 0,
 0, 0, 0, 0, 0,
 0, 0, 0, 0, 0, 0,
 0, 0, 0, 0,
 0, 0, 0, 0, 0, 0,
 0, 0, 0, 0, 0,
 0, 0, 0, 0, 0, 0,
 0, 0, 0, 0, 0,
 0, 0, 0, 0, 0,
 0, 0, 0, 0, 0,
 0, 0, 0, 0, 0, 0,
 0, 0, 0, 0, 0,
 0, 0, 0, 0, 0,
 0, 0, 0, 0, 0, 0,
 0, 0, 0, 0,
 0, 0, 0, 0, 0, 0, 0, 0, 0, 0, 0, 0, 0, 0,
 0, 0, 0, 0, 0, 0, 0, 0, 0, 0, 0, 0, 0, 0, 0,
 0, 0, 0, 0, 0, 0, 0, 0, 0, 0, 0, 0, 0, 0, 0,
 0, 0, 0, 0, 0, 0, 0, 0, 0, 0, 0, 0, 0, 0, 0, 0, 0, 0, 0, 0, 0, 0, 0, 0, 0, 0, 0, 0, 0, 0, 0, 0, 0, 0, 0, 0, 0, 0, 0, 0, 0, 0, 0, 0, 0, 0, 0, 0, 0, 0, 0, 0, 0, 0, 0, 0, 0, 0, 0, 0, 0, 0, 0, 0, 0, 0, 0, 0, 0, 0, 0, 0, 0, 0, 0, 0, 0, 0, 0, 0, 0, 0, 0, 0, 0, 0, 0, 0, 0, 0, 0, 0, 0, 0, 0, 0, 0, 0, 0, 0, 0, 0, 0, 0, 0, 0, 0, 0, 0, 0, 0, 0, 0, 0, 0, 0, 0, 0, 0, 0, 0, 0, 0, 0, 0, 0, 0, 0, 0, 0, 0, 0, 0, 0, 0, 0,
 0, 0, 0, 0, 0, 0,
 0, 0, 0, 0, 0, 0, 0, 0, 0, 0, 0, 0, 0, 0, 0, 0,
 0, 0, 0, 0, 0, 0, 0, 0, 0, 0, 0, 0, 0, 0, 0, 0, 0, 0, 0, 0, 0, 0, 0, 0, 0, 0, 0, 0, 0, 0, 0, 0,
 0, 0, 0, 0, 0, 0, 0, 0, 0, 0, 0, 0, 0, 0, 0, 0, 0, 0, 0, 0, 0, 0, 0, 0, 0, 0, 0, 0, 0, 0, 0, 0, 0, 0, 0, 0, 0, 0, 0, 0,
]
normalIndex [
 47, 47, 47, -1, 47, 47, 47, -1, 47, 47, 47, -1,
 47, 47, 47, -1, 23, 23, 23, -1, 23, 23, 23, -1,
 23, 23, 23, -1, 23, 23, 23, -1, 23, 23, 23, -1,
 23, 23, 23, -1, 23, 23, 23, -1, 23, 23, 23, -1,
 23, 23, 23, -1, 23, 23, 23, -1, 47, 47, 47, -1,
 47, 47, 47, -1, 32, 32, 32, -1, 32, 32, 32, -1,
 32, 32, 32, -1, 32, 32, 32, -1, 32, 32, 32, -1,
 32, 32, 32, -1, 32, 32, 32, -1, 32, 32, 32, -1,
 32, 32, 32, -1, 32, 32, 32, -1, 26, 26, 26, -1,
 26, 26, 26, -1, 26, 26, 26, -1, 26, 26, 26, -1,
 26, 26, 26, -1, 26, 26, 26, -1, 26, 26, 26, -1,
 26, 26, 26, -1, 26, 26, 26, -1, 26, 26, 26, -1,
 0, 0, 0, -1, 0, 0, 0, -1, 0, 0, 0, -1,
 0, 0, 0, -1, 0, 0, 0, -1, 0, 0, 0, -1,
 0, 0, 0, -1, 0, 0, 0, -1, 0, 0, 0, -1,
 0, 0, 0, -1, 0, 0, 0, -1, 0, 0, 0, -1,
 0, 0, 0, -1, 0, 0, 0, -1, 0, 0, 0, -1,
 0, 0, 0, -1, 0, 0, 0, -1, 26, 26, 26, -1,
 26, 26, 26, -1, 79, 79, 79, -1, 79, 79, 79, -1,
 79, 79, 79, -1, 79, 79, 79, -1, 79, 79, 79, -1,
 79, 79, 79, -1, 32, 32, 32, -1, 32, 32, 32, -1,
 79, 79, 79, -1, 79, 79, 79, -1, 79, 79, 79, -1,
 79, 79, 79, -1, 79, 79, 79, -1, 79, 79, 79, -1,
 79, 79, 79, -1, 79, 79, 79, -1, 79, 79, 79, -1,
 79, 79, 79, -1, 79, 79, 79, -1, 79, 79, 79, -1,
 79, 79, 79, -1, 79, 79, 79, -1, 79, 79, 79, -1,
 79, 79, 79, -1, 79, 79, 79, -1, 79, 79, 79, -1,
 79, 79, 79, -1, 79, 79, 79, -1, 79, 79, 79, -1,
 79, 79, 79, -1, 79, 79, 79, -1, 79, 79, 79, -1,
 79, 79, 79, -1, 79, 79, 79, -1, 79, 79, 79, -1,
 79, 79, 79, -1, 79, 79, 79, -1, 79, 79, 79, -1,
 79, 79, 79, -1, 79, 79, 79, -1, 79, 79, 79, -1,
 79, 79, 79, -1, 79, 79, 79, -1, 79, 79, 79, -1,
 79, 79, 79, -1, 79, 79, 79, -1, 79, 79, 79, -1,
 79, 79, 79, -1, 79, 79, 79, -1, 79, 79, 79, -1,
 79, 79, 79, -1, 79, 79, 79, -1, 79, 79, 79, -1,
 79, 79, 79, -1, 79, 79, 79, -1, 79, 79, 79, -1,
 79, 79, 79, -1, 79, 79, 79, -1, 79, 79, 79, -1,
 79, 79, 79, -1, 79, 79, 79, -1, 79, 79, 79, -1,
 79, 79, 79, -1, 79, 79, 79, -1, 79, 79, 79, -1,
 79, 79, 79, -1, 79, 79, 79, -1, 0, 0, 0, -1,
 0, 0, 0, -1, 0, 0, 0, -1, 0, 0, 0, -1,
 0, 0, 0, -1, 0, 0, 0, -1, 0, 0, 0, -1,
 0, 0, 0, -1, 0, 0, 0, -1, 0, 0, 0, -1,
 0, 0, 0, -1, 0, 0, 0, -1, 0, 0, 0, -1,
 0, 0, 0, -1, 0, 0, 0, -1, 0, 0, 0, -1,
 0, 0, 0, -1, 0, 0, 0, -1, 0, 0, 0, -1,
 0, 0, 0, -1, 0, 0, 0, -1, 0, 0, 0, -1,
 0, 0, 0, -1, 0, 0, 0, -1, 0, 0, 0, -1,
 0, 0, 0, -1, 0, 0, 0, -1, 0, 0, 0, -1,
 0, 0, 0, -1, 0, 0, 0, -1, 0, 0, 0, -1,
 0, 0, 0, -1, 0, 0, 0, -1, 0, 0, 0, -1,
 0, 0, 0, -1, 0, 0, 0, -1, 0, 0, 0, -1,
 0, 0, 0, -1, 0, 0, 0, -1, 0, 0, 0, -1,
 0, 0, 0, -1, 0, 0, 0, -1, 0, 0, 0, -1,
 0, 0, 0, -1, 0, 0, 0, -1, 0, 0, 0, -1,
 0, 0, 0, -1, 0, 0, 0, -1, 0, 0, 0, -1,
 0, 0, 0, -1, 32, 32, 32, -1, 32, 32, 32, -1,
 23, 23, 23, -1, 23, 23, 23, -1, 26, 26, 26, -1,
 26, 26, 26, -1, 47, 47, 47, -1, 47, 47, 47, -1,
 79, 79, 79, -1, 79, 79, 79, -1, 32, 32, 32, -1,
 32, 32, 32, -1, 23, 23, 23, -1, 23, 23, 23, -1,
 26, 26, 26, -1, 26, 26, 26, -1, 47, 47, 47, -1,
 47, 47, 47, -1, 25, 25, 25, -1, 25, 25, 25, -1,
 9, 9, 9, -1, 9, 9, 9, -1, 14, 14, 14, -1,
 10, 10, 10, -1, 10, 10, 10, -1, 11, 11, 11, -1,
 11, 11, 11, -1, 12, 12, 12, -1, 12, 12, 12, -1,
 16, 16, 16, -1, 46, 46, 46, -1, 46, 46, 46, -1,
 25, 25, 25, -1, 25, 25, 25, -1, 67, 67, 67, -1,
 67, 67, 67, -1, 46, 46, 46, -1, 46, 46, 46, -1,
 62, 62, 62, -1, 64, 64, 64, -1, 65, 65, 65, -1,
 65, 65, 65, -1, 68, 68, 68, -1, 68, 68, 68, -1,
 66, 66, 66, -1, 66, 66, 66, -1, 0, 0, 0, -1,
 0, 0, 0, -1, 23, 23, 23, -1, 23, 23, 23, -1,
 26, 26, 26, -1, 26, 26, 26, -1, 47, 47, 47, -1,
 47, 47, 47, -1, 32, 32, 32, -1, 32, 32, 32, -1,
 79, 79, 79, -1, 79, 79, 79, -1, 23, 23, 23, -1,
 23, 23, 23, -1, 26, 26, 26, -1, 26, 26, 26, -1,
 47, 47, 47, -1, 47, 47, 47, -1, 32, 32, 32, -1,
 32, 32, 32, -1, 0, 0, 0, -1, 0, 0, 0, -1,
 26, 26, 26, -1, 26, 26, 26, -1, 47, 47, 47, -1,
 47, 47, 47, -1, 32, 32, 32, -1, 32, 32, 32, -1,
 23, 23, 23, -1, 23, 23, 23, -1, 79, 79, 79, -1,
 79, 79, 79, -1, 26, 26, 26, -1, 26, 26, 26, -1,
 47, 47, 47, -1, 47, 47, 47, -1, 32, 32, 32, -1,
 32, 32, 32, -1, 23, 23, 23, -1, 23, 23, 23, -1,
 0, 0, 0, -1, 0, 0, 0, -1, 47, 47, 47, -1,
 47, 47, 47, -1, 32, 32, 32, -1, 32, 32, 32, -1,
 23, 23, 23, -1, 23, 23, 23, -1, 26, 26, 26, -1,
 26, 26, 26, -1, 79, 79, 79, -1, 79, 79, 79, -1,
 47, 47, 47, -1, 47, 47, 47, -1, 32, 32, 32, -1,
 32, 32, 32, -1, 23, 23, 23, -1, 23, 23, 23, -1,
 26, 26, 26, -1, 26, 26, 26, -1, 24, 24, 24, -1,
 24, 24, 24, -1, 10, 10, 10, -1, 10, 10, 10, -1,
 13, 13, 13, -1, 12, 12, 12, -1, 12, 12, 12, -1,
 9, 9, 9, -1, 9, 9, 9, -1, 11, 11, 11, -1,
 11, 11, 11, -1, 14, 14, 14, -1, 25, 25, 25, -1,
 25, 25, 25, -1, 24, 24, 24, -1, 24, 24, 24, -1,
 65, 65, 65, -1, 65, 65, 65, -1, 25, 25, 25, -1,
 25, 25, 25, -1, 61, 61, 61, -1, 62, 62, 62, -1,
 66, 66, 66, -1, 66, 66, 66, -1, 67, 67, 67, -1,
 67, 67, 67, -1, 68, 68, 68, -1, 68, 68, 68, -1,
 33, 33, 33, -1, 33, 33, 33, -1, 12, 12, 12, -1,
 12, 12, 12, -1, 15, 15, 15, -1, 11, 11, 11, -1,
 11, 11, 11, -1, 10, 10, 10, -1, 10, 10, 10, -1,
 9, 9, 9, -1, 9, 9, 9, -1, 13, 13, 13, -1,
 24, 24, 24, -1, 24, 24, 24, -1, 33, 33, 33, -1,
 33, 33, 33, -1, 66, 66, 66, -1, 66, 66, 66, -1,
 24, 24, 24, -1, 24, 24, 24, -1, 63, 63, 63, -1,
 61, 61, 61, -1, 68, 68, 68, -1, 68, 68, 68, -1,
 65, 65, 65, -1, 65, 65, 65, -1, 67, 67, 67, -1,
 67, 67, 67, -1, 46, 46, 46, -1, 46, 46, 46, -1,
 11, 11, 11, -1, 11, 11, 11, -1, 16, 16, 16, -1,
 9, 9, 9, -1, 9, 9, 9, -1, 12, 12, 12, -1,
 12, 12, 12, -1, 10, 10, 10, -1, 10, 10, 10, -1,
 15, 15, 15, -1, 33, 33, 33, -1, 33, 33, 33, -1,
 46, 46, 46, -1, 46, 46, 46, -1, 68, 68, 68, -1,
 68, 68, 68, -1, 33, 33, 33, -1, 33, 33, 33, -1,
 64, 64, 64, -1, 63, 63, 63, -1, 67, 67, 67, -1,
 67, 67, 67, -1, 66, 66, 66, -1, 66, 66, 66, -1,
 65, 65, 65, -1, 65, 65, 65, -1, 47, 47, 47, -1,
 47, 47, 47, -1, 47, 47, 47, -1, 47, 47, 47, -1,
 47, 47, 47, -1, 47, 47, 47, -1, 47, 47, 47, -1,
 47, 47, 47, -1, 47, 47, 47, -1, 47, 47, 47, -1,
 47, 47, 47, -1, 47, 47, 47, -1, 47, 47, 47, -1,
 47, 47, 47, -1, 47, 47, 47, -1, 47, 47, 47, -1,
 47, 47, 47, -1, 47, 47, 47, -1, 47, 47, 47, -1,
 47, 47, 47, -1, 47, 47, 47, -1, 79, 79, 79, -1,
 79, 79, 79, -1, 0, 0, 0, -1, 0, 0, 0, -1,
 23, 23, 23, -1, 23, 23, 23, -1, 23, 23, 23, -1,
 23, 23, 23, -1, 23, 23, 23, -1, 23, 23, 23, -1,
 23, 23, 23, -1, 23, 23, 23, -1, 23, 23, 23, -1,
 23, 23, 23, -1, 23, 23, 23, -1, 79, 79, 79, -1,
 79, 79, 79, -1, 0, 0, 0, -1, 0, 0, 0, -1,
 23, 23, 23, -1, 23, 23, 23, -1, 23, 23, 23, -1,
 23, 23, 23, -1, 23, 23, 23, -1, 23, 23, 23, -1,
 23, 23, 23, -1, 23, 23, 23, -1, 23, 23, 23, -1,
 23, 23, 23, -1, 23, 23, 23, -1, 23, 23, 23, -1,
 23, 23, 23, -1, 23, 23, 23, -1, 23, 23, 23, -1,
 23, 23, 23, -1, 23, 23, 23, -1, 23, 23, 23, -1,
 23, 23, 23, -1, 23, 23, 23, -1, 23, 23, 23, -1,
 23, 23, 23, -1, 23, 23, 23, -1, 23, 23, 23, -1,
 23, 23, 23, -1, 23, 23, 23, -1, 23, 23, 23, -1,
 23, 23, 23, -1, 23, 23, 23, -1, 23, 23, 23, -1,
 23, 23, 23, -1, 23, 23, 23, -1, 23, 23, 23, -1,
 23, 23, 23, -1, 23, 23, 23, -1, 23, 23, 23, -1,
 47, 47, 47, -1, 47, 47, 47, -1, 47, 47, 47, -1,
 47, 47, 47, -1, 47, 47, 47, -1, 47, 47, 47, -1,
 47, 47, 47, -1, 47, 47, 47, -1, 47, 47, 47, -1,
 47, 47, 47, -1, 47, 47, 47, -1, 47, 47, 47, -1,
 47, 47, 47, -1, 47, 47, 47, -1, 47, 47, 47, -1,
 47, 47, 47, -1, 47, 47, 47, -1, 47, 47, 47, -1,
 47, 47, 47, -1, 47, 47, 47, -1, 47, 47, 47, -1,
 47, 47, 47, -1, 47, 47, 47, -1, 47, 47, 47, -1,
 47, 47, 47, -1, 47, 47, 47, -1, 47, 47, 47, -1,
 47, 47, 47, -1, 47, 47, 47, -1, 47, 47, 47, -1,
 47, 47, 47, -1, 47, 47, 47, -1, 47, 47, 47, -1,
 47, 47, 47, -1, 47, 47, 47, -1, 47, 47, 47, -1,
 79, 79, 78, -1, 78, 79, 78, -1, 78, 78, 74, -1,
 74, 78, 74, -1, 74, 74, 70, -1, 70, 74, 70, -1,
 70, 70, 67, -1, 67, 70, 67, -1, 67, 67, 60, -1,
 60, 67, 60, -1, 60, 60, 58, -1, 58, 60, 58, -1,
 58, 58, 56, -1, 56, 58, 56, -1, 56, 56, 32, -1,
 32, 56, 32, -1, 32, 32, 22, -1, 22, 32, 22, -1,
 22, 22, 20, -1, 20, 22, 20, -1, 20, 20, 18, -1,
 18, 20, 18, -1, 18, 18, 11, -1, 11, 18, 11, -1,
 11, 11, 8, -1, 8, 11, 8, -1, 8, 8, 5, -1,
 5, 8, 5, -1, 5, 5, 2, -1, 2, 5, 2, -1,
 2, 2, 0, -1, 0, 2, 0, -1, 0, 0, 1, -1,
 1, 0, 1, -1, 1, 1, 4, -1, 4, 1, 4, -1,
 4, 4, 7, -1, 7, 4, 7, -1, 7, 7, 10, -1,
 10, 7, 10, -1, 10, 10, 17, -1, 17, 10, 17, -1,
 17, 17, 19, -1, 19, 17, 19, -1, 19, 19, 21, -1,
 21, 19, 21, -1, 21, 21, 26, -1, 26, 21, 26, -1,
 26, 26, 55, -1, 55, 26, 55, -1, 55, 55, 57, -1,
 57, 55, 57, -1, 57, 57, 59, -1, 59, 57, 59, -1,
 59, 59, 66, -1, 66, 59, 66, -1, 66, 66, 69, -1,
 69, 66, 69, -1, 69, 69, 73, -1, 73, 69, 73, -1,
 73, 73, 77, -1, 77, 73, 77, -1, 77, 77, 79, -1,
 79, 77, 79, -1, 10, 10, 10, -1, 10, 10, 10, -1,
 11, 11, 11, -1, 11, 11, 11, -1, 67, 67, 67, -1,
 67, 67, 67, -1, 66, 66, 66, -1, 66, 66, 66, -1,
 11, 11, 8, -1, 11, 8, 8, -1, 8, 8, 5, -1,
 8, 5, 5, -1, 5, 5, 2, -1, 5, 2, 2, -1,
 2, 2, 0, -1, 2, 0, 0, -1, 10, 10, 6, -1,
 10, 6, 6, -1, 6, 6, 3, -1, 6, 3, 3, -1,
 3, 3, 0, -1, 3, 0, 0, -1, 66, 66, 71, -1,
 66, 71, 71, -1, 71, 71, 75, -1, 71, 75, 75, -1,
 75, 75, 79, -1, 75, 79, 79, -1, 67, 67, 72, -1,
 67, 72, 72, -1, 72, 72, 76, -1, 72, 76, 76, -1,
 76, 76, 79, -1, 76, 79, 79, -1, 28, 28, 30, -1,
 30, 28, 30, -1, 30, 30, 34, -1, 34, 30, 34, -1,
 34, 34, 37, -1, 37, 34, 37, -1, 37, 37, 42, -1,
 42, 37, 42, -1, 42, 42, 47, -1, 47, 42, 47, -1,
 47, 47, 51, -1, 51, 47, 51, -1, 51, 51, 52, -1,
 52, 51, 52, -1, 52, 52, 48, -1, 48, 52, 48, -1,
 48, 48, 43, -1, 43, 48, 43, -1, 43, 43, 38, -1,
 38, 43, 38, -1, 47, 47, 50, -1, 53, 54, 54, -1,
 54, 53, 50, -1, 50, 53, 50, -1, 50, 50, 47, -1,
 47, 50, 47, -1, 47, 50, 50, -1, 50, 50, 54, -1,
 54, 50, 53, -1, 54, 53, 53, -1, 53, 53, 49, -1,
 53, 49, 49, -1, 49, 49, 45, -1, 49, 45, 45, -1,
 45, 45, 41, -1, 45, 41, 41, -1, 41, 41, 36, -1,
 41, 36, 36, -1, 36, 36, 32, -1, 36, 32, 32, -1,
 47, 47, 44, -1, 39, 40, 40, -1, 40, 39, 44, -1,
 44, 39, 44, -1, 44, 44, 47, -1, 47, 44, 47, -1,
 47, 44, 44, -1, 44, 44, 40, -1, 40, 44, 39, -1,
 40, 39, 39, -1, 39, 39, 35, -1, 39, 35, 35, -1,
 35, 35, 31, -1, 35, 31, 31, -1, 31, 31, 29, -1,
 31, 29, 29, -1, 29, 29, 27, -1, 29, 27, 27, -1,
 27, 27, 26, -1, 27, 26, 26, -1
]
colorPerVertex FALSE
normalPerVertex TRUE
}
}
]
}
