#VRML V2.0 utf8
Transform {
children [
Shape {
appearance Appearance {
material Material {
ambientIntensity 1.000000
diffuseColor 0.792157 0.819608 0.933333
emissiveColor 0.000000 0.000000 0.000000
specularColor 0.396078 0.409804 0.466667
shininess 0.400000
transparency 0.000000
}
}
geometry IndexedFaceSet {
color Color {
color [
 0.792157 0.819608 0.933333
]
}
coord Coordinate {
point [
 -0.110575 -0.008744 0.133223, -0.110575 -0.008744 0.267223, -0.110575 -0.004744 0.133223, -0.110575 -0.004744 0.267223, -0.100575 -0.020744 0.274723,
 -0.100575 -0.020744 0.275723, -0.100575 -0.020489 0.272782, -0.100575 -0.020489 0.277664, -0.100575 -0.019740 0.270973, -0.100575 -0.019740 0.279473,
 -0.100575 -0.018548 0.269420, -0.100575 -0.018548 0.281027, -0.100575 -0.016994 0.268228, -0.100575 -0.016994 0.282218, -0.100575 -0.016744 0.275223,
 -0.100575 -0.016608 0.274188, -0.100575 -0.016608 0.276258, -0.100575 -0.016208 0.273223, -0.100575 -0.016208 0.277223, -0.100575 -0.015573 0.272395,
 -0.100575 -0.015573 0.278052, -0.100575 -0.015185 0.267479, -0.100575 -0.015185 0.282968, -0.100575 -0.014744 0.271759, -0.100575 -0.014744 0.278687,
 -0.100575 -0.013780 0.271360, -0.100575 -0.013780 0.279087, -0.100575 -0.013244 0.267223, -0.100575 -0.013244 0.283223, -0.100575 -0.012744 0.271223,
 -0.100575 -0.012744 0.279223, -0.100575 -0.012244 0.283223, -0.100575 -0.011709 0.271360, -0.100575 -0.011709 0.279087, -0.100575 -0.010744 0.271759,
 -0.100575 -0.010744 0.278687, -0.100575 -0.010303 0.282968, -0.100575 -0.009916 0.272395, -0.100575 -0.009916 0.278052, -0.100575 -0.009280 0.273223,
 -0.100575 -0.009280 0.277223, -0.100575 -0.008881 0.274188, -0.100575 -0.008881 0.276258, -0.100575 -0.008744 0.267223, -0.100575 -0.008744 0.275223,
 -0.100575 -0.008494 0.282218, -0.100575 -0.006941 0.281027, -0.100575 -0.005749 0.279473, -0.100575 -0.005000 0.277664, -0.100575 -0.004744 0.267223,
 -0.100575 -0.004744 0.275723, -0.090575 -0.020744 0.274723, -0.090575 -0.020744 0.275723, -0.090575 -0.020489 0.272782, -0.090575 -0.020489 0.277664,
 -0.090575 -0.019740 0.270973, -0.090575 -0.019740 0.279473, -0.090575 -0.018548 0.269420, -0.090575 -0.018548 0.281027, -0.090575 -0.016994 0.268228,
 -0.090575 -0.016994 0.282218, -0.090575 -0.016744 0.275223, -0.090575 -0.016608 0.274188, -0.090575 -0.016608 0.276258, -0.090575 -0.016208 0.273223,
 -0.090575 -0.016208 0.277223, -0.090575 -0.015573 0.272395, -0.090575 -0.015573 0.278052, -0.090575 -0.015185 0.267479, -0.090575 -0.015185 0.282968,
 -0.090575 -0.014744 0.271759, -0.090575 -0.014744 0.278687, -0.090575 -0.013780 0.271360, -0.090575 -0.013780 0.279087, -0.090575 -0.013244 0.267223,
 -0.090575 -0.013244 0.283223, -0.090575 -0.012744 0.271223, -0.090575 -0.012744 0.279223, -0.090575 -0.012244 0.283223, -0.090575 -0.011709 0.271360,
 -0.090575 -0.011709 0.279087, -0.090575 -0.010744 0.271759, -0.090575 -0.010744 0.278687, -0.090575 -0.010303 0.282968, -0.090575 -0.009916 0.272395,
 -0.090575 -0.009916 0.278052, -0.090575 -0.009280 0.273223, -0.090575 -0.009280 0.277223, -0.090575 -0.008881 0.274188, -0.090575 -0.008881 0.276258,
 -0.090575 -0.008744 0.267223, -0.090575 -0.008744 0.275223, -0.090575 -0.008494 0.282218, -0.090575 -0.006941 0.281027, -0.090575 -0.005749 0.279473,
 -0.090575 -0.005000 0.277664, -0.090575 -0.004744 0.267223, -0.090575 -0.004744 0.275723, -0.080575 -0.020744 0.274723, -0.080575 -0.020744 0.275723,
 -0.080575 -0.020489 0.272782, -0.080575 -0.020489 0.277664, -0.080575 -0.019740 0.270973, -0.080575 -0.019740 0.279473, -0.080575 -0.018548 0.269420,
 -0.080575 -0.018548 0.281027, -0.080575 -0.016994 0.268228, -0.080575 -0.016994 0.282218, -0.080575 -0.016744 0.275223, -0.080575 -0.016608 0.274188,
 -0.080575 -0.016608 0.276258, -0.080575 -0.016208 0.273223, -0.080575 -0.016208 0.277223, -0.080575 -0.015573 0.272395, -0.080575 -0.015573 0.278052,
 -0.080575 -0.015185 0.267479, -0.080575 -0.015185 0.282968, -0.080575 -0.014744 0.271759, -0.080575 -0.014744 0.278687, -0.080575 -0.013780 0.271360,
 -0.080575 -0.013780 0.279087, -0.080575 -0.013244 0.267223, -0.080575 -0.013244 0.283223, -0.080575 -0.012744 0.271223, -0.080575 -0.012744 0.279223,
 -0.080575 -0.012244 0.283223, -0.080575 -0.011709 0.271360, -0.080575 -0.011709 0.279087, -0.080575 -0.010744 0.271759, -0.080575 -0.010744 0.278687,
 -0.080575 -0.010303 0.282968, -0.080575 -0.009916 0.272395, -0.080575 -0.009916 0.278052, -0.080575 -0.009280 0.273223, -0.080575 -0.009280 0.277223,
 -0.080575 -0.008881 0.274188, -0.080575 -0.008881 0.276258, -0.080575 -0.008744 0.267223, -0.080575 -0.008744 0.275223, -0.080575 -0.008494 0.282218,
 -0.080575 -0.006941 0.281027, -0.080575 -0.005749 0.279473, -0.080575 -0.005000 0.277664, -0.080575 -0.004744 0.267223, -0.080575 -0.004744 0.275723,
 -0.070575 -0.020744 0.274723, -0.070575 -0.020744 0.275723, -0.070575 -0.020489 0.272782, -0.070575 -0.020489 0.277664, -0.070575 -0.019740 0.270973,
 -0.070575 -0.019740 0.279473, -0.070575 -0.018548 0.269420, -0.070575 -0.018548 0.281027, -0.070575 -0.016994 0.268228, -0.070575 -0.016994 0.282218,
 -0.070575 -0.016744 0.275223, -0.070575 -0.016608 0.274188, -0.070575 -0.016608 0.276258, -0.070575 -0.016208 0.273223, -0.070575 -0.016208 0.277223,
 -0.070575 -0.015573 0.272395, -0.070575 -0.015573 0.278052, -0.070575 -0.015185 0.267479, -0.070575 -0.015185 0.282968, -0.070575 -0.014744 0.271759,
 -0.070575 -0.014744 0.278687, -0.070575 -0.013780 0.271360, -0.070575 -0.013780 0.279087, -0.070575 -0.013244 0.267223, -0.070575 -0.013244 0.283223,
 -0.070575 -0.012744 0.271223, -0.070575 -0.012744 0.279223, -0.070575 -0.012244 0.283223, -0.070575 -0.011709 0.271360, -0.070575 -0.011709 0.279087,
 -0.070575 -0.010744 0.271759, -0.070575 -0.010744 0.278687, -0.070575 -0.010303 0.282968, -0.070575 -0.009916 0.272395, -0.070575 -0.009916 0.278052,
 -0.070575 -0.009280 0.273223, -0.070575 -0.009280 0.277223, -0.070575 -0.008881 0.274188, -0.070575 -0.008881 0.276258, -0.070575 -0.008744 0.133223,
 -0.070575 -0.008744 0.267223, -0.070575 -0.008744 0.275223, -0.070575 -0.008494 0.282218, -0.070575 -0.006941 0.281027, -0.070575 -0.005749 0.279473,
 -0.070575 -0.005000 0.277664, -0.070575 -0.004744 0.133223, -0.070575 -0.004744 0.275723
]
}
normal Normal {
vector [
 -1.000000 0.000000 -0.000000, -0.000000 -1.000000 -0.000000, -0.000000 -0.965926 -0.258819, -0.000000 -0.965926 0.258819, -0.000000 -0.866025 -0.500000,
 -0.000000 -0.866025 0.500000, -0.000000 -0.707107 -0.707107, -0.000000 -0.707107 0.707107, -0.000000 -0.500000 -0.866025, -0.000000 -0.500000 0.866025,
 -0.000000 -0.258819 -0.965926, -0.000000 -0.258819 0.965926, 0.000000 0.000000 -1.000000, -0.000000 0.000000 1.000000, 0.000000 0.258819 -0.965926,
 0.000000 0.258819 0.965926, 0.000000 0.500000 -0.866025, 0.000000 0.500000 0.866025, 0.000000 0.707107 -0.707107, 0.000000 0.707107 0.707107,
 0.000000 0.866025 -0.500000, 0.000000 0.866025 0.500000, 0.000000 0.965926 -0.258819, 0.000000 0.965926 0.258819, 0.000000 1.000000 -0.000000,
 1.000000 -0.000000 0.000000
]
}
coordIndex [
 78, 31, 75, -1, 75, 31, 28, -1, 74, 27, 90, -1,
 90, 27, 43, -1, 52, 5, 51, -1, 51, 5, 4, -1,
 61, 14, 63, -1, 63, 14, 16, -1, 63, 16, 65, -1,
 65, 16, 18, -1, 65, 18, 67, -1, 67, 18, 20, -1,
 67, 20, 71, -1, 71, 20, 24, -1, 71, 24, 73, -1,
 73, 24, 26, -1, 73, 26, 77, -1, 77, 26, 30, -1,
 77, 30, 80, -1, 80, 30, 33, -1, 80, 33, 82, -1,
 82, 33, 35, -1, 82, 35, 85, -1, 85, 35, 38, -1,
 85, 38, 87, -1, 87, 38, 40, -1, 87, 40, 89, -1,
 89, 40, 42, -1, 89, 42, 91, -1, 91, 42, 44, -1,
 91, 44, 88, -1, 88, 44, 41, -1, 88, 41, 86, -1,
 86, 41, 39, -1, 86, 39, 84, -1, 84, 39, 37, -1,
 84, 37, 81, -1, 81, 37, 34, -1, 81, 34, 79, -1,
 79, 34, 32, -1, 79, 32, 76, -1, 76, 32, 29, -1,
 76, 29, 72, -1, 72, 29, 25, -1, 72, 25, 70, -1,
 70, 25, 23, -1, 70, 23, 66, -1, 66, 23, 19, -1,
 66, 19, 64, -1, 64, 19, 17, -1, 64, 17, 62, -1,
 62, 17, 15, -1, 62, 15, 61, -1, 61, 15, 14, -1,
 75, 28, 22, -1, 75, 22, 69, -1, 69, 22, 13, -1,
 69, 13, 60, -1, 60, 13, 11, -1, 60, 11, 58, -1,
 58, 11, 9, -1, 58, 9, 56, -1, 56, 9, 7, -1,
 56, 7, 54, -1, 54, 7, 5, -1, 54, 5, 52, -1,
 27, 74, 68, -1, 27, 68, 21, -1, 21, 68, 59, -1,
 21, 59, 12, -1, 12, 59, 57, -1, 12, 57, 10, -1,
 10, 57, 55, -1, 10, 55, 8, -1, 8, 55, 53, -1,
 8, 53, 6, -1, 6, 53, 51, -1, 6, 51, 4, -1,
 31, 78, 83, -1, 31, 83, 36, -1, 36, 83, 92, -1,
 36, 92, 45, -1, 45, 92, 93, -1, 45, 93, 46, -1,
 46, 93, 94, -1, 46, 94, 47, -1, 47, 94, 95, -1,
 47, 95, 48, -1, 48, 95, 97, -1, 48, 97, 50, -1,
 2, 0, 3, -1, 3, 0, 1, -1, 43, 1, 0, -1,
 184, 185, 137, -1, 184, 137, 0, -1, 0, 137, 90, -1,
 0, 90, 43, -1, 184, 0, 191, -1, 191, 0, 2, -1,
 184, 191, 185, -1, 185, 191, 192, -1, 192, 186, 182, -1,
 192, 182, 185, -1, 185, 182, 180, -1, 185, 180, 178, -1,
 186, 192, 183, -1, 183, 192, 190, -1, 183, 190, 181, -1,
 181, 190, 189, -1, 181, 189, 179, -1, 179, 189, 188, -1,
 179, 188, 176, -1, 176, 188, 187, -1, 176, 187, 174, -1,
 178, 175, 185, -1, 185, 175, 173, -1, 185, 173, 168, -1,
 168, 173, 170, -1, 168, 170, 162, -1, 162, 170, 166, -1,
 162, 166, 153, -1, 153, 166, 164, -1, 153, 164, 151, -1,
 151, 164, 160, -1, 151, 160, 149, -1, 149, 160, 158, -1,
 149, 158, 147, -1, 147, 158, 156, -1, 147, 156, 145, -1,
 145, 156, 155, -1, 187, 177, 174, -1, 174, 177, 172, -1,
 174, 172, 171, -1, 171, 172, 169, -1, 171, 169, 167, -1,
 167, 169, 163, -1, 167, 163, 165, -1, 165, 163, 154, -1,
 165, 154, 161, -1, 161, 154, 152, -1, 161, 152, 159, -1,
 159, 152, 150, -1, 159, 150, 157, -1, 157, 150, 148, -1,
 157, 148, 155, -1, 155, 148, 146, -1, 155, 146, 145, -1,
 122, 169, 125, -1, 125, 169, 172, -1, 50, 97, 49, -1,
 49, 97, 96, -1, 144, 192, 143, -1, 143, 192, 191, -1,
 143, 191, 96, -1, 96, 191, 2, -1, 96, 2, 49, -1,
 49, 2, 3, -1, 137, 185, 121, -1, 121, 185, 168, -1,
 98, 145, 99, -1, 99, 145, 146, -1, 155, 108, 157, -1,
 157, 108, 110, -1, 157, 110, 159, -1, 159, 110, 112, -1,
 159, 112, 161, -1, 161, 112, 114, -1, 161, 114, 165, -1,
 165, 114, 118, -1, 165, 118, 167, -1, 167, 118, 120, -1,
 167, 120, 171, -1, 171, 120, 124, -1, 171, 124, 174, -1,
 174, 124, 127, -1, 174, 127, 176, -1, 176, 127, 129, -1,
 176, 129, 179, -1, 179, 129, 132, -1, 179, 132, 181, -1,
 181, 132, 134, -1, 181, 134, 183, -1, 183, 134, 136, -1,
 183, 136, 186, -1, 186, 136, 138, -1, 186, 138, 182, -1,
 182, 138, 135, -1, 182, 135, 180, -1, 180, 135, 133, -1,
 180, 133, 178, -1, 178, 133, 131, -1, 178, 131, 175, -1,
 175, 131, 128, -1, 175, 128, 173, -1, 173, 128, 126, -1,
 173, 126, 170, -1, 170, 126, 123, -1, 170, 123, 166, -1,
 166, 123, 119, -1, 166, 119, 164, -1, 164, 119, 117, -1,
 164, 117, 160, -1, 160, 117, 113, -1, 160, 113, 158, -1,
 158, 113, 111, -1, 158, 111, 156, -1, 156, 111, 109, -1,
 156, 109, 155, -1, 155, 109, 108, -1, 169, 122, 116, -1,
 169, 116, 163, -1, 163, 116, 107, -1, 163, 107, 154, -1,
 154, 107, 105, -1, 154, 105, 152, -1, 152, 105, 103, -1,
 152, 103, 150, -1, 150, 103, 101, -1, 150, 101, 148, -1,
 148, 101, 99, -1, 148, 99, 146, -1, 121, 168, 162, -1,
 121, 162, 115, -1, 115, 162, 153, -1, 115, 153, 106, -1,
 106, 153, 151, -1, 106, 151, 104, -1, 104, 151, 149, -1,
 104, 149, 102, -1, 102, 149, 147, -1, 102, 147, 100, -1,
 100, 147, 145, -1, 100, 145, 98, -1, 125, 172, 177, -1,
 125, 177, 130, -1, 130, 177, 187, -1, 130, 187, 139, -1,
 139, 187, 188, -1, 139, 188, 140, -1, 140, 188, 189, -1,
 140, 189, 141, -1, 141, 189, 190, -1, 141, 190, 142, -1,
 142, 190, 192, -1, 142, 192, 144, -1, 49, 3, 43, -1,
 43, 3, 1, -1, 15, 17, 8, -1, 8, 17, 10, -1,
 10, 17, 19, -1, 10, 19, 12, -1, 12, 19, 23, -1,
 12, 23, 21, -1, 21, 23, 25, -1, 21, 25, 27, -1,
 27, 25, 29, -1, 27, 29, 43, -1, 50, 49, 39, -1,
 8, 6, 15, -1, 15, 6, 4, -1, 15, 4, 14, -1,
 14, 4, 5, -1, 14, 5, 16, -1, 16, 5, 7, -1,
 16, 7, 18, -1, 18, 7, 9, -1, 18, 9, 20, -1,
 20, 9, 11, -1, 20, 11, 24, -1, 24, 11, 13, -1,
 24, 13, 26, -1, 26, 13, 22, -1, 26, 22, 30, -1,
 29, 32, 43, -1, 43, 32, 34, -1, 43, 34, 49, -1,
 49, 34, 37, -1, 49, 37, 39, -1, 39, 41, 50, -1,
 50, 41, 44, -1, 50, 44, 48, -1, 48, 44, 42, -1,
 48, 42, 47, -1, 47, 42, 40, -1, 47, 40, 46, -1,
 46, 40, 38, -1, 46, 38, 45, -1, 45, 38, 35, -1,
 45, 35, 36, -1, 36, 35, 33, -1, 36, 33, 31, -1,
 31, 33, 30, -1, 31, 30, 28, -1, 28, 30, 22, -1,
 143, 96, 137, -1, 137, 96, 90, -1, 97, 91, 88, -1,
 97, 88, 96, -1, 88, 86, 96, -1, 96, 86, 84, -1,
 96, 84, 90, -1, 61, 51, 62, -1, 62, 51, 53, -1,
 62, 53, 64, -1, 64, 53, 55, -1, 64, 55, 66, -1,
 66, 55, 57, -1, 66, 57, 70, -1, 70, 57, 59, -1,
 70, 59, 72, -1, 72, 59, 68, -1, 72, 68, 76, -1,
 76, 68, 74, -1, 76, 74, 79, -1, 79, 74, 90, -1,
 79, 90, 81, -1, 81, 90, 84, -1, 80, 78, 77, -1,
 77, 78, 75, -1, 77, 75, 73, -1, 73, 75, 69, -1,
 73, 69, 71, -1, 71, 69, 60, -1, 71, 60, 67, -1,
 67, 60, 58, -1, 67, 58, 65, -1, 65, 58, 56, -1,
 65, 56, 63, -1, 63, 56, 54, -1, 63, 54, 61, -1,
 61, 54, 52, -1, 61, 52, 51, -1, 91, 97, 89, -1,
 89, 97, 95, -1, 89, 95, 87, -1, 87, 95, 94, -1,
 87, 94, 85, -1, 85, 94, 93, -1, 85, 93, 82, -1,
 82, 93, 92, -1, 82, 92, 80, -1, 80, 92, 83, -1,
 80, 83, 78, -1, 109, 111, 102, -1, 102, 111, 104, -1,
 104, 111, 113, -1, 104, 113, 106, -1, 106, 113, 117, -1,
 106, 117, 115, -1, 115, 117, 119, -1, 115, 119, 121, -1,
 121, 119, 123, -1, 121, 123, 137, -1, 144, 143, 133, -1,
 102, 100, 109, -1, 109, 100, 98, -1, 109, 98, 108, -1,
 108, 98, 99, -1, 108, 99, 110, -1, 110, 99, 101, -1,
 110, 101, 112, -1, 112, 101, 103, -1, 112, 103, 114, -1,
 114, 103, 105, -1, 114, 105, 118, -1, 118, 105, 107, -1,
 118, 107, 120, -1, 120, 107, 116, -1, 120, 116, 124, -1,
 123, 126, 137, -1, 137, 126, 128, -1, 137, 128, 143, -1,
 143, 128, 131, -1, 143, 131, 133, -1, 133, 135, 144, -1,
 144, 135, 138, -1, 144, 138, 142, -1, 142, 138, 136, -1,
 142, 136, 141, -1, 141, 136, 134, -1, 141, 134, 140, -1,
 140, 134, 132, -1, 140, 132, 139, -1, 139, 132, 129, -1,
 139, 129, 130, -1, 130, 129, 127, -1, 130, 127, 125, -1,
 125, 127, 124, -1, 125, 124, 122, -1, 122, 124, 116, -1
]
colorIndex [
 0, 0, 0, 0, 0, 0,
 0, 0, 0, 0, 0, 0, 0, 0, 0, 0, 0, 0, 0, 0, 0, 0, 0, 0, 0, 0, 0, 0, 0, 0, 0, 0, 0, 0, 0, 0, 0, 0, 0, 0, 0, 0, 0, 0, 0, 0, 0, 0, 0, 0, 0, 0, 0, 0, 0, 0, 0, 0, 0, 0, 0, 0, 0, 0, 0, 0, 0, 0, 0, 0, 0, 0, 0, 0, 0, 0, 0, 0,
 0, 0, 0, 0, 0, 0, 0, 0, 0, 0, 0, 0, 0, 0, 0, 0, 0, 0, 0,
 0, 0, 0, 0, 0, 0, 0, 0, 0, 0, 0, 0, 0, 0, 0, 0, 0, 0, 0, 0, 0, 0, 0, 0, 0, 0, 0, 0, 0, 0, 0, 0, 0, 0, 0, 0, 0, 0, 0, 0, 0, 0, 0, 0, 0, 0, 0, 0, 0, 0, 0, 0,
 0, 0, 0, 0, 0, 0, 0, 0, 0, 0, 0, 0,
 0, 0, 0, 0, 0, 0, 0, 0, 0, 0, 0, 0, 0, 0, 0, 0, 0, 0, 0, 0, 0, 0, 0, 0, 0, 0, 0, 0, 0, 0, 0, 0, 0, 0, 0, 0, 0, 0, 0, 0, 0, 0, 0, 0, 0, 0, 0, 0, 0, 0, 0, 0, 0, 0, 0, 0, 0, 0, 0, 0, 0, 0, 0, 0, 0, 0, 0, 0, 0, 0, 0, 0,
 0, 0, 0, 0, 0, 0, 0, 0, 0, 0, 0, 0, 0, 0, 0, 0, 0, 0, 0, 0, 0, 0, 0, 0, 0, 0, 0, 0, 0, 0, 0, 0, 0, 0, 0, 0, 0, 0, 0, 0, 0, 0, 0, 0, 0, 0, 0, 0, 0, 0, 0, 0, 0, 0, 0, 0, 0, 0, 0, 0, 0,
 0, 0, 0, 0, 0, 0, 0, 0, 0, 0, 0, 0, 0, 0, 0, 0, 0, 0, 0, 0, 0, 0, 0, 0, 0, 0, 0, 0, 0, 0, 0, 0, 0, 0, 0, 0, 0, 0, 0, 0, 0, 0, 0, 0, 0, 0, 0, 0, 0, 0, 0, 0, 0, 0, 0, 0, 0, 0, 0, 0, 0, 0, 0, 0, 0, 0, 0, 0, 0, 0, 0, 0, 0, 0, 0, 0, 0, 0, 0, 0, 0, 0, 0, 0, 0, 0, 0, 0, 0, 0, 0, 0, 0, 0, 0, 0,
]
normalIndex [
 13, 13, 13, -1, 13, 13, 13, -1, 12, 12, 12, -1,
 12, 12, 12, -1, 1, 1, 1, -1, 1, 1, 1, -1,
 24, 24, 22, -1, 22, 24, 22, -1, 22, 22, 20, -1,
 20, 22, 20, -1, 20, 20, 18, -1, 18, 20, 18, -1,
 18, 18, 16, -1, 16, 18, 16, -1, 16, 16, 14, -1,
 14, 16, 14, -1, 14, 14, 12, -1, 12, 14, 12, -1,
 12, 12, 10, -1, 10, 12, 10, -1, 10, 10, 8, -1,
 8, 10, 8, -1, 8, 8, 6, -1, 6, 8, 6, -1,
 6, 6, 4, -1, 4, 6, 4, -1, 4, 4, 2, -1,
 2, 4, 2, -1, 2, 2, 1, -1, 1, 2, 1, -1,
 1, 1, 3, -1, 3, 1, 3, -1, 3, 3, 5, -1,
 5, 3, 5, -1, 5, 5, 7, -1, 7, 5, 7, -1,
 7, 7, 9, -1, 9, 7, 9, -1, 9, 9, 11, -1,
 11, 9, 11, -1, 11, 11, 13, -1, 13, 11, 13, -1,
 13, 13, 15, -1, 15, 13, 15, -1, 15, 15, 17, -1,
 17, 15, 17, -1, 17, 17, 19, -1, 19, 17, 19, -1,
 19, 19, 21, -1, 21, 19, 21, -1, 21, 21, 23, -1,
 23, 21, 23, -1, 23, 23, 24, -1, 24, 23, 24, -1,
 13, 13, 11, -1, 13, 11, 11, -1, 11, 11, 9, -1,
 11, 9, 9, -1, 9, 9, 7, -1, 9, 7, 7, -1,
 7, 7, 5, -1, 7, 5, 5, -1, 5, 5, 3, -1,
 5, 3, 3, -1, 3, 3, 1, -1, 3, 1, 1, -1,
 12, 12, 10, -1, 12, 10, 10, -1, 10, 10, 8, -1,
 10, 8, 8, -1, 8, 8, 6, -1, 8, 6, 6, -1,
 6, 6, 4, -1, 6, 4, 4, -1, 4, 4, 2, -1,
 4, 2, 2, -1, 2, 2, 1, -1, 2, 1, 1, -1,
 13, 13, 15, -1, 13, 15, 15, -1, 15, 15, 17, -1,
 15, 17, 17, -1, 17, 17, 19, -1, 17, 19, 19, -1,
 19, 19, 21, -1, 19, 21, 21, -1, 21, 21, 23, -1,
 21, 23, 23, -1, 23, 23, 24, -1, 23, 24, 24, -1,
 0, 0, 0, -1, 0, 0, 0, -1, 1, 1, 1, -1,
 1, 1, 1, -1, 1, 1, 1, -1, 1, 1, 1, -1,
 1, 1, 1, -1, 12, 12, 12, -1, 12, 12, 12, -1,
 25, 25, 25, -1, 25, 25, 25, -1, 25, 25, 25, -1,
 25, 25, 25, -1, 25, 25, 25, -1, 25, 25, 25, -1,
 25, 25, 25, -1, 25, 25, 25, -1, 25, 25, 25, -1,
 25, 25, 25, -1, 25, 25, 25, -1, 25, 25, 25, -1,
 25, 25, 25, -1, 25, 25, 25, -1, 25, 25, 25, -1,
 25, 25, 25, -1, 25, 25, 25, -1, 25, 25, 25, -1,
 25, 25, 25, -1, 25, 25, 25, -1, 25, 25, 25, -1,
 25, 25, 25, -1, 25, 25, 25, -1, 25, 25, 25, -1,
 25, 25, 25, -1, 25, 25, 25, -1, 25, 25, 25, -1,
 25, 25, 25, -1, 25, 25, 25, -1, 25, 25, 25, -1,
 25, 25, 25, -1, 25, 25, 25, -1, 25, 25, 25, -1,
 25, 25, 25, -1, 25, 25, 25, -1, 25, 25, 25, -1,
 25, 25, 25, -1, 25, 25, 25, -1, 25, 25, 25, -1,
 25, 25, 25, -1, 25, 25, 25, -1, 25, 25, 25, -1,
 25, 25, 25, -1, 25, 25, 25, -1, 25, 25, 25, -1,
 25, 25, 25, -1, 25, 25, 25, -1, 25, 25, 25, -1,
 13, 13, 13, -1, 13, 13, 13, -1, 24, 24, 24, -1,
 24, 24, 24, -1, 24, 24, 24, -1, 24, 24, 24, -1,
 24, 24, 24, -1, 24, 24, 24, -1, 24, 24, 24, -1,
 24, 24, 24, -1, 12, 12, 12, -1, 12, 12, 12, -1,
 1, 1, 1, -1, 1, 1, 1, -1, 24, 24, 22, -1,
 22, 24, 22, -1, 22, 22, 20, -1, 20, 22, 20, -1,
 20, 20, 18, -1, 18, 20, 18, -1, 18, 18, 16, -1,
 16, 18, 16, -1, 16, 16, 14, -1, 14, 16, 14, -1,
 14, 14, 12, -1, 12, 14, 12, -1, 12, 12, 10, -1,
 10, 12, 10, -1, 10, 10, 8, -1, 8, 10, 8, -1,
 8, 8, 6, -1, 6, 8, 6, -1, 6, 6, 4, -1,
 4, 6, 4, -1, 4, 4, 2, -1, 2, 4, 2, -1,
 2, 2, 1, -1, 1, 2, 1, -1, 1, 1, 3, -1,
 3, 1, 3, -1, 3, 3, 5, -1, 5, 3, 5, -1,
 5, 5, 7, -1, 7, 5, 7, -1, 7, 7, 9, -1,
 9, 7, 9, -1, 9, 9, 11, -1, 11, 9, 11, -1,
 11, 11, 13, -1, 13, 11, 13, -1, 13, 13, 15, -1,
 15, 13, 15, -1, 15, 15, 17, -1, 17, 15, 17, -1,
 17, 17, 19, -1, 19, 17, 19, -1, 19, 19, 21, -1,
 21, 19, 21, -1, 21, 21, 23, -1, 23, 21, 23, -1,
 23, 23, 24, -1, 24, 23, 24, -1, 13, 13, 11, -1,
 13, 11, 11, -1, 11, 11, 9, -1, 11, 9, 9, -1,
 9, 9, 7, -1, 9, 7, 7, -1, 7, 7, 5, -1,
 7, 5, 5, -1, 5, 5, 3, -1, 5, 3, 3, -1,
 3, 3, 1, -1, 3, 1, 1, -1, 12, 12, 10, -1,
 12, 10, 10, -1, 10, 10, 8, -1, 10, 8, 8, -1,
 8, 8, 6, -1, 8, 6, 6, -1, 6, 6, 4, -1,
 6, 4, 4, -1, 4, 4, 2, -1, 4, 2, 2, -1,
 2, 2, 1, -1, 2, 1, 1, -1, 13, 13, 15, -1,
 13, 15, 15, -1, 15, 15, 17, -1, 15, 17, 17, -1,
 17, 17, 19, -1, 17, 19, 19, -1, 19, 19, 21, -1,
 19, 21, 21, -1, 21, 21, 23, -1, 21, 23, 23, -1,
 23, 23, 24, -1, 23, 24, 24, -1, 13, 13, 13, -1,
 13, 13, 13, -1, 0, 0, 0, -1, 0, 0, 0, -1,
 0, 0, 0, -1, 0, 0, 0, -1, 0, 0, 0, -1,
 0, 0, 0, -1, 0, 0, 0, -1, 0, 0, 0, -1,
 0, 0, 0, -1, 0, 0, 0, -1, 0, 0, 0, -1,
 0, 0, 0, -1, 0, 0, 0, -1, 0, 0, 0, -1,
 0, 0, 0, -1, 0, 0, 0, -1, 0, 0, 0, -1,
 0, 0, 0, -1, 0, 0, 0, -1, 0, 0, 0, -1,
 0, 0, 0, -1, 0, 0, 0, -1, 0, 0, 0, -1,
 0, 0, 0, -1, 0, 0, 0, -1, 0, 0, 0, -1,
 0, 0, 0, -1, 0, 0, 0, -1, 0, 0, 0, -1,
 0, 0, 0, -1, 0, 0, 0, -1, 0, 0, 0, -1,
 0, 0, 0, -1, 0, 0, 0, -1, 0, 0, 0, -1,
 0, 0, 0, -1, 0, 0, 0, -1, 0, 0, 0, -1,
 0, 0, 0, -1, 0, 0, 0, -1, 0, 0, 0, -1,
 0, 0, 0, -1, 0, 0, 0, -1, 0, 0, 0, -1,
 0, 0, 0, -1, 0, 0, 0, -1, 0, 0, 0, -1,
 13, 13, 13, -1, 13, 13, 13, -1, 25, 25, 25, -1,
 25, 25, 25, -1, 25, 25, 25, -1, 25, 25, 25, -1,
 25, 25, 25, -1, 25, 25, 25, -1, 25, 25, 25, -1,
 25, 25, 25, -1, 25, 25, 25, -1, 25, 25, 25, -1,
 25, 25, 25, -1, 25, 25, 25, -1, 25, 25, 25, -1,
 25, 25, 25, -1, 25, 25, 25, -1, 25, 25, 25, -1,
 25, 25, 25, -1, 25, 25, 25, -1, 25, 25, 25, -1,
 25, 25, 25, -1, 25, 25, 25, -1, 25, 25, 25, -1,
 25, 25, 25, -1, 25, 25, 25, -1, 25, 25, 25, -1,
 25, 25, 25, -1, 25, 25, 25, -1, 25, 25, 25, -1,
 25, 25, 25, -1, 25, 25, 25, -1, 25, 25, 25, -1,
 25, 25, 25, -1, 25, 25, 25, -1, 25, 25, 25, -1,
 25, 25, 25, -1, 25, 25, 25, -1, 25, 25, 25, -1,
 25, 25, 25, -1, 25, 25, 25, -1, 25, 25, 25, -1,
 25, 25, 25, -1, 25, 25, 25, -1, 25, 25, 25, -1,
 25, 25, 25, -1, 25, 25, 25, -1, 25, 25, 25, -1,
 25, 25, 25, -1, 0, 0, 0, -1, 0, 0, 0, -1,
 0, 0, 0, -1, 0, 0, 0, -1, 0, 0, 0, -1,
 0, 0, 0, -1, 0, 0, 0, -1, 0, 0, 0, -1,
 0, 0, 0, -1, 0, 0, 0, -1, 0, 0, 0, -1,
 0, 0, 0, -1, 0, 0, 0, -1, 0, 0, 0, -1,
 0, 0, 0, -1, 0, 0, 0, -1, 0, 0, 0, -1,
 0, 0, 0, -1, 0, 0, 0, -1, 0, 0, 0, -1,
 0, 0, 0, -1, 0, 0, 0, -1, 0, 0, 0, -1,
 0, 0, 0, -1, 0, 0, 0, -1, 0, 0, 0, -1,
 0, 0, 0, -1, 0, 0, 0, -1, 0, 0, 0, -1,
 0, 0, 0, -1, 0, 0, 0, -1, 0, 0, 0, -1,
 0, 0, 0, -1, 0, 0, 0, -1, 0, 0, 0, -1,
 0, 0, 0, -1, 0, 0, 0, -1, 0, 0, 0, -1,
 0, 0, 0, -1, 0, 0, 0, -1, 0, 0, 0, -1,
 0, 0, 0, -1, 0, 0, 0, -1, 0, 0, 0, -1,
 0, 0, 0, -1, 0, 0, 0, -1, 0, 0, 0, -1
]
colorPerVertex FALSE
normalPerVertex TRUE
}
}
]
}
