#VRML V2.0 utf8
Transform {
children [
Shape {
appearance Appearance {
material Material {
ambientIntensity 1.000000
diffuseColor 0.792157 0.819608 0.933333
emissiveColor 0.000000 0.000000 0.000000
specularColor 0.396078 0.409804 0.466667
shininess 0.400000
transparency 0.000000
}
}
geometry IndexedFaceSet {
color Color {
color [
 0.792157 0.819608 0.933333
]
}
coord Coordinate {
point [
 -0.110575 -0.002744 -0.062277, -0.110575 -0.002744 0.327723, -0.110575 0.011311 -0.062277, -0.110575 0.011311 0.327723, -0.110575 0.013456 -0.062277,
 -0.110575 0.013456 0.327723, -0.110575 0.021656 -0.062277, -0.110575 0.021656 0.327723, -0.110575 0.037656 -0.062277, -0.110575 0.037656 0.327723,
 -0.110507 -0.003262 -0.062277, -0.110507 -0.003262 0.327723, -0.110507 0.038173 -0.062277, -0.110507 0.038173 0.327723, -0.110307 -0.003744 -0.062277,
 -0.110307 -0.003744 0.327723, -0.110307 0.038656 -0.062277, -0.110307 0.038656 0.327723, -0.109989 -0.004159 -0.062277, -0.109989 -0.004159 0.327723,
 -0.109989 0.039070 -0.062277, -0.109989 0.039070 0.327723, -0.109575 -0.004476 -0.062277, -0.109575 -0.004476 0.327723, -0.109575 0.039388 -0.062277,
 -0.109575 0.039388 0.327723, -0.109092 -0.004676 -0.062277, -0.109092 -0.004676 0.327723, -0.109092 0.039588 -0.062277, -0.109092 0.039588 0.327723,
 -0.108865 -0.000034 -0.062277, -0.108865 -0.000034 0.327723, -0.108865 0.008766 -0.062277, -0.108865 0.008766 0.327723, -0.108865 0.026146 -0.062277,
 -0.108865 0.026146 0.327723, -0.108865 0.034946 -0.062277, -0.108865 0.034946 0.327723, -0.108763 -0.000811 -0.062277, -0.108763 -0.000811 0.327723,
 -0.108763 0.035722 -0.062277, -0.108763 0.035722 0.327723, -0.108575 -0.004744 -0.062277, -0.108575 -0.004744 0.327723, -0.108575 0.039656 -0.062277,
 -0.108575 0.039656 0.327723, -0.108463 -0.001534 -0.062277, -0.108463 -0.001534 0.327723, -0.108463 0.036446 -0.062277, -0.108463 0.036446 0.327723,
 -0.107986 -0.002156 -0.062277, -0.107986 -0.002156 0.327723, -0.107986 0.037067 -0.062277, -0.107986 0.037067 0.327723, -0.107365 -0.002632 -0.062277,
 -0.107365 -0.002632 0.327723, -0.107365 0.037544 -0.062277, -0.107365 0.037544 0.327723, -0.106641 -0.002932 -0.062277, -0.106641 -0.002932 0.327723,
 -0.106641 0.037843 -0.062277, -0.106641 0.037843 0.327723, -0.106075 0.010476 -0.062277, -0.106075 0.010476 0.327723, -0.106075 0.011311 -0.062277,
 -0.106075 0.011311 0.327723, -0.106075 0.013456 -0.062277, -0.106075 0.013456 0.327723, -0.106075 0.021656 -0.062277, -0.106075 0.021656 0.327723,
 -0.106075 0.024436 -0.062277, -0.106075 0.024436 0.327723, -0.105865 -0.003034 -0.062277, -0.105865 -0.003034 0.327723, -0.105865 0.037946 -0.062277,
 -0.105865 0.037946 0.327723, -0.100065 0.008766 -0.062277, -0.100065 0.008766 0.327723, -0.100065 0.026146 -0.062277, -0.100065 0.026146 0.327723,
 -0.099288 0.008663 -0.062277, -0.099288 0.008663 0.327723, -0.099288 0.026248 -0.062277, -0.099288 0.026248 0.327723, -0.098565 0.008364 -0.062277,
 -0.098565 0.008364 0.327723, -0.098565 0.026548 -0.062277, -0.098565 0.026548 0.327723, -0.097943 0.007887 -0.062277, -0.097943 0.007887 0.327723,
 -0.097943 0.027024 -0.062277, -0.097943 0.027024 0.327723, -0.097875 0.010476 -0.062277, -0.097875 0.010476 0.327723, -0.097875 0.024436 -0.062277,
 -0.097875 0.024436 0.327723, -0.097467 0.007266 -0.062277, -0.097467 0.007266 0.327723, -0.097467 0.027646 -0.062277, -0.097467 0.027646 0.327723,
 -0.097167 0.006542 -0.062277, -0.097167 0.006542 0.327723, -0.097167 0.028369 -0.062277, -0.097167 0.028369 0.327723, -0.097065 -0.003034 -0.062277,
 -0.097065 -0.003034 0.327723, -0.097065 0.005766 -0.062277, -0.097065 0.005766 0.327723, -0.097065 0.029146 -0.062277, -0.097065 0.029146 0.327723,
 -0.097065 0.037946 -0.062277, -0.097065 0.037946 0.327723, -0.097040 0.011311 -0.062277, -0.097040 0.011311 0.327723, -0.095375 0.012976 -0.062277,
 -0.095375 0.012976 0.327723, -0.095375 0.021936 -0.062277, -0.095375 0.021936 0.327723, -0.095355 -0.000244 -0.062277, -0.095355 -0.000244 0.327723,
 -0.095355 0.007956 -0.062277, -0.095355 0.007956 0.327723, -0.095355 0.026956 -0.062277, -0.095355 0.026956 0.327723, -0.095355 0.035156 -0.062277,
 -0.095355 0.035156 0.327723, -0.092855 0.010456 -0.062277, -0.092855 0.010456 0.327723, -0.092855 0.024456 -0.062277, -0.092855 0.024456 0.327723,
 -0.092575 -0.004744 -0.062277, -0.092575 -0.004744 0.327723, -0.092575 -0.000244 -0.062277, -0.092575 -0.000244 0.327723, -0.092375 0.035156 -0.062277,
 -0.092375 0.035156 0.327723, -0.092375 0.039656 -0.062277, -0.092375 0.039656 0.327723, -0.091975 0.017456 -0.062277, -0.091975 0.017456 0.327723,
 -0.091852 0.016524 -0.062277, -0.091852 0.016524 0.327723, -0.091852 0.018387 -0.062277, -0.091852 0.018387 0.327723, -0.091492 0.015656 -0.062277,
 -0.091492 0.015656 0.327723, -0.091492 0.019256 -0.062277, -0.091492 0.019256 0.327723, -0.090920 0.014910 -0.062277, -0.090920 0.014910 0.327723,
 -0.090920 0.020001 -0.062277, -0.090920 0.020001 0.327723, -0.090175 0.014338 -0.062277, -0.090175 0.014338 0.327723, -0.090175 0.020573 -0.062277,
 -0.090175 0.020573 0.327723, -0.089306 0.013978 -0.062277, -0.089306 0.013978 0.327723, -0.089306 0.020933 -0.062277, -0.089306 0.020933 0.327723,
 -0.088375 0.013856 -0.062277, -0.088375 0.013856 0.327723, -0.088375 0.021056 -0.062277, -0.088375 0.021056 0.327723, -0.087443 0.013978 -0.062277,
 -0.087443 0.013978 0.327723, -0.087443 0.020933 -0.062277, -0.087443 0.020933 0.327723, -0.086575 0.014338 -0.062277, -0.086575 0.014338 0.327723,
 -0.086575 0.020573 -0.062277, -0.086575 0.020573 0.327723, -0.085829 0.014910 -0.062277, -0.085829 0.014910 0.327723, -0.085829 0.020001 -0.062277,
 -0.085829 0.020001 0.327723, -0.085257 0.015656 -0.062277, -0.085257 0.015656 0.327723, -0.085257 0.019256 -0.062277, -0.085257 0.019256 0.327723,
 -0.084897 0.016524 -0.062277, -0.084897 0.016524 0.327723, -0.084897 0.018387 -0.062277, -0.084897 0.018387 0.327723, -0.084775 0.017456 -0.062277,
 -0.084775 0.017456 0.327723, -0.084375 -0.004744 -0.062277, -0.084375 -0.004744 0.327723, -0.084375 -0.000244 -0.062277, -0.084375 -0.000244 0.327723,
 -0.084175 0.035156 -0.062277, -0.084175 0.035156 0.327723, -0.084175 0.039656 -0.062277, -0.084175 0.039656 0.327723, -0.083895 0.010456 -0.062277,
 -0.083895 0.010456 0.327723, -0.083895 0.024456 -0.062277, -0.083895 0.024456 0.327723, -0.082230 -0.004744 -0.062277, -0.082230 -0.004744 0.327723,
 -0.082230 -0.000244 -0.062277, -0.082230 -0.000244 0.327723, -0.082230 0.008791 -0.062277, -0.082230 0.008791 0.327723, -0.082230 0.011311 -0.062277,
 -0.082230 0.011311 0.327723, -0.082230 0.026121 -0.062277, -0.082230 0.026121 0.327723, -0.082230 0.035156 -0.062277, -0.082230 0.035156 0.327723,
 -0.082230 0.039656 -0.062277, -0.082230 0.039656 0.327723, -0.081395 -0.000244 -0.062277, -0.081395 -0.000244 0.327723, -0.081395 0.007956 -0.062277,
 -0.081395 0.007956 0.327723, -0.081395 0.026956 -0.062277, -0.081395 0.026956 0.327723, -0.081395 0.035156 -0.062277, -0.081395 0.035156 0.327723,
 -0.081375 0.012976 -0.062277, -0.081375 0.012976 0.327723, -0.081375 0.021936 -0.062277, -0.081375 0.021936 0.327723, -0.079710 0.011311 -0.062277,
 -0.079710 0.011311 0.327723, -0.079685 -0.003034 -0.062277, -0.079685 -0.003034 0.327723, -0.079685 0.005766 -0.062277, -0.079685 0.005766 0.327723,
 -0.079685 0.029146 -0.062277, -0.079685 0.029146 0.327723, -0.079685 0.037946 -0.062277, -0.079685 0.037946 0.327723, -0.079583 0.006542 -0.062277,
 -0.079583 0.006542 0.327723, -0.079583 0.028369 -0.062277, -0.079583 0.028369 0.327723, -0.079283 0.007266 -0.062277, -0.079283 0.007266 0.327723,
 -0.079283 0.027646 -0.062277, -0.079283 0.027646 0.327723, -0.078875 0.010476 -0.062277, -0.078875 0.010476 0.327723, -0.078875 0.024436 -0.062277,
 -0.078875 0.024436 0.327723, -0.078806 0.007887 -0.062277, -0.078806 0.007887 0.327723, -0.078806 0.027024 -0.062277, -0.078806 0.027024 0.327723,
 -0.078185 0.008364 -0.062277, -0.078185 0.008364 0.327723, -0.078185 0.026548 -0.062277, -0.078185 0.026548 0.327723, -0.077461 0.008663 -0.062277,
 -0.077461 0.008663 0.327723, -0.077461 0.026248 -0.062277, -0.077461 0.026248 0.327723, -0.076685 0.008766 -0.062277, -0.076685 0.008766 0.327723,
 -0.076685 0.026146 -0.062277, -0.076685 0.026146 0.327723, -0.070885 -0.003034 -0.062277, -0.070885 -0.003034 0.327723, -0.070885 0.037946 -0.062277,
 -0.070885 0.037946 0.327723, -0.070675 0.010476 -0.062277, -0.070675 0.010476 0.327723, -0.070675 0.011311 -0.062277, -0.070675 0.011311 0.327723,
 -0.070675 0.013256 -0.062277, -0.070675 0.013256 0.327723, -0.070675 0.021456 -0.062277, -0.070675 0.021456 0.327723, -0.070675 0.024436 -0.062277,
 -0.070675 0.024436 0.327723, -0.070108 -0.002932 -0.062277, -0.070108 -0.002932 0.327723, -0.070108 0.037843 -0.062277, -0.070108 0.037843 0.327723,
 -0.069385 -0.002632 -0.062277, -0.069385 -0.002632 0.327723, -0.069385 0.037544 -0.062277, -0.069385 0.037544 0.327723, -0.068763 -0.002156 -0.062277,
 -0.068763 -0.002156 0.327723, -0.068763 0.037067 -0.062277, -0.068763 0.037067 0.327723, -0.068287 -0.001534 -0.062277, -0.068287 -0.001534 0.327723,
 -0.068287 0.036446 -0.062277, -0.068287 0.036446 0.327723, -0.068175 -0.004744 -0.062277, -0.068175 -0.004744 0.327723, -0.068175 0.039656 -0.062277,
 -0.068175 0.039656 0.327723, -0.067987 -0.000811 -0.062277, -0.067987 -0.000811 0.327723, -0.067987 0.035722 -0.062277, -0.067987 0.035722 0.327723,
 -0.067885 -0.000034 -0.062277, -0.067885 -0.000034 0.327723, -0.067885 0.008766 -0.062277, -0.067885 0.008766 0.327723, -0.067885 0.026146 -0.062277,
 -0.067885 0.026146 0.327723, -0.067885 0.034946 -0.062277, -0.067885 0.034946 0.327723, -0.067657 -0.004676 -0.062277, -0.067657 -0.004676 0.327723,
 -0.067657 0.039588 -0.062277, -0.067657 0.039588 0.327723, -0.067175 -0.004476 -0.062277, -0.067175 -0.004476 0.327723, -0.067175 0.039388 -0.062277,
 -0.067175 0.039388 0.327723, -0.066761 -0.004159 -0.062277, -0.066761 -0.004159 0.327723, -0.066761 0.039070 -0.062277, -0.066761 0.039070 0.327723,
 -0.066443 -0.003744 -0.062277, -0.066443 -0.003744 0.327723, -0.066443 0.038656 -0.062277, -0.066443 0.038656 0.327723, -0.066243 -0.003262 -0.062277,
 -0.066243 -0.003262 0.327723, -0.066243 0.038173 -0.062277, -0.066243 0.038173 0.327723, -0.066175 -0.002744 -0.062277, -0.066175 -0.002744 0.327723,
 -0.066175 0.011311 -0.062277, -0.066175 0.011311 0.327723, -0.066175 0.013256 -0.062277, -0.066175 0.013256 0.327723, -0.066175 0.021456 -0.062277,
 -0.066175 0.021456 0.327723, -0.066175 0.037656 -0.062277, -0.066175 0.037656 0.327723
]
}
normal Normal {
vector [
 -1.000000 0.000000 0.000000, -0.965926 -0.258819 0.000000, -0.965926 0.258819 0.000000, -0.866025 -0.500000 0.000000, -0.866025 0.500000 0.000000,
 -0.707107 -0.707107 0.000000, -0.707107 0.707107 0.000000, -0.500000 -0.866025 0.000000, -0.500000 0.866025 0.000000, -0.258819 -0.965926 0.000000,
 -0.258819 0.965926 0.000000, -0.000000 -1.000000 0.000000, 0.000000 0.000000 -1.000000, 0.000000 0.000000 1.000000, 0.000000 1.000000 0.000000,
 0.258819 -0.965926 0.000000, 0.258819 0.965926 0.000000, 0.500000 -0.866025 0.000000, 0.500000 0.866025 0.000000, 0.707107 -0.707107 0.000000,
 0.707107 0.707107 0.000000, 0.866025 -0.500000 0.000000, 0.866025 0.500000 0.000000, 0.965926 -0.258819 0.000000, 0.965926 0.258819 0.000000,
 1.000000 0.000000 0.000000
]
}
coordIndex [
 125, 135, 137, -1, 115, 113, 205, -1, 45, 75, 137, -1,
 137, 75, 111, -1, 137, 111, 125, -1, 125, 111, 109, -1,
 35, 71, 79, -1, 79, 71, 95, -1, 79, 95, 83, -1,
 83, 95, 87, -1, 69, 71, 7, -1, 7, 71, 35, -1,
 7, 35, 9, -1, 9, 35, 37, -1, 25, 21, 53, -1,
 103, 99, 95, -1, 95, 99, 91, -1, 95, 91, 87, -1,
 163, 167, 197, -1, 141, 139, 115, -1, 109, 103, 125, -1,
 125, 103, 95, -1, 125, 95, 123, -1, 123, 95, 129, -1,
 37, 41, 9, -1, 9, 41, 49, -1, 9, 49, 13, -1,
 13, 49, 53, -1, 13, 53, 17, -1, 17, 53, 21, -1,
 25, 53, 29, -1, 29, 53, 57, -1, 29, 57, 45, -1,
 45, 57, 61, -1, 45, 61, 75, -1, 143, 147, 129, -1,
 205, 185, 181, -1, 181, 177, 205, -1, 205, 177, 173, -1,
 205, 173, 169, -1, 95, 117, 129, -1, 129, 117, 115, -1,
 129, 115, 143, -1, 143, 115, 139, -1, 147, 151, 129, -1,
 129, 151, 155, -1, 129, 155, 197, -1, 197, 155, 159, -1,
 197, 159, 163, -1, 167, 171, 197, -1, 197, 171, 175, -1,
 197, 175, 207, -1, 175, 179, 207, -1, 207, 179, 183, -1,
 207, 183, 185, -1, 169, 165, 205, -1, 205, 165, 161, -1,
 205, 161, 115, -1, 115, 161, 157, -1, 115, 157, 153, -1,
 153, 149, 115, -1, 115, 149, 145, -1, 115, 145, 141, -1,
 275, 273, 305, -1, 305, 273, 335, -1, 305, 335, 307, -1,
 307, 335, 337, -1, 323, 319, 287, -1, 217, 249, 241, -1,
 211, 233, 295, -1, 295, 233, 265, -1, 323, 287, 327, -1,
 327, 287, 291, -1, 327, 291, 337, -1, 337, 291, 299, -1,
 337, 299, 307, -1, 205, 221, 223, -1, 265, 279, 295, -1,
 295, 279, 283, -1, 295, 283, 311, -1, 311, 283, 287, -1,
 311, 287, 315, -1, 315, 287, 319, -1, 305, 261, 275, -1,
 275, 261, 257, -1, 275, 257, 217, -1, 217, 257, 253, -1,
 217, 253, 249, -1, 185, 205, 207, -1, 207, 205, 223, -1,
 207, 223, 217, -1, 217, 223, 245, -1, 217, 245, 275, -1,
 241, 237, 217, -1, 217, 237, 231, -1, 217, 231, 219, -1,
 219, 231, 233, -1, 219, 233, 209, -1, 209, 233, 211, -1,
 209, 211, 191, -1, 191, 211, 193, -1, 313, 317, 285, -1,
 227, 199, 263, -1, 263, 199, 293, -1, 263, 293, 277, -1,
 277, 293, 281, -1, 301, 297, 329, -1, 329, 297, 289, -1,
 329, 289, 325, -1, 325, 289, 285, -1, 325, 285, 321, -1,
 321, 285, 317, -1, 281, 293, 285, -1, 285, 293, 309, -1,
 285, 309, 313, -1, 235, 239, 243, -1, 243, 239, 247, -1,
 243, 247, 251, -1, 203, 243, 205, -1, 205, 243, 225, -1,
 205, 225, 221, -1, 203, 215, 243, -1, 243, 215, 213, -1,
 243, 213, 235, -1, 235, 213, 229, -1, 251, 255, 243, -1,
 243, 255, 259, -1, 243, 259, 267, -1, 267, 259, 303, -1,
 267, 303, 269, -1, 301, 329, 303, -1, 303, 329, 331, -1,
 303, 331, 269, -1, 269, 331, 333, -1, 269, 333, 271, -1,
 189, 187, 201, -1, 201, 187, 199, -1, 201, 199, 213, -1,
 213, 199, 227, -1, 213, 227, 229, -1, 85, 89, 93, -1,
 15, 19, 51, -1, 93, 121, 113, -1, 113, 121, 127, -1,
 113, 127, 205, -1, 205, 127, 195, -1, 205, 195, 203, -1,
 89, 97, 93, -1, 93, 97, 101, -1, 93, 101, 121, -1,
 121, 101, 107, -1, 121, 107, 119, -1, 119, 107, 105, -1,
 119, 105, 133, -1, 73, 43, 105, -1, 105, 43, 131, -1,
 105, 131, 133, -1, 15, 51, 11, -1, 11, 51, 47, -1,
 11, 47, 1, -1, 33, 77, 93, -1, 93, 77, 81, -1,
 93, 81, 85, -1, 33, 3, 31, -1, 31, 3, 1, -1,
 31, 1, 39, -1, 39, 1, 47, -1, 73, 59, 43, -1,
 43, 59, 55, -1, 43, 55, 27, -1, 27, 55, 51, -1,
 27, 51, 23, -1, 23, 51, 19, -1, 93, 63, 33, -1,
 33, 63, 65, -1, 33, 65, 3, -1, 3, 65, 67, -1,
 3, 67, 5, -1, 190, 192, 210, -1, 34, 6, 36, -1,
 36, 6, 8, -1, 36, 8, 40, -1, 40, 8, 48, -1,
 196, 206, 204, -1, 142, 138, 116, -1, 134, 124, 136, -1,
 136, 124, 110, -1, 136, 110, 44, -1, 44, 110, 74, -1,
 16, 20, 52, -1, 94, 124, 122, -1, 68, 6, 70, -1,
 70, 6, 34, -1, 70, 34, 94, -1, 94, 34, 78, -1,
 78, 82, 94, -1, 94, 82, 86, -1, 94, 86, 90, -1,
 48, 8, 52, -1, 52, 8, 12, -1, 52, 12, 16, -1,
 90, 98, 94, -1, 94, 98, 102, -1, 94, 102, 124, -1,
 124, 102, 108, -1, 124, 108, 110, -1, 74, 60, 44, -1,
 44, 60, 56, -1, 44, 56, 28, -1, 28, 56, 52, -1,
 28, 52, 24, -1, 24, 52, 20, -1, 160, 164, 204, -1,
 176, 180, 204, -1, 204, 180, 184, -1, 204, 184, 196, -1,
 196, 184, 182, -1, 196, 182, 178, -1, 178, 174, 196, -1,
 196, 174, 170, -1, 196, 170, 128, -1, 128, 170, 166, -1,
 128, 166, 162, -1, 162, 158, 128, -1, 128, 158, 154, -1,
 128, 154, 150, -1, 164, 168, 204, -1, 204, 168, 172, -1,
 204, 172, 176, -1, 116, 138, 114, -1, 114, 138, 140, -1,
 114, 140, 144, -1, 144, 148, 114, -1, 114, 148, 152, -1,
 114, 152, 156, -1, 122, 128, 94, -1, 94, 128, 150, -1,
 94, 150, 116, -1, 116, 150, 146, -1, 116, 146, 142, -1,
 22, 18, 50, -1, 100, 96, 120, -1, 118, 132, 104, -1,
 104, 132, 130, -1, 104, 130, 72, -1, 72, 130, 42, -1,
 202, 194, 204, -1, 204, 194, 126, -1, 96, 88, 120, -1,
 120, 88, 84, -1, 120, 84, 80, -1, 2, 32, 0, -1,
 0, 32, 30, -1, 30, 38, 0, -1, 0, 38, 46, -1,
 0, 46, 10, -1, 10, 46, 50, -1, 10, 50, 14, -1,
 14, 50, 18, -1, 22, 50, 26, -1, 26, 50, 54, -1,
 26, 54, 42, -1, 42, 54, 58, -1, 42, 58, 72, -1,
 156, 160, 114, -1, 114, 160, 204, -1, 114, 204, 112, -1,
 112, 204, 126, -1, 112, 126, 92, -1, 92, 126, 120, -1,
 92, 120, 62, -1, 62, 120, 80, -1, 118, 104, 120, -1,
 120, 104, 106, -1, 120, 106, 100, -1, 4, 66, 2, -1,
 2, 66, 64, -1, 2, 64, 32, -1, 32, 64, 62, -1,
 32, 62, 76, -1, 76, 62, 80, -1, 320, 316, 284, -1,
 200, 212, 226, -1, 302, 330, 300, -1, 300, 330, 328, -1,
 300, 328, 296, -1, 296, 328, 288, -1, 288, 328, 284, -1,
 284, 328, 324, -1, 284, 324, 320, -1, 262, 276, 292, -1,
 292, 276, 280, -1, 292, 280, 308, -1, 308, 280, 284, -1,
 308, 284, 312, -1, 312, 284, 316, -1, 254, 250, 242, -1,
 242, 250, 246, -1, 246, 238, 242, -1, 242, 238, 234, -1,
 242, 234, 212, -1, 212, 234, 228, -1, 212, 228, 226, -1,
 262, 292, 226, -1, 226, 292, 198, -1, 226, 198, 200, -1,
 200, 198, 186, -1, 200, 186, 188, -1, 270, 332, 268, -1,
 268, 332, 330, -1, 268, 330, 266, -1, 266, 330, 302, -1,
 266, 302, 242, -1, 242, 302, 258, -1, 242, 258, 254, -1,
 212, 214, 242, -1, 242, 214, 202, -1, 242, 202, 224, -1,
 224, 202, 204, -1, 224, 204, 220, -1, 314, 318, 286, -1,
 232, 210, 264, -1, 264, 210, 294, -1, 264, 294, 278, -1,
 278, 294, 282, -1, 244, 248, 252, -1, 220, 204, 222, -1,
 222, 204, 206, -1, 222, 206, 244, -1, 244, 206, 216, -1,
 244, 216, 218, -1, 282, 294, 286, -1, 286, 294, 310, -1,
 286, 310, 314, -1, 252, 256, 244, -1, 244, 256, 260, -1,
 244, 260, 274, -1, 274, 260, 304, -1, 274, 304, 272, -1,
 306, 336, 304, -1, 304, 336, 334, -1, 304, 334, 272, -1,
 306, 298, 336, -1, 336, 298, 290, -1, 336, 290, 326, -1,
 326, 290, 286, -1, 326, 286, 322, -1, 322, 286, 318, -1,
 232, 230, 218, -1, 218, 230, 236, -1, 218, 236, 244, -1,
 244, 236, 240, -1, 244, 240, 248, -1, 232, 218, 210, -1,
 210, 218, 208, -1, 210, 208, 190, -1, 220, 222, 221, -1,
 221, 222, 223, -1, 244, 274, 245, -1, 245, 274, 275, -1,
 273, 275, 272, -1, 272, 275, 274, -1, 335, 273, 334, -1,
 334, 273, 272, -1, 337, 335, 336, -1, 336, 335, 334, -1,
 295, 294, 211, -1, 211, 294, 210, -1, 211, 210, 193, -1,
 193, 210, 192, -1, 191, 193, 190, -1, 190, 193, 192, -1,
 218, 219, 208, -1, 208, 219, 209, -1, 208, 209, 190, -1,
 190, 209, 191, -1, 217, 219, 216, -1, 216, 219, 218, -1,
 129, 197, 128, -1, 128, 197, 196, -1, 230, 232, 231, -1,
 231, 232, 233, -1, 261, 305, 260, -1, 260, 305, 304, -1,
 306, 304, 307, -1, 307, 304, 305, -1, 265, 233, 264, -1,
 264, 233, 232, -1, 222, 244, 223, -1, 223, 244, 245, -1,
 217, 216, 207, -1, 207, 216, 206, -1, 207, 206, 197, -1,
 197, 206, 196, -1, 306, 307, 298, -1, 298, 307, 299, -1,
 298, 299, 290, -1, 290, 299, 291, -1, 290, 291, 286, -1,
 286, 291, 287, -1, 286, 287, 282, -1, 282, 287, 283, -1,
 282, 283, 278, -1, 278, 283, 279, -1, 278, 279, 264, -1,
 264, 279, 265, -1, 230, 231, 236, -1, 236, 231, 237, -1,
 236, 237, 240, -1, 240, 237, 241, -1, 240, 241, 248, -1,
 248, 241, 249, -1, 248, 249, 252, -1, 252, 249, 253, -1,
 252, 253, 256, -1, 256, 253, 257, -1, 256, 257, 260, -1,
 260, 257, 261, -1, 337, 336, 326, -1, 337, 326, 327, -1,
 327, 326, 322, -1, 327, 322, 323, -1, 323, 322, 318, -1,
 323, 318, 319, -1, 319, 318, 314, -1, 319, 314, 315, -1,
 315, 314, 310, -1, 315, 310, 311, -1, 311, 310, 294, -1,
 311, 294, 295, -1, 126, 194, 127, -1, 127, 194, 195, -1,
 214, 212, 215, -1, 215, 212, 213, -1, 188, 189, 200, -1,
 200, 189, 201, -1, 200, 201, 212, -1, 212, 201, 213, -1,
 187, 189, 186, -1, 186, 189, 188, -1, 292, 293, 198, -1,
 198, 293, 199, -1, 198, 199, 186, -1, 186, 199, 187, -1,
 329, 328, 331, -1, 331, 328, 330, -1, 331, 330, 333, -1,
 333, 330, 332, -1, 271, 333, 270, -1, 270, 333, 332, -1,
 266, 267, 268, -1, 268, 267, 269, -1, 268, 269, 270, -1,
 270, 269, 271, -1, 243, 267, 242, -1, 242, 267, 266, -1,
 258, 302, 259, -1, 259, 302, 303, -1, 229, 227, 228, -1,
 228, 227, 226, -1, 262, 226, 263, -1, 263, 226, 227, -1,
 301, 303, 300, -1, 300, 303, 302, -1, 116, 114, 117, -1,
 117, 114, 115, -1, 92, 62, 93, -1, 93, 62, 63, -1,
 66, 67, 64, -1, 64, 67, 65, -1, 64, 65, 62, -1,
 62, 65, 63, -1, 5, 67, 4, -1, 4, 67, 66, -1,
 0, 1, 2, -1, 2, 1, 3, -1, 2, 3, 4, -1,
 4, 3, 5, -1, 42, 130, 43, -1, 43, 130, 131, -1,
 133, 131, 132, -1, 132, 131, 130, -1, 119, 133, 118, -1,
 118, 133, 132, -1, 121, 119, 120, -1, 120, 119, 118, -1,
 106, 104, 107, -1, 107, 104, 105, -1, 77, 33, 76, -1,
 76, 33, 32, -1, 30, 32, 31, -1, 31, 32, 33, -1,
 73, 105, 72, -1, 72, 105, 104, -1, 122, 124, 123, -1,
 123, 124, 125, -1, 135, 125, 134, -1, 134, 125, 124, -1,
 137, 135, 136, -1, 136, 135, 134, -1, 45, 137, 44, -1,
 44, 137, 136, -1, 8, 6, 9, -1, 9, 6, 7, -1,
 69, 7, 68, -1, 68, 7, 6, -1, 71, 69, 70, -1,
 70, 69, 68, -1, 95, 71, 94, -1, 94, 71, 70, -1,
 78, 34, 79, -1, 79, 34, 35, -1, 109, 111, 108, -1,
 108, 111, 110, -1, 74, 110, 75, -1, 75, 110, 111, -1,
 37, 35, 36, -1, 36, 35, 34, -1, 195, 194, 203, -1,
 203, 194, 202, -1, 203, 202, 215, -1, 215, 202, 214, -1,
 243, 242, 225, -1, 225, 242, 224, -1, 225, 224, 221, -1,
 221, 224, 220, -1, 115, 114, 113, -1, 113, 114, 112, -1,
 113, 112, 93, -1, 93, 112, 92, -1, 120, 126, 121, -1,
 121, 126, 127, -1, 128, 122, 129, -1, 129, 122, 123, -1,
 94, 116, 95, -1, 95, 116, 117, -1, 262, 263, 276, -1,
 276, 263, 277, -1, 276, 277, 280, -1, 280, 277, 281, -1,
 280, 281, 284, -1, 284, 281, 285, -1, 284, 285, 288, -1,
 288, 285, 289, -1, 288, 289, 296, -1, 296, 289, 297, -1,
 296, 297, 300, -1, 300, 297, 301, -1, 258, 259, 254, -1,
 254, 259, 255, -1, 254, 255, 250, -1, 250, 255, 251, -1,
 250, 251, 246, -1, 246, 251, 247, -1, 246, 247, 238, -1,
 238, 247, 239, -1, 238, 239, 234, -1, 234, 239, 235, -1,
 234, 235, 228, -1, 228, 235, 229, -1, 30, 31, 38, -1,
 38, 31, 39, -1, 38, 39, 46, -1, 46, 39, 47, -1,
 46, 47, 50, -1, 50, 47, 51, -1, 50, 51, 54, -1,
 54, 51, 55, -1, 54, 55, 58, -1, 58, 55, 59, -1,
 58, 59, 72, -1, 72, 59, 73, -1, 106, 107, 100, -1,
 100, 107, 101, -1, 100, 101, 96, -1, 96, 101, 97, -1,
 96, 97, 88, -1, 88, 97, 89, -1, 88, 89, 84, -1,
 84, 89, 85, -1, 84, 85, 80, -1, 80, 85, 81, -1,
 80, 81, 76, -1, 76, 81, 77, -1, 74, 75, 60, -1,
 60, 75, 61, -1, 60, 61, 56, -1, 56, 61, 57, -1,
 56, 57, 52, -1, 52, 57, 53, -1, 52, 53, 48, -1,
 48, 53, 49, -1, 48, 49, 40, -1, 40, 49, 41, -1,
 40, 41, 36, -1, 36, 41, 37, -1, 78, 79, 82, -1,
 82, 79, 83, -1, 82, 83, 86, -1, 86, 83, 87, -1,
 86, 87, 90, -1, 90, 87, 91, -1, 90, 91, 98, -1,
 98, 91, 99, -1, 98, 99, 102, -1, 102, 99, 103, -1,
 102, 103, 108, -1, 108, 103, 109, -1, 293, 292, 308, -1,
 293, 308, 309, -1, 309, 308, 312, -1, 309, 312, 313, -1,
 313, 312, 316, -1, 313, 316, 317, -1, 317, 316, 320, -1,
 317, 320, 321, -1, 321, 320, 324, -1, 321, 324, 325, -1,
 325, 324, 328, -1, 325, 328, 329, -1, 1, 0, 10, -1,
 1, 10, 11, -1, 11, 10, 14, -1, 11, 14, 15, -1,
 15, 14, 18, -1, 15, 18, 19, -1, 19, 18, 22, -1,
 19, 22, 23, -1, 23, 22, 26, -1, 23, 26, 27, -1,
 27, 26, 42, -1, 27, 42, 43, -1, 45, 44, 28, -1,
 45, 28, 29, -1, 29, 28, 24, -1, 29, 24, 25, -1,
 25, 24, 20, -1, 25, 20, 21, -1, 21, 20, 16, -1,
 21, 16, 17, -1, 17, 16, 12, -1, 17, 12, 13, -1,
 13, 12, 8, -1, 13, 8, 9, -1, 184, 185, 182, -1,
 182, 185, 183, -1, 182, 183, 178, -1, 178, 183, 179, -1,
 178, 179, 174, -1, 174, 179, 175, -1, 174, 175, 170, -1,
 170, 175, 171, -1, 170, 171, 166, -1, 166, 171, 167, -1,
 166, 167, 162, -1, 162, 167, 163, -1, 162, 163, 158, -1,
 158, 163, 159, -1, 158, 159, 154, -1, 154, 159, 155, -1,
 154, 155, 150, -1, 150, 155, 151, -1, 150, 151, 146, -1,
 146, 151, 147, -1, 146, 147, 142, -1, 142, 147, 143, -1,
 142, 143, 138, -1, 138, 143, 139, -1, 138, 139, 140, -1,
 140, 139, 141, -1, 140, 141, 144, -1, 144, 141, 145, -1,
 144, 145, 148, -1, 148, 145, 149, -1, 148, 149, 152, -1,
 152, 149, 153, -1, 152, 153, 156, -1, 156, 153, 157, -1,
 156, 157, 160, -1, 160, 157, 161, -1, 160, 161, 164, -1,
 164, 161, 165, -1, 164, 165, 168, -1, 168, 165, 169, -1,
 168, 169, 172, -1, 172, 169, 173, -1, 172, 173, 176, -1,
 176, 173, 177, -1, 176, 177, 180, -1, 180, 177, 181, -1,
 180, 181, 184, -1, 184, 181, 185, -1
]
colorIndex [
 0, 0, 0, 0, 0, 0, 0, 0, 0, 0, 0, 0, 0, 0, 0, 0, 0, 0, 0, 0, 0, 0, 0, 0, 0, 0, 0, 0, 0, 0, 0, 0, 0, 0, 0, 0, 0, 0, 0, 0, 0, 0, 0, 0, 0, 0, 0, 0, 0, 0, 0, 0, 0, 0, 0, 0, 0, 0, 0, 0, 0, 0, 0, 0, 0, 0, 0, 0, 0, 0, 0, 0, 0, 0, 0, 0, 0, 0, 0, 0, 0, 0, 0, 0, 0, 0, 0, 0, 0, 0, 0, 0, 0, 0, 0, 0, 0, 0, 0, 0, 0, 0, 0, 0, 0, 0, 0, 0, 0, 0, 0, 0, 0, 0, 0, 0, 0, 0, 0, 0, 0, 0, 0, 0, 0, 0, 0, 0, 0, 0, 0, 0, 0, 0, 0, 0, 0, 0, 0, 0, 0, 0, 0, 0, 0, 0, 0, 0, 0, 0, 0, 0, 0, 0, 0, 0, 0, 0, 0, 0, 0, 0, 0, 0, 0, 0, 0, 0, 0, 0, 0, 0, 0, 0, 0, 0, 0, 0, 0, 0, 0, 0, 0, 0, 0, 0, 0, 0, 0, 0, 0, 0, 0, 0, 0, 0, 0, 0, 0, 0, 0, 0, 0, 0, 0, 0, 0, 0, 0, 0, 0, 0, 0, 0, 0, 0, 0, 0, 0, 0, 0, 0, 0, 0, 0, 0, 0, 0, 0, 0, 0, 0, 0, 0, 0, 0, 0, 0, 0, 0, 0, 0, 0, 0, 0, 0, 0, 0, 0, 0, 0, 0, 0, 0, 0, 0, 0, 0, 0, 0, 0, 0, 0, 0, 0, 0, 0, 0, 0, 0, 0, 0, 0, 0, 0, 0, 0, 0, 0, 0, 0, 0, 0, 0, 0, 0, 0, 0, 0, 0, 0, 0, 0, 0, 0, 0, 0, 0, 0, 0, 0, 0, 0, 0, 0, 0, 0, 0, 0, 0, 0, 0, 0, 0, 0, 0, 0, 0, 0, 0, 0, 0, 0, 0, 0, 0, 0, 0, 0, 0, 0, 0, 0, 0, 0, 0, 0, 0, 0, 0, 0, 0, 0, 0, 0, 0, 0, 0, 0, 0, 0, 0, 0, 0, 0, 0, 0, 0,
 0, 0, 0, 0, 0, 0,
 0, 0, 0, 0, 0, 0, 0, 0,
 0, 0, 0, 0, 0, 0, 0, 0,
 0, 0, 0, 0, 0, 0,
 0, 0, 0, 0, 0, 0, 0, 0,
 0, 0, 0, 0, 0, 0, 0, 0, 0, 0, 0, 0, 0, 0, 0, 0, 0, 0, 0, 0, 0, 0, 0, 0, 0, 0, 0, 0, 0, 0, 0, 0, 0, 0, 0, 0,
 0, 0, 0, 0, 0, 0, 0, 0,
 0, 0, 0, 0, 0, 0, 0, 0, 0, 0,
 0, 0, 0, 0, 0, 0, 0, 0,
 0, 0, 0, 0, 0, 0,
 0, 0, 0, 0, 0, 0,
 0, 0, 0, 0, 0, 0, 0, 0, 0, 0,
 0, 0, 0, 0, 0, 0,
 0, 0, 0, 0, 0, 0,
 0, 0, 0, 0, 0, 0,
 0, 0, 0, 0, 0, 0,
 0, 0, 0, 0, 0, 0,
 0, 0, 0, 0, 0, 0,
 0, 0, 0, 0, 0, 0, 0, 0,
 0, 0, 0, 0, 0, 0, 0, 0, 0, 0,
 0, 0, 0, 0, 0, 0, 0, 0, 0, 0, 0, 0, 0, 0, 0, 0,
 0, 0, 0, 0, 0, 0, 0, 0, 0, 0, 0, 0, 0, 0, 0, 0, 0, 0, 0, 0, 0, 0, 0, 0, 0, 0, 0, 0, 0, 0, 0, 0, 0, 0, 0, 0,
 0, 0, 0, 0, 0, 0, 0, 0, 0, 0, 0, 0, 0, 0, 0, 0, 0, 0, 0, 0, 0, 0, 0, 0, 0, 0, 0, 0, 0, 0, 0, 0, 0, 0, 0, 0,
 0, 0, 0, 0, 0, 0, 0, 0, 0, 0, 0, 0, 0, 0, 0, 0, 0, 0, 0, 0, 0, 0, 0, 0, 0, 0, 0, 0, 0, 0, 0, 0, 0, 0, 0, 0, 0, 0, 0, 0, 0, 0, 0, 0, 0, 0, 0, 0, 0, 0, 0, 0, 0, 0, 0, 0, 0, 0, 0, 0, 0, 0, 0, 0, 0, 0, 0, 0, 0, 0, 0, 0,
]
normalIndex [
 13, 13, 13, -1, 13, 13, 13, -1, 13, 13, 13, -1,
 13, 13, 13, -1, 13, 13, 13, -1, 13, 13, 13, -1,
 13, 13, 13, -1, 13, 13, 13, -1, 13, 13, 13, -1,
 13, 13, 13, -1, 13, 13, 13, -1, 13, 13, 13, -1,
 13, 13, 13, -1, 13, 13, 13, -1, 13, 13, 13, -1,
 13, 13, 13, -1, 13, 13, 13, -1, 13, 13, 13, -1,
 13, 13, 13, -1, 13, 13, 13, -1, 13, 13, 13, -1,
 13, 13, 13, -1, 13, 13, 13, -1, 13, 13, 13, -1,
 13, 13, 13, -1, 13, 13, 13, -1, 13, 13, 13, -1,
 13, 13, 13, -1, 13, 13, 13, -1, 13, 13, 13, -1,
 13, 13, 13, -1, 13, 13, 13, -1, 13, 13, 13, -1,
 13, 13, 13, -1, 13, 13, 13, -1, 13, 13, 13, -1,
 13, 13, 13, -1, 13, 13, 13, -1, 13, 13, 13, -1,
 13, 13, 13, -1, 13, 13, 13, -1, 13, 13, 13, -1,
 13, 13, 13, -1, 13, 13, 13, -1, 13, 13, 13, -1,
 13, 13, 13, -1, 13, 13, 13, -1, 13, 13, 13, -1,
 13, 13, 13, -1, 13, 13, 13, -1, 13, 13, 13, -1,
 13, 13, 13, -1, 13, 13, 13, -1, 13, 13, 13, -1,
 13, 13, 13, -1, 13, 13, 13, -1, 13, 13, 13, -1,
 13, 13, 13, -1, 13, 13, 13, -1, 13, 13, 13, -1,
 13, 13, 13, -1, 13, 13, 13, -1, 13, 13, 13, -1,
 13, 13, 13, -1, 13, 13, 13, -1, 13, 13, 13, -1,
 13, 13, 13, -1, 13, 13, 13, -1, 13, 13, 13, -1,
 13, 13, 13, -1, 13, 13, 13, -1, 13, 13, 13, -1,
 13, 13, 13, -1, 13, 13, 13, -1, 13, 13, 13, -1,
 13, 13, 13, -1, 13, 13, 13, -1, 13, 13, 13, -1,
 13, 13, 13, -1, 13, 13, 13, -1, 13, 13, 13, -1,
 13, 13, 13, -1, 13, 13, 13, -1, 13, 13, 13, -1,
 13, 13, 13, -1, 13, 13, 13, -1, 13, 13, 13, -1,
 13, 13, 13, -1, 13, 13, 13, -1, 13, 13, 13, -1,
 13, 13, 13, -1, 13, 13, 13, -1, 13, 13, 13, -1,
 13, 13, 13, -1, 13, 13, 13, -1, 13, 13, 13, -1,
 13, 13, 13, -1, 13, 13, 13, -1, 13, 13, 13, -1,
 13, 13, 13, -1, 13, 13, 13, -1, 13, 13, 13, -1,
 13, 13, 13, -1, 13, 13, 13, -1, 13, 13, 13, -1,
 13, 13, 13, -1, 13, 13, 13, -1, 13, 13, 13, -1,
 13, 13, 13, -1, 13, 13, 13, -1, 13, 13, 13, -1,
 13, 13, 13, -1, 13, 13, 13, -1, 13, 13, 13, -1,
 13, 13, 13, -1, 13, 13, 13, -1, 13, 13, 13, -1,
 13, 13, 13, -1, 13, 13, 13, -1, 13, 13, 13, -1,
 13, 13, 13, -1, 13, 13, 13, -1, 13, 13, 13, -1,
 13, 13, 13, -1, 13, 13, 13, -1, 13, 13, 13, -1,
 13, 13, 13, -1, 13, 13, 13, -1, 13, 13, 13, -1,
 13, 13, 13, -1, 13, 13, 13, -1, 13, 13, 13, -1,
 13, 13, 13, -1, 13, 13, 13, -1, 13, 13, 13, -1,
 13, 13, 13, -1, 13, 13, 13, -1, 13, 13, 13, -1,
 13, 13, 13, -1, 13, 13, 13, -1, 13, 13, 13, -1,
 13, 13, 13, -1, 13, 13, 13, -1, 13, 13, 13, -1,
 13, 13, 13, -1, 13, 13, 13, -1, 13, 13, 13, -1,
 13, 13, 13, -1, 13, 13, 13, -1, 13, 13, 13, -1,
 13, 13, 13, -1, 13, 13, 13, -1, 13, 13, 13, -1,
 13, 13, 13, -1, 13, 13, 13, -1, 13, 13, 13, -1,
 13, 13, 13, -1, 13, 13, 13, -1, 13, 13, 13, -1,
 13, 13, 13, -1, 13, 13, 13, -1, 13, 13, 13, -1,
 13, 13, 13, -1, 13, 13, 13, -1, 13, 13, 13, -1,
 13, 13, 13, -1, 13, 13, 13, -1, 13, 13, 13, -1,
 13, 13, 13, -1, 13, 13, 13, -1, 13, 13, 13, -1,
 13, 13, 13, -1, 13, 13, 13, -1, 13, 13, 13, -1,
 13, 13, 13, -1, 13, 13, 13, -1, 13, 13, 13, -1,
 13, 13, 13, -1, 12, 12, 12, -1, 12, 12, 12, -1,
 12, 12, 12, -1, 12, 12, 12, -1, 12, 12, 12, -1,
 12, 12, 12, -1, 12, 12, 12, -1, 12, 12, 12, -1,
 12, 12, 12, -1, 12, 12, 12, -1, 12, 12, 12, -1,
 12, 12, 12, -1, 12, 12, 12, -1, 12, 12, 12, -1,
 12, 12, 12, -1, 12, 12, 12, -1, 12, 12, 12, -1,
 12, 12, 12, -1, 12, 12, 12, -1, 12, 12, 12, -1,
 12, 12, 12, -1, 12, 12, 12, -1, 12, 12, 12, -1,
 12, 12, 12, -1, 12, 12, 12, -1, 12, 12, 12, -1,
 12, 12, 12, -1, 12, 12, 12, -1, 12, 12, 12, -1,
 12, 12, 12, -1, 12, 12, 12, -1, 12, 12, 12, -1,
 12, 12, 12, -1, 12, 12, 12, -1, 12, 12, 12, -1,
 12, 12, 12, -1, 12, 12, 12, -1, 12, 12, 12, -1,
 12, 12, 12, -1, 12, 12, 12, -1, 12, 12, 12, -1,
 12, 12, 12, -1, 12, 12, 12, -1, 12, 12, 12, -1,
 12, 12, 12, -1, 12, 12, 12, -1, 12, 12, 12, -1,
 12, 12, 12, -1, 12, 12, 12, -1, 12, 12, 12, -1,
 12, 12, 12, -1, 12, 12, 12, -1, 12, 12, 12, -1,
 12, 12, 12, -1, 12, 12, 12, -1, 12, 12, 12, -1,
 12, 12, 12, -1, 12, 12, 12, -1, 12, 12, 12, -1,
 12, 12, 12, -1, 12, 12, 12, -1, 12, 12, 12, -1,
 12, 12, 12, -1, 12, 12, 12, -1, 12, 12, 12, -1,
 12, 12, 12, -1, 12, 12, 12, -1, 12, 12, 12, -1,
 12, 12, 12, -1, 12, 12, 12, -1, 12, 12, 12, -1,
 12, 12, 12, -1, 12, 12, 12, -1, 12, 12, 12, -1,
 12, 12, 12, -1, 12, 12, 12, -1, 12, 12, 12, -1,
 12, 12, 12, -1, 12, 12, 12, -1, 12, 12, 12, -1,
 12, 12, 12, -1, 12, 12, 12, -1, 12, 12, 12, -1,
 12, 12, 12, -1, 12, 12, 12, -1, 12, 12, 12, -1,
 12, 12, 12, -1, 12, 12, 12, -1, 12, 12, 12, -1,
 12, 12, 12, -1, 12, 12, 12, -1, 12, 12, 12, -1,
 12, 12, 12, -1, 12, 12, 12, -1, 12, 12, 12, -1,
 12, 12, 12, -1, 12, 12, 12, -1, 12, 12, 12, -1,
 12, 12, 12, -1, 12, 12, 12, -1, 12, 12, 12, -1,
 12, 12, 12, -1, 12, 12, 12, -1, 12, 12, 12, -1,
 12, 12, 12, -1, 12, 12, 12, -1, 12, 12, 12, -1,
 12, 12, 12, -1, 12, 12, 12, -1, 12, 12, 12, -1,
 12, 12, 12, -1, 12, 12, 12, -1, 12, 12, 12, -1,
 12, 12, 12, -1, 12, 12, 12, -1, 12, 12, 12, -1,
 12, 12, 12, -1, 12, 12, 12, -1, 12, 12, 12, -1,
 12, 12, 12, -1, 12, 12, 12, -1, 12, 12, 12, -1,
 12, 12, 12, -1, 12, 12, 12, -1, 12, 12, 12, -1,
 12, 12, 12, -1, 12, 12, 12, -1, 12, 12, 12, -1,
 12, 12, 12, -1, 12, 12, 12, -1, 12, 12, 12, -1,
 12, 12, 12, -1, 12, 12, 12, -1, 12, 12, 12, -1,
 12, 12, 12, -1, 12, 12, 12, -1, 12, 12, 12, -1,
 12, 12, 12, -1, 12, 12, 12, -1, 12, 12, 12, -1,
 12, 12, 12, -1, 12, 12, 12, -1, 12, 12, 12, -1,
 12, 12, 12, -1, 12, 12, 12, -1, 12, 12, 12, -1,
 12, 12, 12, -1, 12, 12, 12, -1, 12, 12, 12, -1,
 12, 12, 12, -1, 12, 12, 12, -1, 12, 12, 12, -1,
 12, 12, 12, -1, 12, 12, 12, -1, 12, 12, 12, -1,
 12, 12, 12, -1, 12, 12, 12, -1, 12, 12, 12, -1,
 12, 12, 12, -1, 12, 12, 12, -1, 12, 12, 12, -1,
 12, 12, 12, -1, 12, 12, 12, -1, 12, 12, 12, -1,
 12, 12, 12, -1, 12, 12, 12, -1, 12, 12, 12, -1,
 12, 12, 12, -1, 12, 12, 12, -1, 12, 12, 12, -1,
 12, 12, 12, -1, 12, 12, 12, -1, 12, 12, 12, -1,
 12, 12, 12, -1, 12, 12, 12, -1, 12, 12, 12, -1,
 12, 12, 12, -1, 12, 12, 12, -1, 25, 25, 25, -1,
 25, 25, 25, -1, 11, 11, 11, -1, 11, 11, 11, -1,
 0, 0, 0, -1, 0, 0, 0, -1, 11, 11, 11, -1,
 11, 11, 11, -1, 25, 25, 25, -1, 25, 25, 25, -1,
 14, 14, 14, -1, 14, 14, 14, -1, 14, 14, 14, -1,
 14, 14, 14, -1, 0, 0, 0, -1, 0, 0, 0, -1,
 11, 11, 11, -1, 11, 11, 11, -1, 11, 11, 11, -1,
 11, 11, 11, -1, 0, 0, 0, -1, 0, 0, 0, -1,
 14, 14, 14, -1, 14, 14, 14, -1, 25, 25, 25, -1,
 25, 25, 25, -1, 14, 14, 14, -1, 14, 14, 14, -1,
 0, 0, 0, -1, 0, 0, 0, -1, 11, 11, 11, -1,
 11, 11, 11, -1, 19, 19, 19, -1, 19, 19, 19, -1,
 6, 6, 6, -1, 6, 6, 6, -1, 6, 6, 6, -1,
 6, 6, 6, -1, 0, 0, 1, -1, 1, 0, 1, -1,
 1, 1, 3, -1, 3, 1, 3, -1, 3, 3, 5, -1,
 5, 3, 5, -1, 5, 5, 7, -1, 7, 5, 7, -1,
 7, 7, 9, -1, 9, 7, 9, -1, 9, 9, 11, -1,
 11, 9, 11, -1, 25, 25, 24, -1, 24, 25, 24, -1,
 24, 24, 22, -1, 22, 24, 22, -1, 22, 22, 20, -1,
 20, 22, 20, -1, 20, 20, 18, -1, 18, 20, 18, -1,
 18, 18, 16, -1, 16, 18, 16, -1, 16, 16, 14, -1,
 14, 16, 14, -1, 25, 25, 24, -1, 25, 24, 24, -1,
 24, 24, 22, -1, 24, 22, 22, -1, 22, 22, 20, -1,
 22, 20, 20, -1, 20, 20, 18, -1, 20, 18, 18, -1,
 18, 18, 16, -1, 18, 16, 16, -1, 16, 16, 14, -1,
 16, 14, 14, -1, 11, 11, 11, -1, 11, 11, 11, -1,
 0, 0, 0, -1, 0, 0, 0, -1, 14, 14, 14, -1,
 14, 14, 14, -1, 14, 14, 14, -1, 14, 14, 14, -1,
 0, 0, 0, -1, 0, 0, 0, -1, 11, 11, 11, -1,
 11, 11, 11, -1, 11, 11, 11, -1, 11, 11, 11, -1,
 25, 25, 25, -1, 25, 25, 25, -1, 25, 25, 25, -1,
 25, 25, 25, -1, 14, 14, 14, -1, 14, 14, 14, -1,
 0, 0, 0, -1, 0, 0, 0, -1, 0, 0, 0, -1,
 0, 0, 0, -1, 14, 14, 14, -1, 14, 14, 14, -1,
 11, 11, 11, -1, 11, 11, 11, -1, 25, 25, 25, -1,
 25, 25, 25, -1, 14, 14, 14, -1, 14, 14, 14, -1,
 0, 0, 0, -1, 0, 0, 0, -1, 0, 0, 0, -1,
 0, 0, 0, -1, 14, 14, 14, -1, 14, 14, 14, -1,
 25, 25, 25, -1, 25, 25, 25, -1, 25, 25, 25, -1,
 25, 25, 25, -1, 14, 14, 14, -1, 14, 14, 14, -1,
 0, 0, 0, -1, 0, 0, 0, -1, 0, 0, 0, -1,
 0, 0, 0, -1, 11, 11, 11, -1, 11, 11, 11, -1,
 25, 25, 25, -1, 25, 25, 25, -1, 14, 14, 14, -1,
 14, 14, 14, -1, 25, 25, 25, -1, 25, 25, 25, -1,
 0, 0, 0, -1, 0, 0, 0, -1, 11, 11, 11, -1,
 11, 11, 11, -1, 25, 25, 25, -1, 25, 25, 25, -1,
 14, 14, 14, -1, 14, 14, 14, -1, 25, 25, 25, -1,
 25, 25, 25, -1, 11, 11, 11, -1, 11, 11, 11, -1,
 25, 25, 25, -1, 25, 25, 25, -1, 14, 14, 14, -1,
 14, 14, 14, -1, 0, 0, 0, -1, 0, 0, 0, -1,
 11, 11, 11, -1, 11, 11, 11, -1, 25, 25, 25, -1,
 25, 25, 25, -1, 11, 11, 11, -1, 11, 11, 11, -1,
 14, 14, 14, -1, 14, 14, 14, -1, 0, 0, 0, -1,
 0, 0, 0, -1, 11, 11, 11, -1, 11, 11, 11, -1,
 25, 25, 25, -1, 25, 25, 25, -1, 5, 5, 5, -1,
 5, 5, 5, -1, 5, 5, 5, -1, 5, 5, 5, -1,
 20, 20, 20, -1, 20, 20, 20, -1, 20, 20, 20, -1,
 20, 20, 20, -1, 6, 6, 6, -1, 6, 6, 6, -1,
 6, 6, 6, -1, 6, 6, 6, -1, 19, 19, 19, -1,
 19, 19, 19, -1, 20, 20, 20, -1, 20, 20, 20, -1,
 5, 5, 5, -1, 5, 5, 5, -1, 14, 14, 10, -1,
 10, 14, 10, -1, 10, 10, 8, -1, 8, 10, 8, -1,
 8, 8, 6, -1, 6, 8, 6, -1, 6, 6, 4, -1,
 4, 6, 4, -1, 4, 4, 2, -1, 2, 4, 2, -1,
 2, 2, 0, -1, 0, 2, 0, -1, 11, 11, 15, -1,
 15, 11, 15, -1, 15, 15, 17, -1, 17, 15, 17, -1,
 17, 17, 19, -1, 19, 17, 19, -1, 19, 19, 21, -1,
 21, 19, 21, -1, 21, 21, 23, -1, 23, 21, 23, -1,
 23, 23, 25, -1, 25, 23, 25, -1, 25, 25, 24, -1,
 24, 25, 24, -1, 24, 24, 22, -1, 22, 24, 22, -1,
 22, 22, 20, -1, 20, 22, 20, -1, 20, 20, 18, -1,
 18, 20, 18, -1, 18, 18, 16, -1, 16, 18, 16, -1,
 16, 16, 14, -1, 14, 16, 14, -1, 0, 0, 1, -1,
 1, 0, 1, -1, 1, 1, 3, -1, 3, 1, 3, -1,
 3, 3, 5, -1, 5, 3, 5, -1, 5, 5, 7, -1,
 7, 5, 7, -1, 7, 7, 9, -1, 9, 7, 9, -1,
 9, 9, 11, -1, 11, 9, 11, -1, 11, 11, 15, -1,
 15, 11, 15, -1, 15, 15, 17, -1, 17, 15, 17, -1,
 17, 17, 19, -1, 19, 17, 19, -1, 19, 19, 21, -1,
 21, 19, 21, -1, 21, 21, 23, -1, 23, 21, 23, -1,
 23, 23, 25, -1, 25, 23, 25, -1, 14, 14, 10, -1,
 10, 14, 10, -1, 10, 10, 8, -1, 8, 10, 8, -1,
 8, 8, 6, -1, 6, 8, 6, -1, 6, 6, 4, -1,
 4, 6, 4, -1, 4, 4, 2, -1, 2, 4, 2, -1,
 2, 2, 0, -1, 0, 2, 0, -1, 11, 11, 15, -1,
 11, 15, 15, -1, 15, 15, 17, -1, 15, 17, 17, -1,
 17, 17, 19, -1, 17, 19, 19, -1, 19, 19, 21, -1,
 19, 21, 21, -1, 21, 21, 23, -1, 21, 23, 23, -1,
 23, 23, 25, -1, 23, 25, 25, -1, 0, 0, 1, -1,
 0, 1, 1, -1, 1, 1, 3, -1, 1, 3, 3, -1,
 3, 3, 5, -1, 3, 5, 5, -1, 5, 5, 7, -1,
 5, 7, 7, -1, 7, 7, 9, -1, 7, 9, 9, -1,
 9, 9, 11, -1, 9, 11, 11, -1, 14, 14, 10, -1,
 14, 10, 10, -1, 10, 10, 8, -1, 10, 8, 8, -1,
 8, 8, 6, -1, 8, 6, 6, -1, 6, 6, 4, -1,
 6, 4, 4, -1, 4, 4, 2, -1, 4, 2, 2, -1,
 2, 2, 0, -1, 2, 0, 0, -1, 0, 0, 1, -1,
 1, 0, 1, -1, 1, 1, 3, -1, 3, 1, 3, -1,
 3, 3, 5, -1, 5, 3, 5, -1, 5, 5, 7, -1,
 7, 5, 7, -1, 7, 7, 9, -1, 9, 7, 9, -1,
 9, 9, 11, -1, 11, 9, 11, -1, 11, 11, 15, -1,
 15, 11, 15, -1, 15, 15, 17, -1, 17, 15, 17, -1,
 17, 17, 19, -1, 19, 17, 19, -1, 19, 19, 21, -1,
 21, 19, 21, -1, 21, 21, 23, -1, 23, 21, 23, -1,
 23, 23, 25, -1, 25, 23, 25, -1, 25, 25, 24, -1,
 24, 25, 24, -1, 24, 24, 22, -1, 22, 24, 22, -1,
 22, 22, 20, -1, 20, 22, 20, -1, 20, 20, 18, -1,
 18, 20, 18, -1, 18, 18, 16, -1, 16, 18, 16, -1,
 16, 16, 14, -1, 14, 16, 14, -1, 14, 14, 10, -1,
 10, 14, 10, -1, 10, 10, 8, -1, 8, 10, 8, -1,
 8, 8, 6, -1, 6, 8, 6, -1, 6, 6, 4, -1,
 4, 6, 4, -1, 4, 4, 2, -1, 2, 4, 2, -1,
 2, 2, 0, -1, 0, 2, 0, -1
]
colorPerVertex FALSE
normalPerVertex TRUE
}
}
]
}
