#VRML V2.0 utf8
Transform {
children [
Shape {
appearance Appearance {
material Material {
ambientIntensity 1.000000
diffuseColor 0.792157 0.819608 0.933333
emissiveColor 0.000000 0.000000 0.000000
specularColor 0.396078 0.409804 0.466667
shininess 0.400000
transparency 0.000000
}
}
geometry IndexedFaceSet {
color Color {
color [
 0.792157 0.819608 0.933333
]
}
coord Coordinate {
point [
 0.539925 0.032067 -0.114657, 0.539925 0.037278 -0.101603, 0.539925 0.038073 -0.099611, 0.539925 0.041114 -0.091995, 0.539925 0.047046 -0.077136,
 0.539925 0.297685 -0.220691, 0.539925 0.302896 -0.207637, 0.539925 0.303691 -0.205645, 0.539925 0.306731 -0.198030, 0.539925 0.312663 -0.183170,
 0.539993 0.031875 -0.115137, 0.539993 0.047238 -0.076655, 0.539993 0.297493 -0.221171, 0.539993 0.312855 -0.182689, 0.540193 0.031697 -0.115585,
 0.540193 0.047416 -0.076207, 0.540193 0.297314 -0.221619, 0.540193 0.313034 -0.182241, 0.540511 0.031543 -0.115970, 0.540511 0.047570 -0.075822,
 0.540511 0.297161 -0.222004, 0.540511 0.313188 -0.181856, 0.540925 0.031425 -0.116265, 0.540925 0.047688 -0.075527, 0.540925 0.297043 -0.222299,
 0.540925 0.313305 -0.181561, 0.541408 0.031351 -0.116451, 0.541408 0.047762 -0.075342, 0.541408 0.296969 -0.222485, 0.541408 0.313380 -0.181376,
 0.541635 0.033072 -0.112140, 0.541635 0.036335 -0.103967, 0.541635 0.042778 -0.087825, 0.541635 0.046041 -0.079653, 0.541635 0.298690 -0.218174,
 0.541635 0.301952 -0.210001, 0.541635 0.308396 -0.193860, 0.541635 0.311659 -0.185687, 0.541737 0.032784 -0.112861, 0.541737 0.046329 -0.078931,
 0.541737 0.298402 -0.218895, 0.541737 0.311946 -0.184966, 0.541925 0.031326 -0.116514, 0.541925 0.047787 -0.075278, 0.541925 0.296944 -0.222548,
 0.541925 0.313405 -0.181312, 0.542037 0.032516 -0.113533, 0.542037 0.046597 -0.078259, 0.542037 0.298134 -0.219567, 0.542037 0.312215 -0.184294,
 0.542514 0.032286 -0.114110, 0.542514 0.046827 -0.077682, 0.542514 0.297903 -0.220144, 0.542514 0.312445 -0.183717, 0.543135 0.032109 -0.114553,
 0.543135 0.047004 -0.077240, 0.543135 0.297727 -0.220587, 0.543135 0.312622 -0.183274, 0.543859 0.031998 -0.114831, 0.543859 0.047115 -0.076961,
 0.543859 0.297615 -0.220865, 0.543859 0.312733 -0.182995, 0.544425 0.036969 -0.102379, 0.544425 0.037278 -0.101603, 0.544425 0.038073 -0.099611,
 0.544425 0.041114 -0.091995, 0.544425 0.042144 -0.089414, 0.544425 0.302586 -0.208413, 0.544425 0.302896 -0.207637, 0.544425 0.303691 -0.205645,
 0.544425 0.306731 -0.198030, 0.544425 0.307762 -0.195448, 0.544635 0.031960 -0.114926, 0.544635 0.047153 -0.076866, 0.544635 0.297578 -0.220960,
 0.544635 0.312771 -0.182900, 0.550435 0.036335 -0.103967, 0.550435 0.042778 -0.087825, 0.550435 0.301952 -0.210001, 0.550435 0.308396 -0.193860,
 0.551212 0.036297 -0.104062, 0.551212 0.042816 -0.087731, 0.551212 0.301915 -0.210096, 0.551212 0.308434 -0.193765, 0.551935 0.036186 -0.104340,
 0.551935 0.042927 -0.087452, 0.551935 0.301803 -0.210374, 0.551935 0.308545 -0.193486, 0.552557 0.036009 -0.104783, 0.552557 0.043104 -0.087009,
 0.552557 0.301627 -0.210817, 0.552557 0.308722 -0.193043, 0.552625 0.036969 -0.102379, 0.552625 0.042144 -0.089414, 0.552625 0.302586 -0.208413,
 0.552625 0.307762 -0.195448, 0.553033 0.035779 -0.105360, 0.553033 0.043334 -0.086432, 0.553033 0.301396 -0.211394, 0.553033 0.308952 -0.192466,
 0.553333 0.035510 -0.106032, 0.553333 0.043603 -0.085760, 0.553333 0.301128 -0.212066, 0.553333 0.309220 -0.191794, 0.553435 0.031960 -0.114926,
 0.553435 0.035222 -0.106753, 0.553435 0.043891 -0.085039, 0.553435 0.047153 -0.076866, 0.553435 0.297578 -0.220960, 0.553435 0.300840 -0.212787,
 0.553435 0.309508 -0.191073, 0.553435 0.312771 -0.182900, 0.553460 0.037278 -0.101603, 0.553460 0.302896 -0.207637, 0.555125 0.037896 -0.100057,
 0.555125 0.041217 -0.091735, 0.555125 0.303513 -0.206091, 0.555125 0.306835 -0.197769, 0.555145 0.032994 -0.112335, 0.555145 0.036034 -0.104719,
 0.555145 0.043079 -0.087073, 0.555145 0.046119 -0.079458, 0.555145 0.298612 -0.218369, 0.555145 0.301652 -0.210753, 0.555145 0.308696 -0.193107,
 0.555145 0.311736 -0.185492, 0.557645 0.036961 -0.102397, 0.557645 0.042152 -0.089395, 0.557645 0.302579 -0.208431, 0.557645 0.307769 -0.195429,
 0.557925 0.031326 -0.116514, 0.557925 0.032994 -0.112335, 0.557925 0.296944 -0.222548, 0.557925 0.298612 -0.218369, 0.558125 0.046119 -0.079458,
 0.558125 0.047787 -0.075278, 0.558125 0.311736 -0.185492, 0.558125 0.313405 -0.181312, 0.558525 0.039556 -0.095896, 0.558525 0.305174 -0.201930,
 0.558648 0.039211 -0.096761, 0.558648 0.039902 -0.095031, 0.558648 0.304829 -0.202796, 0.558648 0.305520 -0.201065, 0.559008 0.038889 -0.097568,
 0.559008 0.040224 -0.094224, 0.559008 0.304507 -0.203602, 0.559008 0.305842 -0.200258, 0.559580 0.038613 -0.098260, 0.559580 0.040500 -0.093532,
 0.559580 0.304230 -0.204294, 0.559580 0.306118 -0.199566, 0.560325 0.038401 -0.098792, 0.560325 0.040712 -0.093001, 0.560325 0.304018 -0.204826,
 0.560325 0.306330 -0.199035, 0.561194 0.038267 -0.099126, 0.561194 0.040846 -0.092667, 0.561194 0.303885 -0.205160, 0.561194 0.306463 -0.198701,
 0.562125 0.038222 -0.099240, 0.562125 0.040891 -0.092553, 0.562125 0.303840 -0.205274, 0.562125 0.306509 -0.198587, 0.563057 0.038267 -0.099126,
 0.563057 0.040846 -0.092667, 0.563057 0.303885 -0.205160, 0.563057 0.306463 -0.198701, 0.563925 0.038401 -0.098792, 0.563925 0.040712 -0.093001,
 0.563925 0.304018 -0.204826, 0.563925 0.306330 -0.199035, 0.564671 0.038613 -0.098260, 0.564671 0.040500 -0.093532, 0.564671 0.304230 -0.204294,
 0.564671 0.306118 -0.199566, 0.565243 0.038889 -0.097568, 0.565243 0.040224 -0.094224, 0.565243 0.304507 -0.203602, 0.565243 0.305842 -0.200258,
 0.565603 0.039211 -0.096761, 0.565603 0.039902 -0.095031, 0.565603 0.304829 -0.202796, 0.565603 0.305520 -0.201065, 0.565725 0.039556 -0.095896,
 0.565725 0.305174 -0.201930, 0.566125 0.031326 -0.116514, 0.566125 0.032994 -0.112335, 0.566125 0.296944 -0.222548, 0.566125 0.298612 -0.218369,
 0.566325 0.046119 -0.079458, 0.566325 0.047787 -0.075278, 0.566325 0.311736 -0.185492, 0.566325 0.313405 -0.181312, 0.566605 0.036961 -0.102397,
 0.566605 0.042152 -0.089395, 0.566605 0.302579 -0.208431, 0.566605 0.307769 -0.195429, 0.568270 0.031326 -0.116514, 0.568270 0.032994 -0.112335,
 0.568270 0.036344 -0.103944, 0.568270 0.037278 -0.101603, 0.568270 0.042769 -0.087849, 0.568270 0.046119 -0.079458, 0.568270 0.047787 -0.075278,
 0.568270 0.296944 -0.222548, 0.568270 0.298612 -0.218369, 0.568270 0.301962 -0.209978, 0.568270 0.302896 -0.207637, 0.568270 0.308387 -0.193883,
 0.568270 0.311736 -0.185492, 0.568270 0.313405 -0.181312, 0.569105 0.032994 -0.112335, 0.569105 0.036034 -0.104719, 0.569105 0.043079 -0.087073,
 0.569105 0.046119 -0.079458, 0.569105 0.298612 -0.218369, 0.569105 0.301652 -0.210753, 0.569105 0.308696 -0.193107, 0.569105 0.311736 -0.185492,
 0.569125 0.037896 -0.100057, 0.569125 0.041217 -0.091735, 0.569125 0.303513 -0.206091, 0.569125 0.306835 -0.197769, 0.570790 0.037278 -0.101603,
 0.570790 0.302896 -0.207637, 0.570815 0.031960 -0.114926, 0.570815 0.035222 -0.106753, 0.570815 0.043891 -0.085039, 0.570815 0.047153 -0.076866,
 0.570815 0.297578 -0.220960, 0.570815 0.300840 -0.212787, 0.570815 0.309508 -0.191073, 0.570815 0.312771 -0.182900, 0.570917 0.035510 -0.106032,
 0.570917 0.043603 -0.085760, 0.570917 0.301128 -0.212066, 0.570917 0.309220 -0.191794, 0.571217 0.035779 -0.105360, 0.571217 0.043334 -0.086432,
 0.571217 0.301396 -0.211394, 0.571217 0.308952 -0.192466, 0.571625 0.036969 -0.102379, 0.571625 0.042144 -0.089414, 0.571625 0.302586 -0.208413,
 0.571625 0.307762 -0.195448, 0.571694 0.036009 -0.104783, 0.571694 0.043104 -0.087009, 0.571694 0.301627 -0.210817, 0.571694 0.308722 -0.193043,
 0.572315 0.036186 -0.104340, 0.572315 0.042927 -0.087452, 0.572315 0.301803 -0.210374, 0.572315 0.308545 -0.193486, 0.573039 0.036297 -0.104062,
 0.573039 0.042816 -0.087731, 0.573039 0.301915 -0.210096, 0.573039 0.308434 -0.193765, 0.573815 0.036335 -0.103967, 0.573815 0.042778 -0.087825,
 0.573815 0.301952 -0.210001, 0.573815 0.308396 -0.193860, 0.579615 0.031960 -0.114926, 0.579615 0.047153 -0.076866, 0.579615 0.297578 -0.220960,
 0.579615 0.312771 -0.182900, 0.579825 0.036969 -0.102379, 0.579825 0.037278 -0.101603, 0.579825 0.037999 -0.099797, 0.579825 0.041039 -0.092181,
 0.579825 0.042144 -0.089414, 0.579825 0.302586 -0.208413, 0.579825 0.302896 -0.207637, 0.579825 0.303617 -0.205831, 0.579825 0.306657 -0.198215,
 0.579825 0.307762 -0.195448, 0.580392 0.031998 -0.114831, 0.580392 0.047115 -0.076961, 0.580392 0.297615 -0.220865, 0.580392 0.312733 -0.182995,
 0.581115 0.032109 -0.114553, 0.581115 0.047004 -0.077240, 0.581115 0.297727 -0.220587, 0.581115 0.312622 -0.183274, 0.581737 0.032286 -0.114110,
 0.581737 0.046827 -0.077682, 0.581737 0.297903 -0.220144, 0.581737 0.312445 -0.183717, 0.582213 0.032516 -0.113533, 0.582213 0.046597 -0.078259,
 0.582213 0.298134 -0.219567, 0.582213 0.312215 -0.184294, 0.582325 0.031326 -0.116514, 0.582325 0.047787 -0.075278, 0.582325 0.296944 -0.222548,
 0.582325 0.313405 -0.181312, 0.582513 0.032784 -0.112861, 0.582513 0.046329 -0.078931, 0.582513 0.298402 -0.218895, 0.582513 0.311946 -0.184966,
 0.582615 0.033072 -0.112140, 0.582615 0.036335 -0.103967, 0.582615 0.042778 -0.087825, 0.582615 0.046041 -0.079653, 0.582615 0.298690 -0.218174,
 0.582615 0.301952 -0.210001, 0.582615 0.308396 -0.193860, 0.582615 0.311659 -0.185687, 0.582843 0.031351 -0.116451, 0.582843 0.047762 -0.075342,
 0.582843 0.296969 -0.222485, 0.582843 0.313380 -0.181376, 0.583325 0.031425 -0.116265, 0.583325 0.047688 -0.075527, 0.583325 0.297043 -0.222299,
 0.583325 0.313305 -0.181561, 0.583739 0.031543 -0.115970, 0.583739 0.047570 -0.075822, 0.583739 0.297161 -0.222004, 0.583739 0.313188 -0.181856,
 0.584057 0.031697 -0.115585, 0.584057 0.047416 -0.076207, 0.584057 0.297314 -0.221619, 0.584057 0.313034 -0.182241, 0.584257 0.031875 -0.115137,
 0.584257 0.047238 -0.076655, 0.584257 0.297493 -0.221171, 0.584257 0.312855 -0.182689, 0.584325 0.032067 -0.114657, 0.584325 0.037278 -0.101603,
 0.584325 0.037999 -0.099797, 0.584325 0.041039 -0.092181, 0.584325 0.047046 -0.077136, 0.584325 0.297685 -0.220691, 0.584325 0.302896 -0.207637,
 0.584325 0.303617 -0.205831, 0.584325 0.306657 -0.198215, 0.584325 0.312663 -0.183170
]
}
normal Normal {
vector [
 -1.000000 0.000000 -0.000000, -0.965926 -0.095957 -0.240374, -0.965926 0.095957 0.240374, -0.866025 -0.185374 -0.464367, -0.866025 0.185374 0.464367,
 -0.707107 -0.262159 -0.656714, -0.707107 0.262159 0.656714, -0.500000 -0.321078 -0.804307, -0.500000 0.321078 0.804307, -0.258819 -0.358116 -0.897087,
 -0.258819 0.358116 0.897087, -0.000000 -0.928733 0.370749, 0.000000 -0.370749 -0.928733, -0.000000 0.370749 0.928733, 0.000000 0.928733 -0.370749,
 0.258819 -0.358116 -0.897087, 0.258819 0.358116 0.897087, 0.500000 -0.321078 -0.804307, 0.500000 0.321078 0.804307, 0.707107 -0.262159 -0.656714,
 0.707107 0.262159 0.656714, 0.866025 -0.185374 -0.464367, 0.866025 0.185374 0.464367, 0.965926 -0.095957 -0.240374, 0.965926 0.095957 0.240374,
 1.000000 -0.000000 0.000000
]
}
coordIndex [
 226, 212, 199, -1, 270, 269, 331, -1, 114, 112, 201, -1,
 101, 97, 120, -1, 120, 97, 89, -1, 120, 89, 85, -1,
 32, 66, 77, -1, 77, 66, 93, -1, 77, 93, 81, -1,
 121, 107, 120, -1, 120, 107, 106, -1, 120, 106, 101, -1,
 121, 134, 107, -1, 107, 134, 135, -1, 107, 135, 73, -1,
 73, 135, 43, -1, 73, 43, 59, -1, 59, 43, 55, -1,
 201, 184, 180, -1, 85, 81, 120, -1, 120, 81, 93, -1,
 120, 93, 127, -1, 127, 93, 115, -1, 127, 115, 114, -1,
 23, 19, 51, -1, 65, 66, 3, -1, 3, 66, 32, -1,
 3, 32, 4, -1, 4, 32, 33, -1, 33, 39, 4, -1,
 4, 39, 47, -1, 4, 47, 11, -1, 11, 47, 51, -1,
 11, 51, 15, -1, 15, 51, 19, -1, 180, 176, 201, -1,
 201, 176, 172, -1, 201, 172, 168, -1, 152, 148, 114, -1,
 114, 148, 144, -1, 114, 144, 140, -1, 140, 138, 114, -1,
 114, 138, 141, -1, 114, 141, 127, -1, 127, 141, 145, -1,
 145, 149, 127, -1, 127, 149, 153, -1, 127, 153, 195, -1,
 55, 43, 51, -1, 51, 43, 27, -1, 51, 27, 23, -1,
 153, 157, 195, -1, 195, 157, 161, -1, 195, 161, 165, -1,
 165, 169, 195, -1, 195, 169, 173, -1, 195, 173, 202, -1,
 173, 177, 202, -1, 202, 177, 181, -1, 202, 181, 184, -1,
 168, 164, 201, -1, 201, 164, 160, -1, 201, 160, 114, -1,
 114, 160, 156, -1, 114, 156, 152, -1, 321, 317, 285, -1,
 184, 201, 202, -1, 202, 201, 221, -1, 202, 221, 214, -1,
 204, 229, 293, -1, 293, 229, 263, -1, 255, 251, 214, -1,
 214, 251, 247, -1, 214, 247, 239, -1, 321, 285, 325, -1,
 325, 285, 289, -1, 325, 289, 332, -1, 221, 243, 214, -1,
 214, 243, 270, -1, 214, 270, 255, -1, 263, 277, 293, -1,
 293, 277, 281, -1, 293, 281, 309, -1, 309, 281, 285, -1,
 309, 285, 313, -1, 313, 285, 317, -1, 289, 297, 332, -1,
 332, 297, 303, -1, 332, 303, 331, -1, 331, 303, 302, -1,
 331, 302, 270, -1, 270, 302, 259, -1, 270, 259, 255, -1,
 239, 235, 214, -1, 214, 235, 228, -1, 214, 228, 215, -1,
 215, 228, 229, -1, 215, 229, 203, -1, 203, 229, 204, -1,
 203, 204, 190, -1, 190, 204, 191, -1, 198, 292, 262, -1,
 234, 238, 213, -1, 242, 224, 201, -1, 201, 224, 220, -1,
 201, 220, 221, -1, 254, 258, 266, -1, 312, 316, 284, -1,
 212, 226, 213, -1, 213, 226, 227, -1, 213, 227, 234, -1,
 238, 246, 213, -1, 213, 246, 250, -1, 213, 250, 254, -1,
 329, 301, 328, -1, 328, 301, 300, -1, 300, 296, 328, -1,
 328, 296, 288, -1, 328, 288, 324, -1, 324, 288, 284, -1,
 324, 284, 320, -1, 320, 284, 316, -1, 312, 284, 308, -1,
 308, 284, 280, -1, 308, 280, 292, -1, 292, 280, 276, -1,
 292, 276, 262, -1, 258, 301, 266, -1, 266, 301, 329, -1,
 266, 329, 267, -1, 267, 329, 330, -1, 267, 330, 268, -1,
 262, 226, 198, -1, 198, 226, 199, -1, 198, 199, 186, -1,
 186, 199, 187, -1, 254, 266, 213, -1, 213, 266, 242, -1,
 213, 242, 200, -1, 200, 242, 201, -1, 200, 201, 194, -1,
 131, 118, 104, -1, 104, 118, 105, -1, 72, 42, 104, -1,
 104, 42, 130, -1, 104, 130, 131, -1, 14, 18, 50, -1,
 31, 1, 30, -1, 30, 1, 0, -1, 84, 88, 92, -1,
 92, 88, 96, -1, 92, 96, 100, -1, 194, 201, 126, -1,
 126, 201, 112, -1, 126, 112, 119, -1, 119, 112, 92, -1,
 119, 92, 118, -1, 118, 92, 100, -1, 118, 100, 105, -1,
 14, 50, 10, -1, 10, 50, 46, -1, 10, 46, 0, -1,
 0, 46, 38, -1, 0, 38, 30, -1, 31, 76, 92, -1,
 92, 76, 80, -1, 92, 80, 84, -1, 72, 58, 42, -1,
 42, 58, 54, -1, 42, 54, 26, -1, 26, 54, 50, -1,
 26, 50, 22, -1, 22, 50, 18, -1, 92, 62, 31, -1,
 31, 62, 63, -1, 31, 63, 1, -1, 1, 63, 64, -1,
 1, 64, 2, -1, 192, 193, 211, -1, 122, 133, 132, -1,
 110, 111, 125, -1, 125, 111, 136, -1, 197, 209, 208, -1,
 95, 83, 87, -1, 87, 91, 95, -1, 95, 91, 99, -1,
 95, 99, 103, -1, 17, 21, 53, -1, 71, 36, 95, -1,
 95, 36, 79, -1, 95, 79, 83, -1, 75, 45, 111, -1,
 111, 45, 137, -1, 111, 137, 136, -1, 71, 70, 36, -1,
 36, 70, 8, -1, 36, 8, 37, -1, 37, 8, 9, -1,
 37, 9, 41, -1, 41, 9, 49, -1, 179, 175, 197, -1,
 49, 9, 53, -1, 53, 9, 13, -1, 53, 13, 17, -1,
 155, 151, 117, -1, 129, 117, 124, -1, 124, 117, 95, -1,
 124, 95, 125, -1, 125, 95, 103, -1, 125, 103, 110, -1,
 75, 61, 45, -1, 45, 61, 57, -1, 45, 57, 29, -1,
 29, 57, 53, -1, 29, 53, 25, -1, 25, 53, 21, -1,
 142, 146, 116, -1, 175, 171, 197, -1, 197, 171, 167, -1,
 197, 167, 129, -1, 129, 167, 163, -1, 129, 163, 117, -1,
 117, 163, 159, -1, 117, 159, 155, -1, 151, 147, 117, -1,
 117, 147, 143, -1, 117, 143, 116, -1, 116, 143, 139, -1,
 116, 139, 142, -1, 146, 150, 116, -1, 116, 150, 154, -1,
 116, 154, 158, -1, 208, 174, 178, -1, 178, 182, 208, -1,
 208, 182, 185, -1, 208, 185, 197, -1, 197, 185, 183, -1,
 197, 183, 179, -1, 162, 166, 208, -1, 208, 166, 170, -1,
 208, 170, 174, -1, 6, 35, 5, -1, 5, 35, 34, -1,
 24, 20, 52, -1, 34, 40, 5, -1, 5, 40, 48, -1,
 5, 48, 12, -1, 12, 48, 52, -1, 12, 52, 16, -1,
 16, 52, 20, -1, 44, 74, 132, -1, 132, 74, 108, -1,
 132, 108, 122, -1, 90, 86, 94, -1, 24, 52, 28, -1,
 28, 52, 56, -1, 28, 56, 44, -1, 44, 56, 60, -1,
 44, 60, 74, -1, 108, 109, 122, -1, 122, 109, 102, -1,
 122, 102, 94, -1, 94, 102, 98, -1, 94, 98, 90, -1,
 158, 162, 116, -1, 116, 162, 208, -1, 116, 208, 113, -1,
 113, 208, 128, -1, 113, 128, 94, -1, 94, 128, 123, -1,
 94, 123, 122, -1, 7, 69, 6, -1, 6, 69, 68, -1,
 6, 68, 35, -1, 35, 68, 67, -1, 35, 67, 78, -1,
 78, 67, 94, -1, 78, 94, 82, -1, 82, 94, 86, -1,
 244, 271, 217, -1, 322, 318, 286, -1, 248, 240, 217, -1,
 217, 207, 208, -1, 208, 207, 196, -1, 208, 196, 128, -1,
 205, 230, 294, -1, 294, 230, 264, -1, 322, 286, 326, -1,
 326, 286, 290, -1, 326, 290, 333, -1, 264, 278, 294, -1,
 294, 278, 282, -1, 294, 282, 310, -1, 310, 282, 286, -1,
 310, 286, 314, -1, 314, 286, 318, -1, 305, 334, 304, -1,
 304, 334, 333, -1, 304, 333, 298, -1, 298, 333, 290, -1,
 271, 260, 256, -1, 271, 256, 217, -1, 217, 256, 252, -1,
 217, 252, 248, -1, 240, 236, 217, -1, 217, 236, 231, -1,
 217, 231, 216, -1, 231, 230, 216, -1, 216, 230, 205, -1,
 216, 205, 206, -1, 206, 205, 188, -1, 206, 188, 189, -1,
 273, 335, 272, -1, 272, 335, 334, -1, 272, 334, 271, -1,
 271, 334, 305, -1, 271, 305, 260, -1, 315, 319, 287, -1,
 274, 275, 306, -1, 306, 275, 261, -1, 233, 211, 265, -1,
 265, 211, 295, -1, 265, 295, 279, -1, 279, 295, 283, -1,
 244, 217, 225, -1, 225, 217, 208, -1, 225, 208, 222, -1,
 307, 337, 306, -1, 306, 337, 336, -1, 306, 336, 274, -1,
 237, 241, 218, -1, 307, 299, 337, -1, 337, 299, 291, -1,
 337, 291, 327, -1, 327, 291, 287, -1, 327, 287, 323, -1,
 323, 287, 319, -1, 283, 295, 287, -1, 287, 295, 311, -1,
 287, 311, 315, -1, 237, 218, 232, -1, 241, 249, 218, -1,
 218, 249, 253, -1, 218, 253, 257, -1, 222, 208, 223, -1,
 223, 208, 209, -1, 223, 209, 245, -1, 245, 209, 218, -1,
 245, 218, 275, -1, 275, 218, 257, -1, 275, 257, 261, -1,
 232, 218, 233, -1, 233, 218, 219, -1, 233, 219, 211, -1,
 211, 219, 210, -1, 211, 210, 192, -1, 222, 223, 220, -1,
 220, 223, 221, -1, 245, 275, 243, -1, 243, 275, 270, -1,
 269, 270, 274, -1, 274, 270, 275, -1, 331, 269, 336, -1,
 336, 269, 274, -1, 332, 331, 337, -1, 337, 331, 336, -1,
 293, 295, 204, -1, 204, 295, 211, -1, 204, 211, 191, -1,
 191, 211, 193, -1, 190, 191, 192, -1, 192, 191, 193, -1,
 219, 215, 210, -1, 210, 215, 203, -1, 210, 203, 192, -1,
 192, 203, 190, -1, 214, 215, 218, -1, 218, 215, 219, -1,
 127, 195, 129, -1, 129, 195, 197, -1, 232, 233, 228, -1,
 228, 233, 229, -1, 259, 302, 261, -1, 261, 302, 306, -1,
 307, 306, 303, -1, 303, 306, 302, -1, 263, 229, 265, -1,
 265, 229, 233, -1, 223, 245, 221, -1, 221, 245, 243, -1,
 197, 195, 209, -1, 209, 195, 202, -1, 209, 202, 218, -1,
 218, 202, 214, -1, 307, 303, 299, -1, 299, 303, 297, -1,
 299, 297, 291, -1, 291, 297, 289, -1, 291, 289, 287, -1,
 287, 289, 285, -1, 287, 285, 283, -1, 283, 285, 281, -1,
 283, 281, 279, -1, 279, 281, 277, -1, 279, 277, 265, -1,
 265, 277, 263, -1, 232, 228, 237, -1, 237, 228, 235, -1,
 237, 235, 241, -1, 241, 235, 239, -1, 241, 239, 249, -1,
 249, 239, 247, -1, 249, 247, 253, -1, 253, 247, 251, -1,
 253, 251, 257, -1, 257, 251, 255, -1, 257, 255, 261, -1,
 261, 255, 259, -1, 332, 337, 327, -1, 332, 327, 325, -1,
 325, 327, 323, -1, 325, 323, 321, -1, 321, 323, 319, -1,
 321, 319, 317, -1, 317, 319, 315, -1, 317, 315, 313, -1,
 313, 315, 311, -1, 313, 311, 309, -1, 309, 311, 295, -1,
 309, 295, 293, -1, 128, 196, 126, -1, 126, 196, 194, -1,
 217, 216, 213, -1, 213, 216, 212, -1, 189, 187, 206, -1,
 206, 187, 199, -1, 206, 199, 216, -1, 216, 199, 212, -1,
 186, 187, 188, -1, 188, 187, 189, -1, 294, 292, 205, -1,
 205, 292, 198, -1, 205, 198, 188, -1, 188, 198, 186, -1,
 335, 330, 334, -1, 334, 330, 329, -1, 334, 329, 333, -1,
 333, 329, 328, -1, 268, 330, 273, -1, 273, 330, 335, -1,
 271, 266, 272, -1, 272, 266, 267, -1, 272, 267, 273, -1,
 273, 267, 268, -1, 242, 266, 244, -1, 244, 266, 271, -1,
 260, 305, 258, -1, 258, 305, 301, -1, 227, 226, 231, -1,
 231, 226, 230, -1, 264, 230, 262, -1, 262, 230, 226, -1,
 300, 301, 304, -1, 304, 301, 305, -1, 117, 116, 115, -1,
 115, 116, 114, -1, 94, 67, 92, -1, 92, 67, 62, -1,
 62, 67, 63, -1, 63, 67, 68, -1, 63, 68, 64, -1,
 64, 68, 69, -1, 2, 64, 7, -1, 7, 64, 69, -1,
 5, 0, 6, -1, 6, 0, 1, -1, 6, 1, 7, -1,
 7, 1, 2, -1, 44, 132, 42, -1, 42, 132, 130, -1,
 131, 130, 133, -1, 133, 130, 132, -1, 118, 131, 122, -1,
 122, 131, 133, -1, 119, 118, 123, -1, 123, 118, 122, -1,
 109, 108, 105, -1, 105, 108, 104, -1, 76, 31, 78, -1,
 78, 31, 35, -1, 34, 35, 30, -1, 30, 35, 31, -1,
 72, 104, 74, -1, 74, 104, 108, -1, 124, 125, 120, -1,
 120, 125, 121, -1, 134, 121, 136, -1, 136, 121, 125, -1,
 135, 134, 137, -1, 137, 134, 136, -1, 43, 135, 45, -1,
 45, 135, 137, -1, 9, 8, 4, -1, 4, 8, 3, -1,
 65, 3, 70, -1, 70, 3, 8, -1, 66, 65, 71, -1,
 71, 65, 70, -1, 93, 66, 95, -1, 95, 66, 71, -1,
 79, 36, 77, -1, 77, 36, 32, -1, 106, 107, 110, -1,
 110, 107, 111, -1, 75, 111, 73, -1, 73, 111, 107, -1,
 33, 32, 37, -1, 37, 32, 36, -1, 217, 213, 207, -1,
 207, 213, 200, -1, 207, 200, 196, -1, 196, 200, 194, -1,
 222, 220, 225, -1, 225, 220, 224, -1, 225, 224, 244, -1,
 244, 224, 242, -1, 94, 92, 113, -1, 113, 92, 112, -1,
 113, 112, 116, -1, 116, 112, 114, -1, 123, 128, 119, -1,
 119, 128, 126, -1, 129, 124, 127, -1, 127, 124, 120, -1,
 95, 117, 93, -1, 93, 117, 115, -1, 264, 262, 278, -1,
 278, 262, 276, -1, 278, 276, 282, -1, 282, 276, 280, -1,
 282, 280, 286, -1, 286, 280, 284, -1, 286, 284, 290, -1,
 290, 284, 288, -1, 290, 288, 298, -1, 298, 288, 296, -1,
 298, 296, 304, -1, 304, 296, 300, -1, 260, 258, 256, -1,
 256, 258, 254, -1, 256, 254, 252, -1, 252, 254, 250, -1,
 252, 250, 248, -1, 248, 250, 246, -1, 248, 246, 240, -1,
 240, 246, 238, -1, 240, 238, 236, -1, 236, 238, 234, -1,
 236, 234, 231, -1, 231, 234, 227, -1, 34, 30, 40, -1,
 40, 30, 38, -1, 40, 38, 48, -1, 48, 38, 46, -1,
 48, 46, 52, -1, 52, 46, 50, -1, 52, 50, 56, -1,
 56, 50, 54, -1, 56, 54, 60, -1, 60, 54, 58, -1,
 60, 58, 74, -1, 74, 58, 72, -1, 109, 105, 102, -1,
 102, 105, 100, -1, 102, 100, 98, -1, 98, 100, 96, -1,
 98, 96, 90, -1, 90, 96, 88, -1, 90, 88, 86, -1,
 86, 88, 84, -1, 86, 84, 82, -1, 82, 84, 80, -1,
 82, 80, 78, -1, 78, 80, 76, -1, 75, 73, 61, -1,
 61, 73, 59, -1, 61, 59, 57, -1, 57, 59, 55, -1,
 57, 55, 53, -1, 53, 55, 51, -1, 53, 51, 49, -1,
 49, 51, 47, -1, 49, 47, 41, -1, 41, 47, 39, -1,
 41, 39, 37, -1, 37, 39, 33, -1, 79, 77, 83, -1,
 83, 77, 81, -1, 83, 81, 87, -1, 87, 81, 85, -1,
 87, 85, 91, -1, 91, 85, 89, -1, 91, 89, 99, -1,
 99, 89, 97, -1, 99, 97, 103, -1, 103, 97, 101, -1,
 103, 101, 110, -1, 110, 101, 106, -1, 292, 294, 310, -1,
 292, 310, 308, -1, 308, 310, 314, -1, 308, 314, 312, -1,
 312, 314, 318, -1, 312, 318, 316, -1, 316, 318, 322, -1,
 316, 322, 320, -1, 320, 322, 326, -1, 320, 326, 324, -1,
 324, 326, 333, -1, 324, 333, 328, -1, 0, 5, 12, -1,
 0, 12, 10, -1, 10, 12, 16, -1, 10, 16, 14, -1,
 14, 16, 20, -1, 14, 20, 18, -1, 18, 20, 24, -1,
 18, 24, 22, -1, 22, 24, 28, -1, 22, 28, 26, -1,
 26, 28, 44, -1, 26, 44, 42, -1, 43, 45, 29, -1,
 43, 29, 27, -1, 27, 29, 25, -1, 27, 25, 23, -1,
 23, 25, 21, -1, 23, 21, 19, -1, 19, 21, 17, -1,
 19, 17, 15, -1, 15, 17, 13, -1, 15, 13, 11, -1,
 11, 13, 9, -1, 11, 9, 4, -1, 185, 184, 183, -1,
 183, 184, 181, -1, 183, 181, 179, -1, 179, 181, 177, -1,
 179, 177, 175, -1, 175, 177, 173, -1, 175, 173, 171, -1,
 171, 173, 169, -1, 171, 169, 167, -1, 167, 169, 165, -1,
 167, 165, 163, -1, 163, 165, 161, -1, 163, 161, 159, -1,
 159, 161, 157, -1, 159, 157, 155, -1, 155, 157, 153, -1,
 155, 153, 151, -1, 151, 153, 149, -1, 151, 149, 147, -1,
 147, 149, 145, -1, 147, 145, 143, -1, 143, 145, 141, -1,
 143, 141, 139, -1, 139, 141, 138, -1, 139, 138, 142, -1,
 142, 138, 140, -1, 142, 140, 146, -1, 146, 140, 144, -1,
 146, 144, 150, -1, 150, 144, 148, -1, 150, 148, 154, -1,
 154, 148, 152, -1, 154, 152, 158, -1, 158, 152, 156, -1,
 158, 156, 162, -1, 162, 156, 160, -1, 162, 160, 166, -1,
 166, 160, 164, -1, 166, 164, 170, -1, 170, 164, 168, -1,
 170, 168, 174, -1, 174, 168, 172, -1, 174, 172, 178, -1,
 178, 172, 176, -1, 178, 176, 182, -1, 182, 176, 180, -1,
 182, 180, 185, -1, 185, 180, 184, -1
]
colorIndex [
 0, 0, 0, 0, 0, 0, 0, 0, 0, 0, 0, 0, 0, 0, 0, 0, 0, 0, 0, 0, 0, 0, 0, 0, 0, 0, 0, 0, 0, 0, 0, 0, 0, 0, 0, 0, 0, 0, 0, 0, 0, 0, 0, 0, 0, 0, 0, 0, 0, 0, 0, 0, 0, 0, 0, 0, 0, 0, 0, 0, 0, 0, 0, 0, 0, 0, 0, 0, 0, 0, 0, 0, 0, 0, 0, 0, 0, 0, 0, 0, 0, 0, 0, 0, 0, 0, 0, 0, 0, 0, 0, 0, 0, 0, 0, 0, 0, 0, 0, 0, 0, 0, 0, 0, 0, 0, 0, 0, 0, 0, 0, 0, 0, 0, 0, 0, 0, 0, 0, 0, 0, 0, 0, 0, 0, 0, 0, 0, 0, 0, 0, 0, 0, 0, 0, 0, 0, 0, 0, 0, 0, 0, 0, 0, 0, 0, 0, 0, 0, 0, 0, 0, 0, 0, 0, 0, 0, 0, 0, 0, 0, 0, 0, 0, 0, 0, 0, 0, 0, 0, 0, 0, 0, 0, 0, 0, 0, 0, 0, 0, 0, 0, 0, 0, 0, 0, 0, 0, 0, 0, 0, 0, 0, 0, 0, 0, 0, 0, 0, 0, 0, 0, 0, 0, 0, 0, 0, 0, 0, 0, 0, 0, 0, 0, 0, 0, 0, 0, 0, 0, 0, 0, 0, 0, 0, 0, 0, 0, 0, 0, 0, 0, 0, 0, 0, 0, 0, 0, 0, 0, 0, 0, 0, 0, 0, 0, 0, 0, 0, 0, 0, 0, 0, 0, 0, 0, 0, 0, 0, 0, 0, 0, 0, 0, 0, 0, 0, 0, 0, 0, 0, 0, 0, 0, 0, 0, 0, 0, 0, 0, 0, 0, 0, 0, 0, 0, 0, 0, 0, 0, 0, 0, 0, 0, 0, 0, 0, 0, 0, 0, 0, 0, 0, 0, 0, 0, 0, 0, 0, 0, 0, 0, 0, 0, 0, 0, 0, 0, 0, 0, 0, 0, 0, 0, 0, 0, 0, 0, 0, 0, 0, 0, 0, 0, 0, 0, 0, 0, 0, 0, 0, 0, 0, 0, 0, 0, 0, 0, 0, 0, 0, 0, 0, 0, 0, 0, 0, 0,
 0, 0, 0, 0, 0, 0,
 0, 0, 0, 0, 0, 0, 0, 0,
 0, 0, 0, 0, 0, 0, 0, 0,
 0, 0, 0, 0, 0, 0,
 0, 0, 0, 0, 0, 0, 0, 0,
 0, 0, 0, 0, 0, 0, 0, 0, 0, 0, 0, 0, 0, 0, 0, 0, 0, 0, 0, 0, 0, 0, 0, 0, 0, 0, 0, 0, 0, 0, 0, 0, 0, 0, 0, 0,
 0, 0, 0, 0, 0, 0, 0, 0,
 0, 0, 0, 0, 0, 0, 0, 0, 0, 0,
 0, 0, 0, 0, 0, 0, 0, 0,
 0, 0, 0, 0, 0, 0,
 0, 0, 0, 0, 0, 0,
 0, 0, 0, 0, 0, 0, 0, 0, 0, 0,
 0, 0, 0, 0, 0, 0,
 0, 0, 0, 0, 0, 0,
 0, 0, 0, 0, 0, 0,
 0, 0, 0, 0, 0, 0,
 0, 0, 0, 0, 0, 0,
 0, 0, 0, 0, 0, 0,
 0, 0, 0, 0, 0, 0, 0, 0,
 0, 0, 0, 0, 0, 0, 0, 0, 0, 0,
 0, 0, 0, 0, 0, 0, 0, 0, 0, 0, 0, 0, 0, 0, 0, 0,
 0, 0, 0, 0, 0, 0, 0, 0, 0, 0, 0, 0, 0, 0, 0, 0, 0, 0, 0, 0, 0, 0, 0, 0, 0, 0, 0, 0, 0, 0, 0, 0, 0, 0, 0, 0,
 0, 0, 0, 0, 0, 0, 0, 0, 0, 0, 0, 0, 0, 0, 0, 0, 0, 0, 0, 0, 0, 0, 0, 0, 0, 0, 0, 0, 0, 0, 0, 0, 0, 0, 0, 0,
 0, 0, 0, 0, 0, 0, 0, 0, 0, 0, 0, 0, 0, 0, 0, 0, 0, 0, 0, 0, 0, 0, 0, 0, 0, 0, 0, 0, 0, 0, 0, 0, 0, 0, 0, 0, 0, 0, 0, 0, 0, 0, 0, 0, 0, 0, 0, 0, 0, 0, 0, 0, 0, 0, 0, 0, 0, 0, 0, 0, 0, 0, 0, 0, 0, 0, 0, 0, 0, 0, 0, 0,
]
normalIndex [
 11, 11, 11, -1, 11, 11, 11, -1, 11, 11, 11, -1,
 11, 11, 11, -1, 11, 11, 11, -1, 11, 11, 11, -1,
 11, 11, 11, -1, 11, 11, 11, -1, 11, 11, 11, -1,
 11, 11, 11, -1, 11, 11, 11, -1, 11, 11, 11, -1,
 11, 11, 11, -1, 11, 11, 11, -1, 11, 11, 11, -1,
 11, 11, 11, -1, 11, 11, 11, -1, 11, 11, 11, -1,
 11, 11, 11, -1, 11, 11, 11, -1, 11, 11, 11, -1,
 11, 11, 11, -1, 11, 11, 11, -1, 11, 11, 11, -1,
 11, 11, 11, -1, 11, 11, 11, -1, 11, 11, 11, -1,
 11, 11, 11, -1, 11, 11, 11, -1, 11, 11, 11, -1,
 11, 11, 11, -1, 11, 11, 11, -1, 11, 11, 11, -1,
 11, 11, 11, -1, 11, 11, 11, -1, 11, 11, 11, -1,
 11, 11, 11, -1, 11, 11, 11, -1, 11, 11, 11, -1,
 11, 11, 11, -1, 11, 11, 11, -1, 11, 11, 11, -1,
 11, 11, 11, -1, 11, 11, 11, -1, 11, 11, 11, -1,
 11, 11, 11, -1, 11, 11, 11, -1, 11, 11, 11, -1,
 11, 11, 11, -1, 11, 11, 11, -1, 11, 11, 11, -1,
 11, 11, 11, -1, 11, 11, 11, -1, 11, 11, 11, -1,
 11, 11, 11, -1, 11, 11, 11, -1, 11, 11, 11, -1,
 11, 11, 11, -1, 11, 11, 11, -1, 11, 11, 11, -1,
 11, 11, 11, -1, 11, 11, 11, -1, 11, 11, 11, -1,
 11, 11, 11, -1, 11, 11, 11, -1, 11, 11, 11, -1,
 11, 11, 11, -1, 11, 11, 11, -1, 11, 11, 11, -1,
 11, 11, 11, -1, 11, 11, 11, -1, 11, 11, 11, -1,
 11, 11, 11, -1, 11, 11, 11, -1, 11, 11, 11, -1,
 11, 11, 11, -1, 11, 11, 11, -1, 11, 11, 11, -1,
 11, 11, 11, -1, 11, 11, 11, -1, 11, 11, 11, -1,
 11, 11, 11, -1, 11, 11, 11, -1, 11, 11, 11, -1,
 11, 11, 11, -1, 11, 11, 11, -1, 11, 11, 11, -1,
 11, 11, 11, -1, 11, 11, 11, -1, 11, 11, 11, -1,
 11, 11, 11, -1, 11, 11, 11, -1, 11, 11, 11, -1,
 11, 11, 11, -1, 11, 11, 11, -1, 11, 11, 11, -1,
 11, 11, 11, -1, 11, 11, 11, -1, 11, 11, 11, -1,
 11, 11, 11, -1, 11, 11, 11, -1, 11, 11, 11, -1,
 11, 11, 11, -1, 11, 11, 11, -1, 11, 11, 11, -1,
 11, 11, 11, -1, 11, 11, 11, -1, 11, 11, 11, -1,
 11, 11, 11, -1, 11, 11, 11, -1, 11, 11, 11, -1,
 11, 11, 11, -1, 11, 11, 11, -1, 11, 11, 11, -1,
 11, 11, 11, -1, 11, 11, 11, -1, 11, 11, 11, -1,
 11, 11, 11, -1, 11, 11, 11, -1, 11, 11, 11, -1,
 11, 11, 11, -1, 11, 11, 11, -1, 11, 11, 11, -1,
 11, 11, 11, -1, 11, 11, 11, -1, 11, 11, 11, -1,
 11, 11, 11, -1, 11, 11, 11, -1, 11, 11, 11, -1,
 11, 11, 11, -1, 11, 11, 11, -1, 11, 11, 11, -1,
 11, 11, 11, -1, 11, 11, 11, -1, 11, 11, 11, -1,
 11, 11, 11, -1, 11, 11, 11, -1, 11, 11, 11, -1,
 11, 11, 11, -1, 11, 11, 11, -1, 11, 11, 11, -1,
 11, 11, 11, -1, 11, 11, 11, -1, 11, 11, 11, -1,
 11, 11, 11, -1, 11, 11, 11, -1, 11, 11, 11, -1,
 11, 11, 11, -1, 11, 11, 11, -1, 11, 11, 11, -1,
 11, 11, 11, -1, 11, 11, 11, -1, 11, 11, 11, -1,
 11, 11, 11, -1, 11, 11, 11, -1, 11, 11, 11, -1,
 11, 11, 11, -1, 11, 11, 11, -1, 11, 11, 11, -1,
 11, 11, 11, -1, 11, 11, 11, -1, 11, 11, 11, -1,
 11, 11, 11, -1, 11, 11, 11, -1, 11, 11, 11, -1,
 11, 11, 11, -1, 11, 11, 11, -1, 11, 11, 11, -1,
 11, 11, 11, -1, 11, 11, 11, -1, 11, 11, 11, -1,
 11, 11, 11, -1, 11, 11, 11, -1, 11, 11, 11, -1,
 11, 11, 11, -1, 11, 11, 11, -1, 11, 11, 11, -1,
 11, 11, 11, -1, 14, 14, 14, -1, 14, 14, 14, -1,
 14, 14, 14, -1, 14, 14, 14, -1, 14, 14, 14, -1,
 14, 14, 14, -1, 14, 14, 14, -1, 14, 14, 14, -1,
 14, 14, 14, -1, 14, 14, 14, -1, 14, 14, 14, -1,
 14, 14, 14, -1, 14, 14, 14, -1, 14, 14, 14, -1,
 14, 14, 14, -1, 14, 14, 14, -1, 14, 14, 14, -1,
 14, 14, 14, -1, 14, 14, 14, -1, 14, 14, 14, -1,
 14, 14, 14, -1, 14, 14, 14, -1, 14, 14, 14, -1,
 14, 14, 14, -1, 14, 14, 14, -1, 14, 14, 14, -1,
 14, 14, 14, -1, 14, 14, 14, -1, 14, 14, 14, -1,
 14, 14, 14, -1, 14, 14, 14, -1, 14, 14, 14, -1,
 14, 14, 14, -1, 14, 14, 14, -1, 14, 14, 14, -1,
 14, 14, 14, -1, 14, 14, 14, -1, 14, 14, 14, -1,
 14, 14, 14, -1, 14, 14, 14, -1, 14, 14, 14, -1,
 14, 14, 14, -1, 14, 14, 14, -1, 14, 14, 14, -1,
 14, 14, 14, -1, 14, 14, 14, -1, 14, 14, 14, -1,
 14, 14, 14, -1, 14, 14, 14, -1, 14, 14, 14, -1,
 14, 14, 14, -1, 14, 14, 14, -1, 14, 14, 14, -1,
 14, 14, 14, -1, 14, 14, 14, -1, 14, 14, 14, -1,
 14, 14, 14, -1, 14, 14, 14, -1, 14, 14, 14, -1,
 14, 14, 14, -1, 14, 14, 14, -1, 14, 14, 14, -1,
 14, 14, 14, -1, 14, 14, 14, -1, 14, 14, 14, -1,
 14, 14, 14, -1, 14, 14, 14, -1, 14, 14, 14, -1,
 14, 14, 14, -1, 14, 14, 14, -1, 14, 14, 14, -1,
 14, 14, 14, -1, 14, 14, 14, -1, 14, 14, 14, -1,
 14, 14, 14, -1, 14, 14, 14, -1, 14, 14, 14, -1,
 14, 14, 14, -1, 14, 14, 14, -1, 14, 14, 14, -1,
 14, 14, 14, -1, 14, 14, 14, -1, 14, 14, 14, -1,
 14, 14, 14, -1, 14, 14, 14, -1, 14, 14, 14, -1,
 14, 14, 14, -1, 14, 14, 14, -1, 14, 14, 14, -1,
 14, 14, 14, -1, 14, 14, 14, -1, 14, 14, 14, -1,
 14, 14, 14, -1, 14, 14, 14, -1, 14, 14, 14, -1,
 14, 14, 14, -1, 14, 14, 14, -1, 14, 14, 14, -1,
 14, 14, 14, -1, 14, 14, 14, -1, 14, 14, 14, -1,
 14, 14, 14, -1, 14, 14, 14, -1, 14, 14, 14, -1,
 14, 14, 14, -1, 14, 14, 14, -1, 14, 14, 14, -1,
 14, 14, 14, -1, 14, 14, 14, -1, 14, 14, 14, -1,
 14, 14, 14, -1, 14, 14, 14, -1, 14, 14, 14, -1,
 14, 14, 14, -1, 14, 14, 14, -1, 14, 14, 14, -1,
 14, 14, 14, -1, 14, 14, 14, -1, 14, 14, 14, -1,
 14, 14, 14, -1, 14, 14, 14, -1, 14, 14, 14, -1,
 14, 14, 14, -1, 14, 14, 14, -1, 14, 14, 14, -1,
 14, 14, 14, -1, 14, 14, 14, -1, 14, 14, 14, -1,
 14, 14, 14, -1, 14, 14, 14, -1, 14, 14, 14, -1,
 14, 14, 14, -1, 14, 14, 14, -1, 14, 14, 14, -1,
 14, 14, 14, -1, 14, 14, 14, -1, 14, 14, 14, -1,
 14, 14, 14, -1, 14, 14, 14, -1, 14, 14, 14, -1,
 14, 14, 14, -1, 14, 14, 14, -1, 14, 14, 14, -1,
 14, 14, 14, -1, 14, 14, 14, -1, 14, 14, 14, -1,
 14, 14, 14, -1, 14, 14, 14, -1, 14, 14, 14, -1,
 14, 14, 14, -1, 14, 14, 14, -1, 14, 14, 14, -1,
 14, 14, 14, -1, 14, 14, 14, -1, 14, 14, 14, -1,
 14, 14, 14, -1, 14, 14, 14, -1, 14, 14, 14, -1,
 14, 14, 14, -1, 14, 14, 14, -1, 14, 14, 14, -1,
 14, 14, 14, -1, 14, 14, 14, -1, 14, 14, 14, -1,
 14, 14, 14, -1, 14, 14, 14, -1, 14, 14, 14, -1,
 14, 14, 14, -1, 14, 14, 14, -1, 14, 14, 14, -1,
 14, 14, 14, -1, 14, 14, 14, -1, 14, 14, 14, -1,
 14, 14, 14, -1, 14, 14, 14, -1, 14, 14, 14, -1,
 14, 14, 14, -1, 14, 14, 14, -1, 25, 25, 25, -1,
 25, 25, 25, -1, 12, 12, 12, -1, 12, 12, 12, -1,
 0, 0, 0, -1, 0, 0, 0, -1, 12, 12, 12, -1,
 12, 12, 12, -1, 25, 25, 25, -1, 25, 25, 25, -1,
 13, 13, 13, -1, 13, 13, 13, -1, 13, 13, 13, -1,
 13, 13, 13, -1, 0, 0, 0, -1, 0, 0, 0, -1,
 12, 12, 12, -1, 12, 12, 12, -1, 12, 12, 12, -1,
 12, 12, 12, -1, 0, 0, 0, -1, 0, 0, 0, -1,
 13, 13, 13, -1, 13, 13, 13, -1, 25, 25, 25, -1,
 25, 25, 25, -1, 13, 13, 13, -1, 13, 13, 13, -1,
 0, 0, 0, -1, 0, 0, 0, -1, 12, 12, 12, -1,
 12, 12, 12, -1, 19, 19, 19, -1, 19, 19, 19, -1,
 6, 6, 6, -1, 6, 6, 6, -1, 6, 6, 6, -1,
 6, 6, 6, -1, 0, 0, 1, -1, 1, 0, 1, -1,
 1, 1, 3, -1, 3, 1, 3, -1, 3, 3, 5, -1,
 5, 3, 5, -1, 5, 5, 7, -1, 7, 5, 7, -1,
 7, 7, 9, -1, 9, 7, 9, -1, 9, 9, 12, -1,
 12, 9, 12, -1, 25, 25, 24, -1, 24, 25, 24, -1,
 24, 24, 22, -1, 22, 24, 22, -1, 22, 22, 20, -1,
 20, 22, 20, -1, 20, 20, 18, -1, 18, 20, 18, -1,
 18, 18, 16, -1, 16, 18, 16, -1, 16, 16, 13, -1,
 13, 16, 13, -1, 25, 25, 24, -1, 25, 24, 24, -1,
 24, 24, 22, -1, 24, 22, 22, -1, 22, 22, 20, -1,
 22, 20, 20, -1, 20, 20, 18, -1, 20, 18, 18, -1,
 18, 18, 16, -1, 18, 16, 16, -1, 16, 16, 13, -1,
 16, 13, 13, -1, 12, 12, 12, -1, 12, 12, 12, -1,
 0, 0, 0, -1, 0, 0, 0, -1, 13, 13, 13, -1,
 13, 13, 13, -1, 13, 13, 13, -1, 13, 13, 13, -1,
 0, 0, 0, -1, 0, 0, 0, -1, 12, 12, 12, -1,
 12, 12, 12, -1, 12, 12, 12, -1, 12, 12, 12, -1,
 25, 25, 25, -1, 25, 25, 25, -1, 25, 25, 25, -1,
 25, 25, 25, -1, 13, 13, 13, -1, 13, 13, 13, -1,
 0, 0, 0, -1, 0, 0, 0, -1, 0, 0, 0, -1,
 0, 0, 0, -1, 13, 13, 13, -1, 13, 13, 13, -1,
 12, 12, 12, -1, 12, 12, 12, -1, 25, 25, 25, -1,
 25, 25, 25, -1, 13, 13, 13, -1, 13, 13, 13, -1,
 0, 0, 0, -1, 0, 0, 0, -1, 0, 0, 0, -1,
 0, 0, 0, -1, 13, 13, 13, -1, 13, 13, 13, -1,
 25, 25, 25, -1, 25, 25, 25, -1, 25, 25, 25, -1,
 25, 25, 25, -1, 13, 13, 13, -1, 13, 13, 13, -1,
 0, 0, 0, -1, 0, 0, 0, -1, 0, 0, 0, -1,
 0, 0, 0, -1, 12, 12, 12, -1, 12, 12, 12, -1,
 25, 25, 25, -1, 25, 25, 25, -1, 13, 13, 13, -1,
 13, 13, 13, -1, 25, 25, 25, -1, 25, 25, 25, -1,
 0, 0, 0, -1, 0, 0, 0, -1, 12, 12, 12, -1,
 12, 12, 12, -1, 25, 25, 25, -1, 25, 25, 25, -1,
 13, 13, 13, -1, 13, 13, 13, -1, 25, 25, 25, -1,
 25, 25, 25, -1, 12, 12, 12, -1, 12, 12, 12, -1,
 25, 25, 25, -1, 25, 25, 25, -1, 13, 13, 13, -1,
 13, 13, 13, -1, 0, 0, 0, -1, 0, 0, 0, -1,
 12, 12, 12, -1, 12, 12, 12, -1, 25, 25, 25, -1,
 25, 25, 25, -1, 12, 12, 12, -1, 12, 12, 12, -1,
 13, 13, 13, -1, 13, 13, 13, -1, 0, 0, 0, -1,
 0, 0, 0, -1, 12, 12, 12, -1, 12, 12, 12, -1,
 25, 25, 25, -1, 25, 25, 25, -1, 5, 5, 5, -1,
 5, 5, 5, -1, 5, 5, 5, -1, 5, 5, 5, -1,
 20, 20, 20, -1, 20, 20, 20, -1, 20, 20, 20, -1,
 20, 20, 20, -1, 6, 6, 6, -1, 6, 6, 6, -1,
 6, 6, 6, -1, 6, 6, 6, -1, 19, 19, 19, -1,
 19, 19, 19, -1, 20, 20, 20, -1, 20, 20, 20, -1,
 5, 5, 5, -1, 5, 5, 5, -1, 13, 13, 10, -1,
 10, 13, 10, -1, 10, 10, 8, -1, 8, 10, 8, -1,
 8, 8, 6, -1, 6, 8, 6, -1, 6, 6, 4, -1,
 4, 6, 4, -1, 4, 4, 2, -1, 2, 4, 2, -1,
 2, 2, 0, -1, 0, 2, 0, -1, 12, 12, 15, -1,
 15, 12, 15, -1, 15, 15, 17, -1, 17, 15, 17, -1,
 17, 17, 19, -1, 19, 17, 19, -1, 19, 19, 21, -1,
 21, 19, 21, -1, 21, 21, 23, -1, 23, 21, 23, -1,
 23, 23, 25, -1, 25, 23, 25, -1, 25, 25, 24, -1,
 24, 25, 24, -1, 24, 24, 22, -1, 22, 24, 22, -1,
 22, 22, 20, -1, 20, 22, 20, -1, 20, 20, 18, -1,
 18, 20, 18, -1, 18, 18, 16, -1, 16, 18, 16, -1,
 16, 16, 13, -1, 13, 16, 13, -1, 0, 0, 1, -1,
 1, 0, 1, -1, 1, 1, 3, -1, 3, 1, 3, -1,
 3, 3, 5, -1, 5, 3, 5, -1, 5, 5, 7, -1,
 7, 5, 7, -1, 7, 7, 9, -1, 9, 7, 9, -1,
 9, 9, 12, -1, 12, 9, 12, -1, 12, 12, 15, -1,
 15, 12, 15, -1, 15, 15, 17, -1, 17, 15, 17, -1,
 17, 17, 19, -1, 19, 17, 19, -1, 19, 19, 21, -1,
 21, 19, 21, -1, 21, 21, 23, -1, 23, 21, 23, -1,
 23, 23, 25, -1, 25, 23, 25, -1, 13, 13, 10, -1,
 10, 13, 10, -1, 10, 10, 8, -1, 8, 10, 8, -1,
 8, 8, 6, -1, 6, 8, 6, -1, 6, 6, 4, -1,
 4, 6, 4, -1, 4, 4, 2, -1, 2, 4, 2, -1,
 2, 2, 0, -1, 0, 2, 0, -1, 12, 12, 15, -1,
 12, 15, 15, -1, 15, 15, 17, -1, 15, 17, 17, -1,
 17, 17, 19, -1, 17, 19, 19, -1, 19, 19, 21, -1,
 19, 21, 21, -1, 21, 21, 23, -1, 21, 23, 23, -1,
 23, 23, 25, -1, 23, 25, 25, -1, 0, 0, 1, -1,
 0, 1, 1, -1, 1, 1, 3, -1, 1, 3, 3, -1,
 3, 3, 5, -1, 3, 5, 5, -1, 5, 5, 7, -1,
 5, 7, 7, -1, 7, 7, 9, -1, 7, 9, 9, -1,
 9, 9, 12, -1, 9, 12, 12, -1, 13, 13, 10, -1,
 13, 10, 10, -1, 10, 10, 8, -1, 10, 8, 8, -1,
 8, 8, 6, -1, 8, 6, 6, -1, 6, 6, 4, -1,
 6, 4, 4, -1, 4, 4, 2, -1, 4, 2, 2, -1,
 2, 2, 0, -1, 2, 0, 0, -1, 0, 0, 1, -1,
 1, 0, 1, -1, 1, 1, 3, -1, 3, 1, 3, -1,
 3, 3, 5, -1, 5, 3, 5, -1, 5, 5, 7, -1,
 7, 5, 7, -1, 7, 7, 9, -1, 9, 7, 9, -1,
 9, 9, 12, -1, 12, 9, 12, -1, 12, 12, 15, -1,
 15, 12, 15, -1, 15, 15, 17, -1, 17, 15, 17, -1,
 17, 17, 19, -1, 19, 17, 19, -1, 19, 19, 21, -1,
 21, 19, 21, -1, 21, 21, 23, -1, 23, 21, 23, -1,
 23, 23, 25, -1, 25, 23, 25, -1, 25, 25, 24, -1,
 24, 25, 24, -1, 24, 24, 22, -1, 22, 24, 22, -1,
 22, 22, 20, -1, 20, 22, 20, -1, 20, 20, 18, -1,
 18, 20, 18, -1, 18, 18, 16, -1, 16, 18, 16, -1,
 16, 16, 13, -1, 13, 16, 13, -1, 13, 13, 10, -1,
 10, 13, 10, -1, 10, 10, 8, -1, 8, 10, 8, -1,
 8, 8, 6, -1, 6, 8, 6, -1, 6, 6, 4, -1,
 4, 6, 4, -1, 4, 4, 2, -1, 2, 4, 2, -1,
 2, 2, 0, -1, 0, 2, 0, -1
]
colorPerVertex FALSE
normalPerVertex TRUE
}
}
]
}
