#VRML V2.0 utf8
Transform {
children [
Shape {
appearance Appearance {
material Material {
ambientIntensity 1.000000
diffuseColor 0.792157 0.819608 0.933333
emissiveColor 0.000000 0.000000 0.000000
specularColor 0.396078 0.409804 0.466667
shininess 0.400000
transparency 0.000000
}
}
geometry IndexedFaceSet {
color Color {
color [
 0.792157 0.819608 0.933333
]
}
coord Coordinate {
point [
 0.270368 -0.157871 0.018311, 0.270368 -0.142826 0.012305, 0.270368 -0.135210 0.009265, 0.270368 -0.133404 0.008544, 0.270368 -0.120351 0.003333,
 0.270426 -0.158366 0.018469, 0.270426 -0.119883 0.003107, 0.270595 -0.158854 0.018548, 0.270595 -0.119475 0.002828, 0.270863 -0.159301 0.018543,
 0.270863 -0.119154 0.002516, 0.271212 -0.159679 0.018454, 0.271212 -0.118941 0.002192, 0.271619 -0.159961 0.018288, 0.271619 -0.118852 0.001877,
 0.271811 -0.155695 0.016453, 0.271811 -0.147522 0.013191, 0.271811 -0.131381 0.006747, 0.271811 -0.123208 0.003485, 0.271874 -0.122603 0.003200,
 0.271897 -0.156436 0.016690, 0.272056 -0.160127 0.018055, 0.272056 -0.118891 0.001594, 0.272062 -0.122058 0.002854, 0.272150 -0.157168 0.016809,
 0.272363 -0.121601 0.002465, 0.272552 -0.157840 0.016802, 0.272764 -0.121254 0.002052, 0.273076 -0.158407 0.016669, 0.273244 -0.121036 0.001636,
 0.273687 -0.158829 0.016419, 0.273779 -0.120956 0.001237, 0.274165 -0.146489 0.011166, 0.274165 -0.143722 0.010061, 0.274165 -0.136106 0.007021,
 0.274165 -0.134300 0.006299, 0.274165 -0.133524 0.005990, 0.274342 -0.159078 0.016070, 0.274342 -0.121019 0.000876, 0.279235 -0.149274 0.008802,
 0.279235 -0.133133 0.002359, 0.279798 -0.133196 0.001998, 0.279890 -0.149524 0.008453, 0.280333 -0.133116 0.001599, 0.280500 -0.149946 0.008203,
 0.280813 -0.132897 0.001183, 0.281024 -0.150512 0.008070, 0.281082 -0.148122 0.007076, 0.281082 -0.135157 0.001901, 0.281213 -0.132551 0.000770,
 0.281426 -0.151184 0.008063, 0.281515 -0.132093 0.000381, 0.281679 -0.151916 0.008182, 0.281702 -0.131549 0.000035, 0.281766 -0.160830 0.011681,
 0.281766 -0.152657 0.008418, 0.281766 -0.130944 -0.000250, 0.281766 -0.122771 -0.003512, 0.281787 -0.136099 0.001794, 0.283191 -0.146298 0.004903,
 0.283191 -0.137976 0.001581, 0.283208 -0.158580 0.009794, 0.283208 -0.150964 0.006754, 0.283208 -0.133318 -0.000290, 0.283208 -0.125702 -0.003331,
 0.285317 -0.149140 0.004580, 0.285317 -0.136138 -0.000610, 0.285553 -0.163312 0.010076, 0.285553 -0.159133 0.008407, 0.285722 -0.126296 -0.004817,
 0.285722 -0.122116 -0.006485, 0.286059 -0.142814 0.001546, 0.286163 -0.143704 0.001830, 0.286163 -0.141973 0.001139, 0.286466 -0.144582 0.001973,
 0.286466 -0.141238 0.000638, 0.286949 -0.145388 0.001964, 0.286949 -0.140660 0.000076, 0.287578 -0.146068 0.001804, 0.287578 -0.140277 -0.000508,
 0.288310 -0.146575 0.001505, 0.288310 -0.140116 -0.001074, 0.289096 -0.146874 0.001085, 0.289096 -0.140187 -0.001584, 0.289882 -0.146946 0.000575,
 0.289882 -0.140487 -0.002003, 0.290615 -0.146784 0.000009, 0.290615 -0.140993 -0.002303, 0.291244 -0.146402 -0.000575, 0.291244 -0.141673 -0.002463,
 0.291726 -0.145823 -0.001137, 0.291726 -0.142480 -0.002471, 0.292030 -0.145088 -0.001638, 0.292030 -0.143358 -0.002329, 0.292133 -0.144247 -0.002045,
 0.292471 -0.164945 0.005987, 0.292471 -0.160766 0.004318, 0.292640 -0.127928 -0.008906, 0.292640 -0.123749 -0.010574, 0.292876 -0.150924 0.000112,
 0.292876 -0.137921 -0.005079, 0.294280 -0.165372 0.004917, 0.294280 -0.161193 0.003248, 0.294280 -0.152801 -0.000101, 0.294280 -0.139047 -0.005592,
 0.294280 -0.136706 -0.006526, 0.294280 -0.128315 -0.009876, 0.294280 -0.124136 -0.011544, 0.294985 -0.161359 0.002832, 0.294985 -0.153743 -0.000208,
 0.294985 -0.136097 -0.007252, 0.294985 -0.128482 -0.010292, 0.295002 -0.149085 -0.002079, 0.295002 -0.140763 -0.005401, 0.296406 -0.139549 -0.006849,
 0.296427 -0.164290 0.003014, 0.296427 -0.156118 -0.000249, 0.296427 -0.134404 -0.008917, 0.296427 -0.126231 -0.012180, 0.296491 -0.155512 -0.000534,
 0.296514 -0.135145 -0.008680, 0.296678 -0.154968 -0.000880, 0.296766 -0.135877 -0.008561, 0.296979 -0.154511 -0.001269, 0.297111 -0.151904 -0.002399,
 0.297111 -0.138939 -0.007575, 0.297169 -0.136549 -0.008569, 0.297380 -0.154164 -0.001682, 0.297693 -0.137115 -0.008702, 0.297860 -0.153945 -0.002098,
 0.298303 -0.137538 -0.008952, 0.298395 -0.153866 -0.002497, 0.298958 -0.153929 -0.002857, 0.298958 -0.137787 -0.009301, 0.303851 -0.166042 -0.001375,
 0.303851 -0.127983 -0.016568, 0.304028 -0.153537 -0.006488, 0.304028 -0.150955 -0.007519, 0.304028 -0.143339 -0.010559, 0.304028 -0.141347 -0.011355,
 0.304028 -0.140572 -0.011664, 0.304414 -0.166105 -0.001736, 0.304506 -0.128232 -0.016918, 0.304949 -0.166025 -0.002134, 0.305116 -0.128655 -0.017167,
 0.305429 -0.165807 -0.002550, 0.305641 -0.129221 -0.017300, 0.305830 -0.165460 -0.002963, 0.306043 -0.129893 -0.017308, 0.306131 -0.165003 -0.003353,
 0.306137 -0.168170 -0.002092, 0.306137 -0.126934 -0.018554, 0.306296 -0.130625 -0.017189, 0.306318 -0.164458 -0.003698, 0.306382 -0.163853 -0.003983,
 0.306382 -0.155680 -0.007246, 0.306382 -0.139539 -0.013690, 0.306382 -0.131366 -0.016952, 0.306513 -0.127069 -0.018757, 0.306574 -0.168210 -0.002376,
 0.306869 -0.127291 -0.018913, 0.306981 -0.168120 -0.002691, 0.307189 -0.127588 -0.019014, 0.307330 -0.167907 -0.003015, 0.307456 -0.127945 -0.019054,
 0.307598 -0.167586 -0.003327, 0.307657 -0.128344 -0.019033, 0.307767 -0.167178 -0.003605, 0.307782 -0.128766 -0.018950, 0.307824 -0.166711 -0.003831,
 0.307824 -0.151851 -0.009763, 0.307824 -0.144235 -0.012803, 0.307824 -0.142243 -0.013599, 0.307824 -0.129190 -0.018810, 0.370245 -0.099697 0.164038,
 0.370245 -0.084652 0.158032, 0.370245 -0.077036 0.154992, 0.370245 -0.075230 0.154271, 0.370245 -0.062176 0.149060, 0.370302 -0.100192 0.164196,
 0.370302 -0.061709 0.148834, 0.370471 -0.100679 0.164276, 0.370471 -0.061301 0.148556, 0.370739 -0.101127 0.164271, 0.370739 -0.060980 0.148244,
 0.371088 -0.101505 0.164182, 0.371088 -0.060767 0.147919, 0.371495 -0.101787 0.164015, 0.371495 -0.060677 0.147605, 0.371687 -0.097521 0.162181,
 0.371687 -0.089348 0.158918, 0.371687 -0.073207 0.152475, 0.371687 -0.065034 0.149212, 0.371751 -0.064429 0.148927, 0.371774 -0.098262 0.162418,
 0.371932 -0.101953 0.163783, 0.371932 -0.060717 0.147321, 0.371938 -0.063884 0.148581, 0.372026 -0.098994 0.162537, 0.372239 -0.063427 0.148192,
 0.372429 -0.099666 0.162529, 0.372640 -0.063080 0.147779, 0.372953 -0.100232 0.162396, 0.373120 -0.062862 0.147363, 0.373563 -0.100655 0.162146,
 0.373655 -0.062782 0.146965, 0.374041 -0.088315 0.156893, 0.374041 -0.085548 0.155788, 0.374041 -0.077932 0.152748, 0.374041 -0.076126 0.152027,
 0.374041 -0.075350 0.151717, 0.374218 -0.100904 0.161797, 0.374218 -0.062845 0.146604, 0.379111 -0.091100 0.154530, 0.379111 -0.074959 0.148086,
 0.379674 -0.075022 0.147725, 0.379766 -0.091349 0.154180, 0.380209 -0.074942 0.147327, 0.380376 -0.091772 0.153931, 0.380689 -0.074723 0.146911,
 0.380901 -0.092338 0.153798, 0.380958 -0.089948 0.152804, 0.380958 -0.076983 0.147628, 0.381090 -0.074376 0.146498, 0.381303 -0.093010 0.153790,
 0.381391 -0.073919 0.146109, 0.381556 -0.093742 0.153909, 0.381578 -0.073375 0.145763, 0.381642 -0.102656 0.157409, 0.381642 -0.094483 0.154146,
 0.381642 -0.072770 0.145478, 0.381642 -0.064597 0.142215, 0.381663 -0.077924 0.147521, 0.383067 -0.088124 0.150630, 0.383067 -0.079802 0.147308,
 0.383084 -0.100405 0.155521, 0.383084 -0.092790 0.152481, 0.383084 -0.075144 0.145437, 0.383084 -0.067528 0.142397, 0.385193 -0.090966 0.150308,
 0.385193 -0.077963 0.145117, 0.385430 -0.105138 0.155803, 0.385430 -0.100959 0.154135, 0.385598 -0.068122 0.140911, 0.385598 -0.063942 0.139242,
 0.385936 -0.084640 0.147273, 0.386039 -0.085530 0.147558, 0.386039 -0.083799 0.146867, 0.386343 -0.086408 0.147700, 0.386343 -0.083064 0.146366,
 0.386825 -0.087214 0.147691, 0.386825 -0.082486 0.145804, 0.387454 -0.087894 0.147532, 0.387454 -0.082103 0.145220, 0.388187 -0.088401 0.147232,
 0.388187 -0.081941 0.144654, 0.388973 -0.088700 0.146813, 0.388973 -0.082013 0.144143, 0.389759 -0.088771 0.146303, 0.389759 -0.082312 0.143724,
 0.390491 -0.088610 0.145736, 0.390491 -0.082819 0.143425, 0.391120 -0.088227 0.145152, 0.391120 -0.083499 0.143265, 0.391603 -0.087649 0.144591,
 0.391603 -0.084305 0.143256, 0.391906 -0.086914 0.144089, 0.391906 -0.085183 0.143399, 0.392010 -0.086073 0.143683, 0.392347 -0.106771 0.151714,
 0.392347 -0.102591 0.150046, 0.392516 -0.069754 0.136821, 0.392516 -0.065575 0.135153, 0.392752 -0.092749 0.145839, 0.392752 -0.079747 0.140649,
 0.394157 -0.107198 0.150644, 0.394157 -0.103018 0.148976, 0.394157 -0.094627 0.145626, 0.394157 -0.080873 0.140135, 0.394157 -0.078532 0.139201,
 0.394157 -0.070141 0.135851, 0.394157 -0.065962 0.134183, 0.394861 -0.103185 0.148559, 0.394861 -0.095569 0.145519, 0.394861 -0.077923 0.138475,
 0.394861 -0.070307 0.135435, 0.394878 -0.090911 0.143648, 0.394878 -0.082589 0.140326, 0.396282 -0.081374 0.138879, 0.396304 -0.106116 0.148741,
 0.396304 -0.097943 0.145479, 0.396304 -0.076230 0.136810, 0.396304 -0.068057 0.133548, 0.396367 -0.097338 0.145194, 0.396390 -0.076971 0.137047,
 0.396554 -0.096794 0.144848, 0.396643 -0.077703 0.137166, 0.396856 -0.096337 0.144459, 0.396987 -0.093730 0.143328, 0.396987 -0.080765 0.138153,
 0.397045 -0.078375 0.137159, 0.397256 -0.095990 0.144046, 0.397569 -0.078941 0.137026, 0.397736 -0.095771 0.143629, 0.398179 -0.079364 0.136776,
 0.398271 -0.095691 0.143231, 0.398834 -0.095754 0.142870, 0.398834 -0.079613 0.136427, 0.403727 -0.107868 0.144353, 0.403727 -0.069809 0.129159,
 0.403904 -0.095363 0.139239, 0.403904 -0.092781 0.138208, 0.403904 -0.085165 0.135168, 0.403904 -0.083173 0.134373, 0.403904 -0.082398 0.134063,
 0.404290 -0.107931 0.143992, 0.404382 -0.070058 0.128810, 0.404825 -0.107851 0.143593, 0.404993 -0.070481 0.128560, 0.405305 -0.107633 0.143177,
 0.405517 -0.071047 0.128427, 0.405706 -0.107286 0.142764, 0.405919 -0.071719 0.128420, 0.406007 -0.106829 0.142375, 0.406013 -0.109996 0.143635,
 0.406013 -0.068760 0.127174, 0.406172 -0.072451 0.128539, 0.406195 -0.106284 0.142029, 0.406258 -0.105679 0.141744, 0.406258 -0.097506 0.138482,
 0.406258 -0.081365 0.132038, 0.406258 -0.073192 0.128775, 0.406389 -0.068895 0.126970, 0.406450 -0.110036 0.143352, 0.406745 -0.069117 0.126814,
 0.406857 -0.109946 0.143037, 0.407065 -0.069414 0.126714, 0.407206 -0.109733 0.142713, 0.407333 -0.069771 0.126673, 0.407475 -0.109412 0.142401,
 0.407534 -0.070170 0.126695, 0.407643 -0.109004 0.142122, 0.407658 -0.070592 0.126778, 0.407701 -0.108536 0.141896, 0.407701 -0.093677 0.135964,
 0.407701 -0.086061 0.132924, 0.407701 -0.084069 0.132129, 0.407701 -0.071016 0.126918
]
}
normal Normal {
vector [
 -0.843602 0.199081 0.498701, -0.822451 0.400752 0.403698, -0.814857 -0.048077 0.577665, -0.814857 0.432671 0.385752, -0.760059 0.582328 0.288453,
 -0.730581 -0.291958 0.617262, -0.730581 0.636775 0.246514, -0.659554 0.734703 0.158742, -0.596517 -0.515942 0.614794, -0.596517 0.797485 0.090476,
 -0.536969 -0.312764 -0.783481, -0.525977 0.850238 0.021072, -0.421801 -0.704766 0.570428, -0.421801 0.903847 -0.071727, -0.366025 0.923138 -0.117655,
 -0.218340 -0.845562 0.487189, -0.218340 0.948613 -0.229042, -0.187719 0.949748 -0.250482, -0.000000 -0.928733 0.370749, 0.000000 0.928733 -0.370749,
 0.187719 -0.949748 0.250482, 0.187719 0.861148 -0.472425, 0.218340 -0.948613 0.229042, 0.218340 0.845562 -0.487189, 0.366025 -0.923138 0.117655,
 0.366025 0.750382 -0.550411, 0.421801 -0.903847 0.071727, 0.421801 0.704766 -0.570428, 0.525977 -0.850238 -0.021072, 0.525977 0.601988 -0.600798,
 0.536969 0.312764 0.783481, 0.596517 -0.797485 -0.090476, 0.596517 0.515942 -0.614794, 0.659554 -0.734703 -0.158742, 0.659554 0.423408 -0.621058,
 0.730581 -0.636775 -0.246514, 0.730581 0.291958 -0.617262, 0.760059 -0.582328 -0.288453, 0.760059 0.223597 -0.610176, 0.814857 -0.432671 -0.385752,
 0.814857 0.048077 -0.577665, 0.822451 -0.400752 -0.403698, 0.822451 0.012573 -0.568697, 0.843602 -0.199081 -0.498701
]
}
coordIndex [
 181, 183, 200, -1, 228, 235, 229, -1, 229, 235, 236, -1,
 229, 236, 226, -1, 254, 252, 233, -1, 190, 175, 189, -1,
 189, 175, 174, -1, 189, 174, 194, -1, 194, 174, 198, -1,
 242, 235, 241, -1, 241, 235, 228, -1, 241, 228, 195, -1,
 195, 228, 211, -1, 211, 204, 195, -1, 195, 204, 202, -1,
 195, 202, 187, -1, 187, 202, 200, -1, 187, 200, 185, -1,
 185, 200, 183, -1, 198, 174, 200, -1, 200, 174, 179, -1,
 200, 179, 181, -1, 245, 247, 234, -1, 252, 250, 233, -1,
 233, 250, 248, -1, 233, 248, 234, -1, 234, 248, 246, -1,
 234, 246, 245, -1, 257, 259, 278, -1, 278, 259, 261, -1,
 278, 261, 263, -1, 263, 265, 278, -1, 278, 265, 267, -1,
 278, 267, 268, -1, 266, 264, 273, -1, 273, 264, 262, -1,
 224, 226, 221, -1, 221, 226, 236, -1, 221, 236, 233, -1,
 216, 218, 221, -1, 221, 218, 220, -1, 221, 220, 224, -1,
 236, 239, 233, -1, 233, 239, 273, -1, 233, 273, 254, -1,
 254, 273, 256, -1, 207, 175, 206, -1, 206, 175, 190, -1,
 206, 190, 221, -1, 221, 190, 213, -1, 221, 213, 216, -1,
 247, 249, 234, -1, 234, 249, 251, -1, 234, 251, 232, -1,
 251, 253, 232, -1, 232, 253, 255, -1, 232, 255, 257, -1,
 262, 260, 273, -1, 273, 260, 258, -1, 273, 258, 256, -1,
 238, 243, 244, -1, 177, 191, 178, -1, 178, 191, 192, -1,
 279, 274, 278, -1, 278, 274, 240, -1, 192, 193, 178, -1,
 178, 193, 197, -1, 178, 197, 180, -1, 180, 197, 199, -1,
 180, 199, 182, -1, 196, 212, 244, -1, 244, 212, 231, -1,
 244, 231, 238, -1, 257, 278, 232, -1, 232, 278, 240, -1,
 232, 240, 222, -1, 222, 240, 237, -1, 222, 237, 238, -1,
 182, 199, 184, -1, 184, 199, 201, -1, 184, 201, 186, -1,
 186, 201, 188, -1, 188, 201, 203, -1, 188, 203, 196, -1,
 196, 203, 205, -1, 196, 205, 212, -1, 231, 230, 238, -1,
 238, 230, 227, -1, 238, 227, 222, -1, 222, 227, 225, -1,
 225, 223, 222, -1, 222, 223, 219, -1, 222, 219, 217, -1,
 217, 215, 222, -1, 222, 215, 214, -1, 222, 214, 210, -1,
 210, 214, 191, -1, 210, 191, 209, -1, 209, 191, 177, -1,
 209, 177, 208, -1, 208, 177, 176, -1, 330, 346, 331, -1,
 331, 346, 347, -1, 331, 347, 326, -1, 326, 347, 322, -1,
 280, 285, 292, -1, 340, 338, 320, -1, 320, 338, 336, -1,
 322, 347, 320, -1, 320, 347, 342, -1, 320, 342, 340, -1,
 304, 302, 299, -1, 299, 302, 300, -1, 309, 316, 325, -1,
 325, 316, 318, -1, 325, 318, 332, -1, 332, 318, 320, -1,
 332, 320, 334, -1, 334, 320, 336, -1, 300, 296, 299, -1,
 299, 296, 294, -1, 299, 294, 285, -1, 285, 294, 291, -1,
 285, 291, 292, -1, 309, 325, 292, -1, 292, 325, 281, -1,
 292, 281, 280, -1, 280, 281, 272, -1, 280, 272, 271, -1,
 312, 345, 313, -1, 313, 345, 346, -1, 313, 346, 314, -1,
 314, 346, 330, -1, 314, 330, 299, -1, 299, 330, 307, -1,
 299, 307, 304, -1, 285, 284, 299, -1, 299, 284, 279, -1,
 299, 279, 288, -1, 288, 279, 278, -1, 288, 278, 287, -1,
 287, 278, 286, -1, 344, 329, 343, -1, 343, 329, 328, -1,
 293, 295, 298, -1, 298, 286, 277, -1, 277, 286, 278, -1,
 277, 278, 273, -1, 273, 278, 268, -1, 273, 268, 266, -1,
 295, 297, 298, -1, 298, 297, 301, -1, 298, 301, 303, -1,
 328, 327, 343, -1, 343, 327, 323, -1, 343, 323, 341, -1,
 341, 323, 321, -1, 289, 275, 308, -1, 308, 275, 324, -1,
 308, 324, 315, -1, 315, 324, 317, -1, 317, 324, 333, -1,
 317, 333, 319, -1, 277, 283, 298, -1, 298, 283, 282, -1,
 298, 282, 293, -1, 293, 282, 290, -1, 344, 311, 329, -1,
 329, 311, 310, -1, 329, 310, 306, -1, 306, 310, 298, -1,
 306, 298, 305, -1, 305, 298, 303, -1, 333, 335, 319, -1,
 319, 335, 337, -1, 319, 337, 321, -1, 321, 337, 339, -1,
 321, 339, 341, -1, 290, 282, 289, -1, 289, 282, 276, -1,
 289, 276, 275, -1, 275, 276, 270, -1, 275, 270, 269, -1,
 34, 2, 3, -1, 171, 138, 139, -1, 39, 16, 32, -1,
 32, 16, 33, -1, 60, 58, 104, -1, 15, 0, 16, -1,
 16, 0, 1, -1, 16, 1, 33, -1, 11, 9, 26, -1,
 61, 68, 54, -1, 54, 68, 67, -1, 54, 67, 37, -1,
 37, 67, 21, -1, 62, 52, 50, -1, 50, 46, 62, -1,
 62, 46, 44, -1, 62, 44, 42, -1, 61, 54, 62, -1,
 62, 54, 55, -1, 62, 55, 52, -1, 11, 26, 13, -1,
 13, 26, 28, -1, 13, 28, 21, -1, 21, 28, 30, -1,
 21, 30, 37, -1, 94, 93, 104, -1, 15, 20, 0, -1,
 0, 20, 24, -1, 0, 24, 5, -1, 5, 24, 26, -1,
 5, 26, 7, -1, 7, 26, 9, -1, 59, 65, 47, -1,
 47, 65, 62, -1, 47, 62, 32, -1, 32, 62, 42, -1,
 32, 42, 39, -1, 74, 76, 65, -1, 99, 90, 92, -1,
 93, 91, 104, -1, 104, 91, 89, -1, 104, 89, 87, -1,
 74, 65, 72, -1, 72, 65, 59, -1, 72, 59, 71, -1,
 71, 59, 60, -1, 71, 60, 73, -1, 84, 86, 99, -1,
 99, 86, 88, -1, 99, 88, 90, -1, 79, 77, 60, -1,
 60, 77, 75, -1, 60, 75, 73, -1, 76, 78, 65, -1,
 65, 78, 80, -1, 65, 80, 99, -1, 99, 80, 82, -1,
 99, 82, 84, -1, 87, 85, 104, -1, 104, 85, 83, -1,
 104, 83, 60, -1, 60, 83, 81, -1, 60, 81, 79, -1,
 127, 123, 109, -1, 109, 123, 121, -1, 136, 137, 155, -1,
 155, 137, 170, -1, 155, 170, 154, -1, 154, 170, 169, -1,
 154, 169, 153, -1, 153, 169, 149, -1, 149, 169, 167, -1,
 149, 167, 147, -1, 155, 132, 136, -1, 136, 132, 131, -1,
 136, 131, 109, -1, 109, 131, 129, -1, 109, 129, 127, -1,
 114, 113, 104, -1, 104, 113, 112, -1, 92, 94, 99, -1,
 99, 94, 104, -1, 99, 104, 103, -1, 103, 104, 112, -1,
 103, 112, 109, -1, 109, 112, 124, -1, 109, 124, 136, -1,
 101, 115, 150, -1, 150, 115, 134, -1, 167, 165, 147, -1,
 147, 165, 163, -1, 147, 163, 145, -1, 134, 141, 150, -1,
 150, 141, 143, -1, 150, 143, 159, -1, 159, 143, 145, -1,
 159, 145, 161, -1, 161, 145, 163, -1, 95, 96, 101, -1,
 101, 96, 102, -1, 101, 102, 115, -1, 115, 102, 108, -1,
 115, 108, 116, -1, 116, 108, 109, -1, 116, 109, 119, -1,
 119, 109, 121, -1, 172, 156, 173, -1, 173, 156, 157, -1,
 118, 107, 135, -1, 135, 107, 151, -1, 120, 122, 125, -1,
 125, 122, 126, -1, 125, 126, 128, -1, 160, 162, 146, -1,
 146, 162, 164, -1, 160, 146, 158, -1, 158, 146, 144, -1,
 158, 144, 151, -1, 151, 144, 142, -1, 151, 142, 135, -1,
 157, 152, 173, -1, 173, 152, 148, -1, 173, 148, 168, -1,
 168, 148, 146, -1, 168, 146, 166, -1, 166, 146, 164, -1,
 128, 130, 125, -1, 125, 130, 133, -1, 125, 133, 140, -1,
 140, 133, 156, -1, 140, 156, 139, -1, 139, 156, 172, -1,
 139, 172, 171, -1, 97, 98, 106, -1, 106, 98, 107, -1,
 106, 107, 111, -1, 111, 107, 118, -1, 111, 118, 110, -1,
 110, 118, 117, -1, 110, 117, 120, -1, 120, 125, 110, -1,
 110, 125, 114, -1, 110, 114, 105, -1, 105, 114, 104, -1,
 105, 104, 100, -1, 70, 69, 64, -1, 100, 104, 66, -1,
 66, 104, 58, -1, 66, 58, 63, -1, 63, 58, 48, -1,
 63, 48, 36, -1, 57, 38, 22, -1, 17, 3, 18, -1,
 18, 3, 4, -1, 63, 45, 49, -1, 22, 70, 57, -1,
 57, 70, 64, -1, 57, 64, 56, -1, 56, 64, 63, -1,
 38, 31, 22, -1, 22, 31, 29, -1, 22, 29, 14, -1,
 14, 29, 27, -1, 14, 27, 12, -1, 12, 27, 10, -1,
 10, 27, 25, -1, 10, 25, 8, -1, 8, 25, 6, -1,
 6, 25, 23, -1, 6, 23, 4, -1, 4, 23, 19, -1,
 4, 19, 18, -1, 49, 51, 63, -1, 63, 51, 53, -1,
 63, 53, 56, -1, 17, 40, 36, -1, 36, 40, 41, -1,
 36, 41, 63, -1, 63, 41, 43, -1, 63, 43, 45, -1,
 17, 36, 3, -1, 3, 36, 35, -1, 3, 35, 34, -1,
 100, 66, 274, -1, 274, 66, 240, -1, 63, 64, 237, -1,
 237, 64, 238, -1, 243, 238, 69, -1, 69, 238, 64, -1,
 244, 243, 70, -1, 70, 243, 69, -1, 196, 244, 22, -1,
 22, 244, 70, -1, 178, 4, 177, -1, 177, 4, 3, -1,
 177, 3, 176, -1, 176, 3, 2, -1, 208, 176, 34, -1,
 34, 176, 2, -1, 36, 210, 35, -1, 35, 210, 209, -1,
 35, 209, 34, -1, 34, 209, 208, -1, 222, 210, 48, -1,
 48, 210, 36, -1, 233, 234, 59, -1, 59, 234, 60, -1,
 40, 17, 214, -1, 214, 17, 191, -1, 230, 231, 56, -1,
 56, 231, 57, -1, 38, 57, 212, -1, 212, 57, 231, -1,
 192, 191, 18, -1, 18, 191, 17, -1, 66, 63, 240, -1,
 240, 63, 237, -1, 60, 234, 58, -1, 58, 234, 232, -1,
 58, 232, 48, -1, 48, 232, 222, -1, 38, 212, 31, -1,
 31, 212, 205, -1, 31, 205, 29, -1, 29, 205, 203, -1,
 29, 203, 27, -1, 27, 203, 201, -1, 27, 201, 25, -1,
 25, 201, 199, -1, 25, 199, 23, -1, 23, 199, 197, -1,
 23, 197, 19, -1, 19, 197, 193, -1, 19, 193, 18, -1,
 18, 193, 192, -1, 40, 214, 41, -1, 41, 214, 215, -1,
 41, 215, 43, -1, 43, 215, 217, -1, 43, 217, 45, -1,
 45, 217, 219, -1, 45, 219, 49, -1, 49, 219, 223, -1,
 49, 223, 51, -1, 51, 223, 225, -1, 51, 225, 53, -1,
 53, 225, 227, -1, 53, 227, 56, -1, 56, 227, 230, -1,
 196, 22, 14, -1, 196, 14, 188, -1, 188, 14, 12, -1,
 188, 12, 186, -1, 186, 12, 10, -1, 186, 10, 184, -1,
 184, 10, 8, -1, 184, 8, 182, -1, 182, 8, 6, -1,
 182, 6, 180, -1, 180, 6, 4, -1, 180, 4, 178, -1,
 112, 113, 286, -1, 286, 113, 287, -1, 125, 140, 299, -1,
 299, 140, 314, -1, 138, 312, 139, -1, 139, 312, 313, -1,
 139, 313, 140, -1, 140, 313, 314, -1, 345, 312, 171, -1,
 171, 312, 138, -1, 345, 171, 346, -1, 346, 171, 172, -1,
 346, 172, 347, -1, 347, 172, 173, -1, 98, 272, 107, -1,
 107, 272, 281, -1, 107, 281, 151, -1, 151, 281, 325, -1,
 271, 272, 97, -1, 97, 272, 98, -1, 111, 285, 106, -1,
 106, 285, 280, -1, 106, 280, 97, -1, 97, 280, 271, -1,
 284, 285, 110, -1, 110, 285, 111, -1, 117, 118, 291, -1,
 291, 118, 292, -1, 307, 330, 133, -1, 133, 330, 156, -1,
 157, 156, 331, -1, 331, 156, 330, -1, 309, 292, 135, -1,
 135, 292, 118, -1, 65, 99, 239, -1, 239, 99, 273, -1,
 109, 108, 283, -1, 283, 108, 282, -1, 282, 108, 276, -1,
 276, 108, 102, -1, 276, 102, 270, -1, 270, 102, 96, -1,
 269, 270, 95, -1, 95, 270, 96, -1, 150, 324, 101, -1,
 101, 324, 275, -1, 101, 275, 95, -1, 95, 275, 269, -1,
 169, 170, 343, -1, 343, 170, 344, -1, 311, 344, 137, -1,
 137, 344, 170, -1, 310, 311, 136, -1, 136, 311, 137, -1,
 298, 310, 124, -1, 124, 310, 136, -1, 132, 155, 306, -1,
 306, 155, 329, -1, 290, 289, 116, -1, 116, 289, 115, -1,
 134, 115, 308, -1, 308, 115, 289, -1, 328, 329, 154, -1,
 154, 329, 155, -1, 47, 32, 221, -1, 221, 32, 206, -1,
 207, 206, 33, -1, 33, 206, 32, -1, 175, 207, 1, -1,
 1, 207, 33, -1, 174, 175, 0, -1, 0, 175, 1, -1,
 21, 67, 195, -1, 195, 67, 241, -1, 242, 241, 68, -1,
 68, 241, 67, -1, 235, 242, 61, -1, 61, 242, 68, -1,
 236, 235, 62, -1, 62, 235, 61, -1, 55, 54, 229, -1,
 229, 54, 228, -1, 213, 190, 39, -1, 39, 190, 16, -1,
 15, 16, 189, -1, 189, 16, 190, -1, 211, 228, 37, -1,
 37, 228, 54, -1, 125, 299, 114, -1, 114, 299, 288, -1,
 114, 288, 113, -1, 113, 288, 287, -1, 100, 274, 105, -1,
 105, 274, 279, -1, 105, 279, 110, -1, 110, 279, 284, -1,
 109, 283, 103, -1, 103, 283, 277, -1, 103, 277, 99, -1,
 99, 277, 273, -1, 124, 112, 298, -1, 298, 112, 286, -1,
 59, 47, 233, -1, 233, 47, 221, -1, 62, 65, 236, -1,
 236, 65, 239, -1, 157, 331, 152, -1, 152, 331, 326, -1,
 152, 326, 148, -1, 148, 326, 322, -1, 148, 322, 146, -1,
 146, 322, 320, -1, 146, 320, 144, -1, 144, 320, 318, -1,
 144, 318, 142, -1, 142, 318, 316, -1, 142, 316, 135, -1,
 135, 316, 309, -1, 117, 291, 120, -1, 120, 291, 294, -1,
 120, 294, 122, -1, 122, 294, 296, -1, 122, 296, 126, -1,
 126, 296, 300, -1, 126, 300, 128, -1, 128, 300, 302, -1,
 128, 302, 130, -1, 130, 302, 304, -1, 130, 304, 133, -1,
 133, 304, 307, -1, 134, 308, 141, -1, 141, 308, 315, -1,
 141, 315, 143, -1, 143, 315, 317, -1, 143, 317, 145, -1,
 145, 317, 319, -1, 145, 319, 147, -1, 147, 319, 321, -1,
 147, 321, 149, -1, 149, 321, 323, -1, 149, 323, 153, -1,
 153, 323, 327, -1, 153, 327, 154, -1, 154, 327, 328, -1,
 132, 306, 131, -1, 131, 306, 305, -1, 131, 305, 129, -1,
 129, 305, 303, -1, 129, 303, 127, -1, 127, 303, 301, -1,
 127, 301, 123, -1, 123, 301, 297, -1, 123, 297, 121, -1,
 121, 297, 295, -1, 121, 295, 119, -1, 119, 295, 293, -1,
 119, 293, 116, -1, 116, 293, 290, -1, 15, 189, 20, -1,
 20, 189, 194, -1, 20, 194, 24, -1, 24, 194, 198, -1,
 24, 198, 26, -1, 26, 198, 200, -1, 26, 200, 28, -1,
 28, 200, 202, -1, 28, 202, 30, -1, 30, 202, 204, -1,
 30, 204, 37, -1, 37, 204, 211, -1, 55, 229, 52, -1,
 52, 229, 226, -1, 52, 226, 50, -1, 50, 226, 224, -1,
 50, 224, 46, -1, 46, 224, 220, -1, 46, 220, 44, -1,
 44, 220, 218, -1, 44, 218, 42, -1, 42, 218, 216, -1,
 42, 216, 39, -1, 39, 216, 213, -1, 347, 173, 168, -1,
 347, 168, 342, -1, 342, 168, 166, -1, 342, 166, 340, -1,
 340, 166, 164, -1, 340, 164, 338, -1, 338, 164, 162, -1,
 338, 162, 336, -1, 336, 162, 160, -1, 336, 160, 334, -1,
 334, 160, 158, -1, 334, 158, 332, -1, 332, 158, 151, -1,
 332, 151, 325, -1, 324, 150, 159, -1, 324, 159, 333, -1,
 333, 159, 161, -1, 333, 161, 335, -1, 335, 161, 163, -1,
 335, 163, 337, -1, 337, 163, 165, -1, 337, 165, 339, -1,
 339, 165, 167, -1, 339, 167, 341, -1, 341, 167, 169, -1,
 341, 169, 343, -1, 174, 0, 5, -1, 174, 5, 179, -1,
 179, 5, 7, -1, 179, 7, 181, -1, 181, 7, 9, -1,
 181, 9, 183, -1, 183, 9, 11, -1, 183, 11, 185, -1,
 185, 11, 13, -1, 185, 13, 187, -1, 187, 13, 21, -1,
 187, 21, 195, -1, 83, 257, 81, -1, 81, 257, 255, -1,
 81, 255, 79, -1, 79, 255, 253, -1, 79, 253, 77, -1,
 77, 253, 251, -1, 77, 251, 75, -1, 75, 251, 249, -1,
 75, 249, 73, -1, 73, 249, 247, -1, 73, 247, 71, -1,
 71, 247, 245, -1, 71, 245, 72, -1, 72, 245, 246, -1,
 72, 246, 74, -1, 74, 246, 248, -1, 74, 248, 76, -1,
 76, 248, 250, -1, 76, 250, 78, -1, 78, 250, 252, -1,
 78, 252, 80, -1, 80, 252, 254, -1, 80, 254, 82, -1,
 82, 254, 256, -1, 82, 256, 84, -1, 84, 256, 258, -1,
 84, 258, 86, -1, 86, 258, 260, -1, 86, 260, 88, -1,
 88, 260, 262, -1, 88, 262, 90, -1, 90, 262, 264, -1,
 90, 264, 92, -1, 92, 264, 266, -1, 92, 266, 94, -1,
 94, 266, 268, -1, 94, 268, 93, -1, 93, 268, 267, -1,
 93, 267, 91, -1, 91, 267, 265, -1, 91, 265, 89, -1,
 89, 265, 263, -1, 89, 263, 87, -1, 87, 263, 261, -1,
 87, 261, 85, -1, 85, 261, 259, -1, 85, 259, 83, -1,
 83, 259, 257, -1
]
colorIndex [
 0, 0, 0, 0, 0, 0, 0, 0, 0, 0, 0, 0, 0, 0, 0, 0, 0, 0, 0, 0, 0, 0, 0, 0, 0, 0, 0, 0, 0, 0, 0, 0, 0, 0, 0, 0, 0, 0, 0, 0, 0, 0, 0, 0, 0, 0, 0, 0, 0, 0, 0, 0, 0, 0, 0, 0, 0, 0, 0, 0, 0, 0, 0, 0, 0, 0, 0, 0, 0, 0, 0, 0, 0, 0, 0, 0, 0, 0, 0, 0, 0, 0, 0, 0, 0, 0, 0, 0, 0, 0, 0, 0, 0, 0, 0, 0, 0, 0, 0, 0, 0, 0, 0, 0, 0, 0, 0, 0, 0, 0, 0, 0, 0, 0, 0, 0, 0, 0, 0, 0, 0, 0, 0, 0, 0, 0, 0, 0, 0, 0, 0, 0, 0, 0, 0, 0, 0, 0, 0, 0, 0, 0, 0, 0, 0, 0, 0, 0, 0, 0, 0, 0, 0, 0, 0, 0, 0, 0, 0, 0, 0, 0, 0, 0, 0, 0, 0, 0, 0, 0, 0, 0, 0, 0, 0, 0, 0, 0, 0, 0, 0, 0, 0, 0, 0, 0, 0, 0, 0, 0, 0, 0, 0, 0, 0, 0, 0, 0, 0, 0, 0, 0, 0, 0, 0, 0, 0, 0, 0, 0, 0, 0, 0, 0, 0, 0, 0, 0, 0, 0, 0, 0, 0, 0, 0, 0, 0, 0, 0, 0, 0, 0, 0, 0, 0, 0, 0, 0, 0, 0, 0, 0, 0, 0, 0, 0, 0, 0, 0, 0, 0, 0, 0, 0, 0, 0, 0, 0, 0, 0, 0, 0, 0, 0, 0, 0, 0, 0, 0, 0, 0, 0, 0, 0, 0, 0, 0, 0, 0, 0, 0, 0, 0, 0, 0, 0, 0, 0, 0, 0, 0, 0, 0, 0, 0, 0, 0, 0, 0, 0, 0, 0, 0, 0, 0, 0, 0, 0, 0, 0, 0, 0, 0, 0, 0, 0, 0, 0, 0, 0, 0, 0, 0, 0, 0, 0, 0, 0, 0, 0, 0, 0, 0, 0, 0, 0, 0, 0, 0, 0, 0, 0, 0, 0, 0, 0, 0, 0, 0, 0, 0, 0, 0, 0, 0, 0, 0, 0, 0, 0, 0, 0, 0, 0, 0, 0, 0, 0,
 0, 0, 0, 0, 0, 0,
 0, 0, 0, 0, 0, 0, 0, 0,
 0, 0, 0, 0, 0, 0, 0, 0,
 0, 0, 0, 0, 0, 0,
 0, 0, 0, 0, 0, 0, 0, 0,
 0, 0, 0, 0, 0, 0, 0, 0, 0, 0, 0, 0, 0, 0, 0, 0, 0, 0, 0, 0, 0, 0, 0, 0, 0, 0, 0, 0, 0, 0, 0, 0, 0, 0, 0, 0, 0, 0, 0, 0,
 0, 0, 0, 0, 0, 0, 0, 0,
 0, 0, 0, 0, 0, 0, 0, 0, 0, 0,
 0, 0, 0, 0, 0, 0, 0, 0,
 0, 0, 0, 0, 0, 0,
 0, 0, 0, 0, 0, 0,
 0, 0, 0, 0, 0, 0, 0, 0, 0, 0,
 0, 0, 0, 0, 0, 0,
 0, 0, 0, 0, 0, 0,
 0, 0, 0, 0, 0, 0,
 0, 0, 0, 0, 0, 0,
 0, 0, 0, 0, 0, 0,
 0, 0, 0, 0, 0, 0,
 0, 0, 0, 0, 0, 0, 0, 0,
 0, 0, 0, 0, 0, 0, 0, 0, 0, 0,
 0, 0, 0, 0, 0, 0, 0, 0, 0, 0, 0, 0, 0, 0, 0, 0,
 0, 0, 0, 0, 0, 0, 0, 0, 0, 0, 0, 0, 0, 0, 0, 0, 0, 0, 0, 0, 0, 0, 0, 0, 0, 0, 0, 0, 0, 0, 0, 0, 0, 0, 0, 0, 0, 0, 0, 0,
 0, 0, 0, 0, 0, 0, 0, 0, 0, 0, 0, 0, 0, 0, 0, 0, 0, 0, 0, 0, 0, 0, 0, 0, 0, 0, 0, 0, 0, 0, 0, 0, 0, 0, 0, 0, 0, 0,
 0, 0, 0, 0, 0, 0, 0, 0, 0, 0, 0, 0, 0, 0, 0, 0, 0, 0, 0, 0, 0, 0, 0, 0, 0, 0, 0, 0, 0, 0, 0, 0, 0, 0, 0, 0, 0, 0, 0, 0, 0, 0, 0, 0, 0, 0, 0, 0, 0, 0, 0, 0, 0, 0, 0, 0, 0, 0, 0, 0, 0, 0, 0, 0, 0, 0, 0, 0, 0, 0, 0, 0,
]
normalIndex [
 30, 30, 30, -1, 30, 30, 30, -1, 30, 30, 30, -1,
 30, 30, 30, -1, 30, 30, 30, -1, 30, 30, 30, -1,
 30, 30, 30, -1, 30, 30, 30, -1, 30, 30, 30, -1,
 30, 30, 30, -1, 30, 30, 30, -1, 30, 30, 30, -1,
 30, 30, 30, -1, 30, 30, 30, -1, 30, 30, 30, -1,
 30, 30, 30, -1, 30, 30, 30, -1, 30, 30, 30, -1,
 30, 30, 30, -1, 30, 30, 30, -1, 30, 30, 30, -1,
 30, 30, 30, -1, 30, 30, 30, -1, 30, 30, 30, -1,
 30, 30, 30, -1, 30, 30, 30, -1, 30, 30, 30, -1,
 30, 30, 30, -1, 30, 30, 30, -1, 30, 30, 30, -1,
 30, 30, 30, -1, 30, 30, 30, -1, 30, 30, 30, -1,
 30, 30, 30, -1, 30, 30, 30, -1, 30, 30, 30, -1,
 30, 30, 30, -1, 30, 30, 30, -1, 30, 30, 30, -1,
 30, 30, 30, -1, 30, 30, 30, -1, 30, 30, 30, -1,
 30, 30, 30, -1, 30, 30, 30, -1, 30, 30, 30, -1,
 30, 30, 30, -1, 30, 30, 30, -1, 30, 30, 30, -1,
 30, 30, 30, -1, 30, 30, 30, -1, 30, 30, 30, -1,
 30, 30, 30, -1, 30, 30, 30, -1, 30, 30, 30, -1,
 30, 30, 30, -1, 30, 30, 30, -1, 30, 30, 30, -1,
 30, 30, 30, -1, 30, 30, 30, -1, 30, 30, 30, -1,
 30, 30, 30, -1, 30, 30, 30, -1, 30, 30, 30, -1,
 30, 30, 30, -1, 30, 30, 30, -1, 30, 30, 30, -1,
 30, 30, 30, -1, 30, 30, 30, -1, 30, 30, 30, -1,
 30, 30, 30, -1, 30, 30, 30, -1, 30, 30, 30, -1,
 30, 30, 30, -1, 30, 30, 30, -1, 30, 30, 30, -1,
 30, 30, 30, -1, 30, 30, 30, -1, 30, 30, 30, -1,
 30, 30, 30, -1, 30, 30, 30, -1, 30, 30, 30, -1,
 30, 30, 30, -1, 30, 30, 30, -1, 30, 30, 30, -1,
 30, 30, 30, -1, 30, 30, 30, -1, 30, 30, 30, -1,
 30, 30, 30, -1, 30, 30, 30, -1, 30, 30, 30, -1,
 30, 30, 30, -1, 30, 30, 30, -1, 30, 30, 30, -1,
 30, 30, 30, -1, 30, 30, 30, -1, 30, 30, 30, -1,
 30, 30, 30, -1, 30, 30, 30, -1, 30, 30, 30, -1,
 30, 30, 30, -1, 30, 30, 30, -1, 30, 30, 30, -1,
 30, 30, 30, -1, 30, 30, 30, -1, 30, 30, 30, -1,
 30, 30, 30, -1, 30, 30, 30, -1, 30, 30, 30, -1,
 30, 30, 30, -1, 30, 30, 30, -1, 30, 30, 30, -1,
 30, 30, 30, -1, 30, 30, 30, -1, 30, 30, 30, -1,
 30, 30, 30, -1, 30, 30, 30, -1, 30, 30, 30, -1,
 30, 30, 30, -1, 30, 30, 30, -1, 30, 30, 30, -1,
 30, 30, 30, -1, 30, 30, 30, -1, 30, 30, 30, -1,
 30, 30, 30, -1, 30, 30, 30, -1, 30, 30, 30, -1,
 30, 30, 30, -1, 30, 30, 30, -1, 30, 30, 30, -1,
 30, 30, 30, -1, 30, 30, 30, -1, 30, 30, 30, -1,
 30, 30, 30, -1, 30, 30, 30, -1, 30, 30, 30, -1,
 30, 30, 30, -1, 30, 30, 30, -1, 30, 30, 30, -1,
 30, 30, 30, -1, 30, 30, 30, -1, 30, 30, 30, -1,
 30, 30, 30, -1, 30, 30, 30, -1, 30, 30, 30, -1,
 30, 30, 30, -1, 30, 30, 30, -1, 30, 30, 30, -1,
 30, 30, 30, -1, 30, 30, 30, -1, 30, 30, 30, -1,
 30, 30, 30, -1, 30, 30, 30, -1, 30, 30, 30, -1,
 30, 30, 30, -1, 30, 30, 30, -1, 30, 30, 30, -1,
 30, 30, 30, -1, 30, 30, 30, -1, 30, 30, 30, -1,
 30, 30, 30, -1, 30, 30, 30, -1, 30, 30, 30, -1,
 30, 30, 30, -1, 30, 30, 30, -1, 30, 30, 30, -1,
 30, 30, 30, -1, 30, 30, 30, -1, 30, 30, 30, -1,
 30, 30, 30, -1, 30, 30, 30, -1, 30, 30, 30, -1,
 30, 30, 30, -1, 30, 30, 30, -1, 30, 30, 30, -1,
 30, 30, 30, -1, 30, 30, 30, -1, 30, 30, 30, -1,
 30, 30, 30, -1, 30, 30, 30, -1, 30, 30, 30, -1,
 30, 30, 30, -1, 30, 30, 30, -1, 30, 30, 30, -1,
 10, 10, 10, -1, 10, 10, 10, -1, 10, 10, 10, -1,
 10, 10, 10, -1, 10, 10, 10, -1, 10, 10, 10, -1,
 10, 10, 10, -1, 10, 10, 10, -1, 10, 10, 10, -1,
 10, 10, 10, -1, 10, 10, 10, -1, 10, 10, 10, -1,
 10, 10, 10, -1, 10, 10, 10, -1, 10, 10, 10, -1,
 10, 10, 10, -1, 10, 10, 10, -1, 10, 10, 10, -1,
 10, 10, 10, -1, 10, 10, 10, -1, 10, 10, 10, -1,
 10, 10, 10, -1, 10, 10, 10, -1, 10, 10, 10, -1,
 10, 10, 10, -1, 10, 10, 10, -1, 10, 10, 10, -1,
 10, 10, 10, -1, 10, 10, 10, -1, 10, 10, 10, -1,
 10, 10, 10, -1, 10, 10, 10, -1, 10, 10, 10, -1,
 10, 10, 10, -1, 10, 10, 10, -1, 10, 10, 10, -1,
 10, 10, 10, -1, 10, 10, 10, -1, 10, 10, 10, -1,
 10, 10, 10, -1, 10, 10, 10, -1, 10, 10, 10, -1,
 10, 10, 10, -1, 10, 10, 10, -1, 10, 10, 10, -1,
 10, 10, 10, -1, 10, 10, 10, -1, 10, 10, 10, -1,
 10, 10, 10, -1, 10, 10, 10, -1, 10, 10, 10, -1,
 10, 10, 10, -1, 10, 10, 10, -1, 10, 10, 10, -1,
 10, 10, 10, -1, 10, 10, 10, -1, 10, 10, 10, -1,
 10, 10, 10, -1, 10, 10, 10, -1, 10, 10, 10, -1,
 10, 10, 10, -1, 10, 10, 10, -1, 10, 10, 10, -1,
 10, 10, 10, -1, 10, 10, 10, -1, 10, 10, 10, -1,
 10, 10, 10, -1, 10, 10, 10, -1, 10, 10, 10, -1,
 10, 10, 10, -1, 10, 10, 10, -1, 10, 10, 10, -1,
 10, 10, 10, -1, 10, 10, 10, -1, 10, 10, 10, -1,
 10, 10, 10, -1, 10, 10, 10, -1, 10, 10, 10, -1,
 10, 10, 10, -1, 10, 10, 10, -1, 10, 10, 10, -1,
 10, 10, 10, -1, 10, 10, 10, -1, 10, 10, 10, -1,
 10, 10, 10, -1, 10, 10, 10, -1, 10, 10, 10, -1,
 10, 10, 10, -1, 10, 10, 10, -1, 10, 10, 10, -1,
 10, 10, 10, -1, 10, 10, 10, -1, 10, 10, 10, -1,
 10, 10, 10, -1, 10, 10, 10, -1, 10, 10, 10, -1,
 10, 10, 10, -1, 10, 10, 10, -1, 10, 10, 10, -1,
 10, 10, 10, -1, 10, 10, 10, -1, 10, 10, 10, -1,
 10, 10, 10, -1, 10, 10, 10, -1, 10, 10, 10, -1,
 10, 10, 10, -1, 10, 10, 10, -1, 10, 10, 10, -1,
 10, 10, 10, -1, 10, 10, 10, -1, 10, 10, 10, -1,
 10, 10, 10, -1, 10, 10, 10, -1, 10, 10, 10, -1,
 10, 10, 10, -1, 10, 10, 10, -1, 10, 10, 10, -1,
 10, 10, 10, -1, 10, 10, 10, -1, 10, 10, 10, -1,
 10, 10, 10, -1, 10, 10, 10, -1, 10, 10, 10, -1,
 10, 10, 10, -1, 10, 10, 10, -1, 10, 10, 10, -1,
 10, 10, 10, -1, 10, 10, 10, -1, 10, 10, 10, -1,
 10, 10, 10, -1, 10, 10, 10, -1, 10, 10, 10, -1,
 10, 10, 10, -1, 10, 10, 10, -1, 10, 10, 10, -1,
 10, 10, 10, -1, 10, 10, 10, -1, 10, 10, 10, -1,
 10, 10, 10, -1, 10, 10, 10, -1, 10, 10, 10, -1,
 10, 10, 10, -1, 10, 10, 10, -1, 10, 10, 10, -1,
 10, 10, 10, -1, 10, 10, 10, -1, 10, 10, 10, -1,
 10, 10, 10, -1, 10, 10, 10, -1, 10, 10, 10, -1,
 10, 10, 10, -1, 10, 10, 10, -1, 10, 10, 10, -1,
 10, 10, 10, -1, 10, 10, 10, -1, 10, 10, 10, -1,
 10, 10, 10, -1, 10, 10, 10, -1, 10, 10, 10, -1,
 10, 10, 10, -1, 10, 10, 10, -1, 10, 10, 10, -1,
 10, 10, 10, -1, 10, 10, 10, -1, 10, 10, 10, -1,
 10, 10, 10, -1, 10, 10, 10, -1, 10, 10, 10, -1,
 10, 10, 10, -1, 10, 10, 10, -1, 10, 10, 10, -1,
 10, 10, 10, -1, 10, 10, 10, -1, 10, 10, 10, -1,
 10, 10, 10, -1, 10, 10, 10, -1, 10, 10, 10, -1,
 10, 10, 10, -1, 10, 10, 10, -1, 10, 10, 10, -1,
 10, 10, 10, -1, 10, 10, 10, -1, 10, 10, 10, -1,
 19, 19, 19, -1, 19, 19, 19, -1, 43, 43, 43, -1,
 43, 43, 43, -1, 18, 18, 18, -1, 18, 18, 18, -1,
 43, 43, 43, -1, 43, 43, 43, -1, 19, 19, 19, -1,
 19, 19, 19, -1, 0, 0, 0, -1, 0, 0, 0, -1,
 0, 0, 0, -1, 0, 0, 0, -1, 18, 18, 18, -1,
 18, 18, 18, -1, 43, 43, 43, -1, 43, 43, 43, -1,
 43, 43, 43, -1, 43, 43, 43, -1, 18, 18, 18, -1,
 18, 18, 18, -1, 0, 0, 0, -1, 0, 0, 0, -1,
 19, 19, 19, -1, 19, 19, 19, -1, 0, 0, 0, -1,
 0, 0, 0, -1, 18, 18, 18, -1, 18, 18, 18, -1,
 43, 43, 43, -1, 43, 43, 43, -1, 32, 32, 32, -1,
 32, 32, 32, -1, 8, 8, 8, -1, 8, 8, 8, -1,
 8, 8, 8, -1, 8, 8, 8, -1, 18, 18, 20, -1,
 20, 18, 20, -1, 20, 20, 24, -1, 24, 20, 24, -1,
 24, 24, 28, -1, 28, 24, 28, -1, 28, 28, 33, -1,
 33, 28, 33, -1, 33, 33, 37, -1, 37, 33, 37, -1,
 37, 37, 41, -1, 41, 37, 41, -1, 41, 41, 43, -1,
 43, 41, 43, -1, 19, 19, 17, -1, 17, 19, 17, -1,
 17, 17, 14, -1, 14, 17, 14, -1, 14, 14, 11, -1,
 11, 14, 11, -1, 11, 11, 7, -1, 7, 11, 7, -1,
 7, 7, 4, -1, 4, 7, 4, -1, 4, 4, 1, -1,
 1, 4, 1, -1, 1, 1, 0, -1, 0, 1, 0, -1,
 19, 19, 16, -1, 19, 16, 16, -1, 16, 16, 13, -1,
 16, 13, 13, -1, 13, 13, 9, -1, 13, 9, 9, -1,
 9, 9, 6, -1, 9, 6, 6, -1, 6, 6, 3, -1,
 6, 3, 3, -1, 3, 3, 0, -1, 3, 0, 0, -1,
 43, 43, 43, -1, 43, 43, 43, -1, 18, 18, 18, -1,
 18, 18, 18, -1, 0, 0, 0, -1, 0, 0, 0, -1,
 0, 0, 0, -1, 0, 0, 0, -1, 18, 18, 18, -1,
 18, 18, 18, -1, 43, 43, 43, -1, 43, 43, 43, -1,
 43, 43, 43, -1, 43, 43, 43, -1, 19, 19, 19, -1,
 19, 19, 19, -1, 19, 19, 19, -1, 19, 19, 19, -1,
 0, 0, 0, -1, 0, 0, 0, -1, 18, 18, 18, -1,
 18, 18, 18, -1, 18, 18, 18, -1, 18, 18, 18, -1,
 0, 0, 0, -1, 0, 0, 0, -1, 43, 43, 43, -1,
 43, 43, 43, -1, 19, 19, 19, -1, 19, 19, 19, -1,
 0, 0, 0, -1, 0, 0, 0, -1, 18, 18, 18, -1,
 18, 18, 18, -1, 18, 18, 18, -1, 18, 18, 18, -1,
 0, 0, 0, -1, 0, 0, 0, -1, 19, 19, 19, -1,
 19, 19, 19, -1, 19, 19, 19, -1, 19, 19, 19, -1,
 0, 0, 0, -1, 0, 0, 0, -1, 18, 18, 18, -1,
 18, 18, 18, -1, 18, 18, 18, -1, 18, 18, 18, -1,
 43, 43, 43, -1, 43, 43, 43, -1, 19, 19, 19, -1,
 19, 19, 19, -1, 0, 0, 0, -1, 0, 0, 0, -1,
 19, 19, 19, -1, 19, 19, 19, -1, 18, 18, 18, -1,
 18, 18, 18, -1, 43, 43, 43, -1, 43, 43, 43, -1,
 19, 19, 19, -1, 19, 19, 19, -1, 0, 0, 0, -1,
 0, 0, 0, -1, 19, 19, 19, -1, 19, 19, 19, -1,
 43, 43, 43, -1, 43, 43, 43, -1, 19, 19, 19, -1,
 19, 19, 19, -1, 0, 0, 0, -1, 0, 0, 0, -1,
 18, 18, 18, -1, 18, 18, 18, -1, 43, 43, 43, -1,
 43, 43, 43, -1, 19, 19, 19, -1, 19, 19, 19, -1,
 43, 43, 43, -1, 43, 43, 43, -1, 0, 0, 0, -1,
 0, 0, 0, -1, 18, 18, 18, -1, 18, 18, 18, -1,
 43, 43, 43, -1, 43, 43, 43, -1, 19, 19, 19, -1,
 19, 19, 19, -1, 31, 31, 31, -1, 31, 31, 31, -1,
 31, 31, 31, -1, 31, 31, 31, -1, 9, 9, 9, -1,
 9, 9, 9, -1, 9, 9, 9, -1, 9, 9, 9, -1,
 8, 8, 8, -1, 8, 8, 8, -1, 8, 8, 8, -1,
 8, 8, 8, -1, 32, 32, 32, -1, 32, 32, 32, -1,
 9, 9, 9, -1, 9, 9, 9, -1, 31, 31, 31, -1,
 31, 31, 31, -1, 0, 0, 2, -1, 2, 0, 2, -1,
 2, 2, 5, -1, 5, 2, 5, -1, 5, 5, 8, -1,
 8, 5, 8, -1, 8, 8, 12, -1, 12, 8, 12, -1,
 12, 12, 15, -1, 15, 12, 15, -1, 15, 15, 18, -1,
 18, 15, 18, -1, 43, 43, 40, -1, 40, 43, 40, -1,
 40, 40, 36, -1, 36, 40, 36, -1, 36, 36, 32, -1,
 32, 36, 32, -1, 32, 32, 27, -1, 27, 32, 27, -1,
 27, 27, 23, -1, 23, 27, 23, -1, 23, 23, 19, -1,
 19, 23, 19, -1, 19, 19, 17, -1, 17, 19, 17, -1,
 17, 17, 14, -1, 14, 17, 14, -1, 14, 14, 11, -1,
 11, 14, 11, -1, 11, 11, 7, -1, 7, 11, 7, -1,
 7, 7, 4, -1, 4, 7, 4, -1, 4, 4, 1, -1,
 1, 4, 1, -1, 1, 1, 0, -1, 0, 1, 0, -1,
 18, 18, 20, -1, 20, 18, 20, -1, 20, 20, 24, -1,
 24, 20, 24, -1, 24, 24, 28, -1, 28, 24, 28, -1,
 28, 28, 33, -1, 33, 28, 33, -1, 33, 33, 37, -1,
 37, 33, 37, -1, 37, 37, 41, -1, 41, 37, 41, -1,
 41, 41, 43, -1, 43, 41, 43, -1, 43, 43, 40, -1,
 40, 43, 40, -1, 40, 40, 36, -1, 36, 40, 36, -1,
 36, 36, 32, -1, 32, 36, 32, -1, 32, 32, 27, -1,
 27, 32, 27, -1, 27, 27, 23, -1, 23, 27, 23, -1,
 23, 23, 19, -1, 19, 23, 19, -1, 0, 0, 2, -1,
 2, 0, 2, -1, 2, 2, 5, -1, 5, 2, 5, -1,
 5, 5, 8, -1, 8, 5, 8, -1, 8, 8, 12, -1,
 12, 8, 12, -1, 12, 12, 15, -1, 15, 12, 15, -1,
 15, 15, 18, -1, 18, 15, 18, -1, 43, 43, 42, -1,
 43, 42, 42, -1, 42, 42, 38, -1, 42, 38, 38, -1,
 38, 38, 34, -1, 38, 34, 34, -1, 34, 34, 29, -1,
 34, 29, 29, -1, 29, 29, 25, -1, 29, 25, 25, -1,
 25, 25, 21, -1, 25, 21, 21, -1, 21, 21, 19, -1,
 21, 19, 19, -1, 18, 18, 22, -1, 18, 22, 22, -1,
 22, 22, 26, -1, 22, 26, 26, -1, 26, 26, 31, -1,
 26, 31, 31, -1, 31, 31, 35, -1, 31, 35, 35, -1,
 35, 35, 39, -1, 35, 39, 39, -1, 39, 39, 43, -1,
 39, 43, 43, -1, 0, 0, 2, -1, 0, 2, 2, -1,
 2, 2, 5, -1, 2, 5, 5, -1, 5, 5, 8, -1,
 5, 8, 8, -1, 8, 8, 12, -1, 8, 12, 12, -1,
 12, 12, 15, -1, 12, 15, 15, -1, 15, 15, 18, -1,
 15, 18, 18, -1, 18, 18, 22, -1, 22, 18, 22, -1,
 22, 22, 26, -1, 26, 22, 26, -1, 26, 26, 31, -1,
 31, 26, 31, -1, 31, 31, 35, -1, 35, 31, 35, -1,
 35, 35, 39, -1, 39, 35, 39, -1, 39, 39, 43, -1,
 43, 39, 43, -1, 43, 43, 40, -1, 40, 43, 40, -1,
 40, 40, 36, -1, 36, 40, 36, -1, 36, 36, 32, -1,
 32, 36, 32, -1, 32, 32, 27, -1, 27, 32, 27, -1,
 27, 27, 23, -1, 23, 27, 23, -1, 23, 23, 19, -1,
 19, 23, 19, -1, 19, 19, 16, -1, 16, 19, 16, -1,
 16, 16, 13, -1, 13, 16, 13, -1, 13, 13, 9, -1,
 9, 13, 9, -1, 9, 9, 6, -1, 6, 9, 6, -1,
 6, 6, 3, -1, 3, 6, 3, -1, 3, 3, 0, -1,
 0, 3, 0, -1, 0, 0, 2, -1, 2, 0, 2, -1,
 2, 2, 5, -1, 5, 2, 5, -1, 5, 5, 8, -1,
 8, 5, 8, -1, 8, 8, 12, -1, 12, 8, 12, -1,
 12, 12, 15, -1, 15, 12, 15, -1, 15, 15, 18, -1,
 18, 15, 18, -1
]
colorPerVertex FALSE
normalPerVertex TRUE
}
}
]
}
