#VRML V2.0 utf8
Transform {
children [
Shape {
appearance Appearance {
material Material {
ambientIntensity 1.000000
diffuseColor 0.776471 0.756863 0.737255
emissiveColor 0.000000 0.000000 0.000000
specularColor 0.388235 0.378431 0.368627
shininess 0.312500
transparency 0.000000
}
}
geometry IndexedFaceSet {
color Color {
color [
 0.776471 0.756863 0.737255
]
}
coord Coordinate {
point [
 -0.072575 0.006160 -0.087603, -0.072575 0.006199 -0.086300, -0.072575 0.006276 -0.088901, -0.072575 0.006392 -0.085011, -0.072575 0.006545 -0.090176,
 -0.072575 0.006735 -0.083754, -0.072575 0.006962 -0.091411, -0.072575 0.007225 -0.082546, -0.072575 0.007523 -0.092588, -0.072575 0.007854 -0.081405,
 -0.072575 0.008218 -0.093690, -0.072575 0.008614 -0.080346, -0.072575 0.009039 -0.094702, -0.072575 0.009494 -0.079384, -0.072575 0.009975 -0.095609,
 -0.072575 0.010481 -0.078533, -0.072575 0.011011 -0.096400, -0.072575 0.011562 -0.077805, -0.072575 0.012133 -0.097063, -0.072575 0.012721 -0.077210,
 -0.072575 0.013156 -0.087277, -0.072575 0.013233 -0.088057, -0.072575 0.013233 -0.086496, -0.072575 0.013325 -0.097588, -0.072575 0.013460 -0.088808,
 -0.072575 0.013460 -0.085746, -0.072575 0.013830 -0.089499, -0.072575 0.013830 -0.085055, -0.072575 0.013943 -0.076756, -0.072575 0.014327 -0.090105,
 -0.072575 0.014327 -0.084448, -0.072575 0.014572 -0.097969, -0.072575 0.014933 -0.090603, -0.072575 0.014933 -0.083951, -0.072575 0.015210 -0.076450,
 -0.072575 0.015625 -0.090972, -0.072575 0.015625 -0.083581, -0.072575 0.015855 -0.098200, -0.072575 0.016375 -0.091200, -0.072575 0.016375 -0.083354,
 -0.072575 0.016504 -0.076296, -0.072575 0.017156 -0.098277, -0.072575 0.017156 -0.091277, -0.072575 0.017156 -0.083277, -0.072575 0.017156 -0.076277,
 -0.072575 0.017807 -0.076296, -0.072575 0.017936 -0.091200, -0.072575 0.017936 -0.083354, -0.072575 0.018457 -0.098200, -0.072575 0.018686 -0.090972,
 -0.072575 0.018686 -0.083581, -0.072575 0.019101 -0.076450, -0.072575 0.019378 -0.090603, -0.072575 0.019378 -0.083951, -0.072575 0.019739 -0.097969,
 -0.072575 0.019984 -0.090105, -0.072575 0.019984 -0.084448, -0.072575 0.020368 -0.076756, -0.072575 0.020482 -0.089499, -0.072575 0.020482 -0.085055,
 -0.072575 0.020851 -0.088808, -0.072575 0.020851 -0.085746, -0.072575 0.020986 -0.097588, -0.072575 0.021079 -0.088057, -0.072575 0.021079 -0.086496,
 -0.072575 0.021156 -0.087277, -0.072575 0.021590 -0.077210, -0.072575 0.022179 -0.097063, -0.072575 0.022749 -0.077805, -0.072575 0.023301 -0.096400,
 -0.072575 0.023830 -0.078533, -0.072575 0.024337 -0.095609, -0.072575 0.024818 -0.079384, -0.072575 0.025272 -0.094702, -0.072575 0.025697 -0.080346,
 -0.072575 0.026093 -0.093690, -0.072575 0.026457 -0.081405, -0.072575 0.026789 -0.092588, -0.072575 0.027086 -0.082546, -0.072575 0.027349 -0.091411,
 -0.072575 0.027576 -0.083754, -0.072575 0.027767 -0.090176, -0.072575 0.027920 -0.085011, -0.072575 0.028035 -0.088901, -0.072575 0.028112 -0.086300,
 -0.072575 0.028151 -0.087603, -0.065575 0.006160 -0.087603, -0.065575 0.006199 -0.086300, -0.065575 0.006276 -0.088901, -0.065575 0.006392 -0.085011,
 -0.065575 0.006545 -0.090176, -0.065575 0.006735 -0.083754, -0.065575 0.006962 -0.091411, -0.065575 0.007225 -0.082546, -0.065575 0.007523 -0.092588,
 -0.065575 0.007854 -0.081405, -0.065575 0.008218 -0.093690, -0.065575 0.008614 -0.080346, -0.065575 0.009039 -0.094702, -0.065575 0.009494 -0.079384,
 -0.065575 0.009975 -0.095609, -0.065575 0.010481 -0.078533, -0.065575 0.011011 -0.096400, -0.065575 0.011562 -0.077805, -0.065575 0.012133 -0.097063,
 -0.065575 0.012721 -0.077210, -0.065575 0.013156 -0.087277, -0.065575 0.013233 -0.088057, -0.065575 0.013233 -0.086496, -0.065575 0.013325 -0.097588,
 -0.065575 0.013460 -0.088808, -0.065575 0.013460 -0.085746, -0.065575 0.013830 -0.089499, -0.065575 0.013830 -0.085055, -0.065575 0.013943 -0.076756,
 -0.065575 0.014327 -0.090105, -0.065575 0.014327 -0.084448, -0.065575 0.014572 -0.097969, -0.065575 0.014933 -0.090603, -0.065575 0.014933 -0.083951,
 -0.065575 0.015210 -0.076450, -0.065575 0.015625 -0.090972, -0.065575 0.015625 -0.083581, -0.065575 0.015855 -0.098200, -0.065575 0.016375 -0.091200,
 -0.065575 0.016375 -0.083354, -0.065575 0.016504 -0.076296, -0.065575 0.017156 -0.098277, -0.065575 0.017156 -0.091277, -0.065575 0.017156 -0.083277,
 -0.065575 0.017156 -0.076277, -0.065575 0.017807 -0.076296, -0.065575 0.017936 -0.091200, -0.065575 0.017936 -0.083354, -0.065575 0.018457 -0.098200,
 -0.065575 0.018686 -0.090972, -0.065575 0.018686 -0.083581, -0.065575 0.019101 -0.076450, -0.065575 0.019378 -0.090603, -0.065575 0.019378 -0.083951,
 -0.065575 0.019739 -0.097969, -0.065575 0.019984 -0.090105, -0.065575 0.019984 -0.084448, -0.065575 0.020368 -0.076756, -0.065575 0.020482 -0.089499,
 -0.065575 0.020482 -0.085055, -0.065575 0.020851 -0.088808, -0.065575 0.020851 -0.085746, -0.065575 0.020986 -0.097588, -0.065575 0.021079 -0.088057,
 -0.065575 0.021079 -0.086496, -0.065575 0.021156 -0.087277, -0.065575 0.021590 -0.077210, -0.065575 0.022179 -0.097063, -0.065575 0.022749 -0.077805,
 -0.065575 0.023301 -0.096400, -0.065575 0.023830 -0.078533, -0.065575 0.024337 -0.095609, -0.065575 0.024818 -0.079384, -0.065575 0.025272 -0.094702,
 -0.065575 0.025697 -0.080346, -0.065575 0.026093 -0.093690, -0.065575 0.026457 -0.081405, -0.065575 0.026789 -0.092588, -0.065575 0.027086 -0.082546,
 -0.065575 0.027349 -0.091411, -0.065575 0.027576 -0.083754, -0.065575 0.027767 -0.090176, -0.065575 0.027920 -0.085011, -0.065575 0.028035 -0.088901,
 -0.065575 0.028112 -0.086300, -0.065575 0.028151 -0.087603
]
}
normal Normal {
vector [
 -1.000000 0.000000 0.000000, 0.000000 -1.000000 0.000000, 0.000000 -0.999561 -0.029633, 0.000000 -0.996050 0.088796, 0.000000 -0.989040 -0.147647,
 0.000000 -0.980785 -0.195090, 0.000000 -0.980785 0.195090, 0.000000 -0.978557 0.205979, 0.000000 -0.964636 -0.263587, 0.000000 -0.947326 0.320270,
 0.000000 -0.926690 -0.375828, 0.000000 -0.923880 -0.382683, 0.000000 -0.923880 0.382683, 0.000000 -0.902798 0.430065, 0.000000 -0.875735 -0.482792,
 0.000000 -0.845596 0.533823, 0.000000 -0.831470 -0.555570, 0.000000 -0.831470 0.555570, 0.000000 -0.812487 -0.582980, 0.000000 -0.776524 0.630088,
 0.000000 -0.737833 -0.674983, 0.000000 -0.707107 -0.707107, 0.000000 -0.707107 0.707107, 0.000000 -0.696551 0.717507, 0.000000 -0.652822 -0.757511,
 0.000000 -0.606800 0.794854, 0.000000 -0.558647 -0.829406, 0.000000 -0.555570 -0.831470, 0.000000 -0.555570 0.831470, 0.000000 -0.508531 0.861044,
 0.000000 -0.456629 -0.889657, 0.000000 -0.403123 0.915146, 0.000000 -0.382683 -0.923880, 0.000000 -0.382683 0.923880, 0.000000 -0.348202 -0.937420,
 0.000000 -0.292057 0.956401, 0.000000 -0.234886 -0.972023, 0.000000 -0.195090 -0.980785, 0.000000 -0.195090 0.980785, 0.000000 -0.176890 0.984231,
 0.000000 -0.118273 -0.992981, 0.000000 -0.059241 0.998244, 0.000000 0.000000 -1.000000, 0.000000 0.000000 1.000000, 0.000000 0.059241 0.998244,
 0.000000 0.118273 -0.992981, 0.000000 0.176890 0.984231, 0.000000 0.195090 -0.980785, 0.000000 0.195090 0.980785, 0.000000 0.234886 -0.972023,
 0.000000 0.292057 0.956401, 0.000000 0.348202 -0.937420, 0.000000 0.382683 -0.923880, 0.000000 0.382683 0.923880, 0.000000 0.403123 0.915146,
 0.000000 0.456629 -0.889657, 0.000000 0.508531 0.861044, 0.000000 0.555570 -0.831470, 0.000000 0.555570 0.831470, 0.000000 0.558647 -0.829406,
 0.000000 0.606800 0.794854, 0.000000 0.652822 -0.757511, 0.000000 0.696551 0.717507, 0.000000 0.707107 -0.707107, 0.000000 0.707107 0.707107,
 0.000000 0.737833 -0.674983, 0.000000 0.776524 0.630088, 0.000000 0.812487 -0.582980, 0.000000 0.831470 -0.555570, 0.000000 0.831470 0.555570,
 0.000000 0.845596 0.533823, 0.000000 0.875735 -0.482792, 0.000000 0.902798 0.430065, 0.000000 0.923880 -0.382683, 0.000000 0.923880 0.382683,
 0.000000 0.926690 -0.375828, 0.000000 0.947326 0.320270, 0.000000 0.964636 -0.263587, 0.000000 0.978557 0.205979, 0.000000 0.980785 -0.195090,
 0.000000 0.980785 0.195090, 0.000000 0.989040 -0.147647, 0.000000 0.996050 0.088796, 0.000000 0.999561 -0.029633, 0.000000 1.000000 -0.000000,
 1.000000 0.000000 0.000000
]
}
coordIndex [
 47, 57, 50, -1, 50, 57, 66, -1, 50, 66, 53, -1,
 43, 45, 47, -1, 47, 45, 51, -1, 47, 51, 57, -1,
 42, 37, 38, -1, 38, 37, 31, -1, 38, 31, 35, -1,
 39, 40, 43, -1, 43, 40, 44, -1, 43, 44, 45, -1,
 36, 28, 39, -1, 39, 28, 34, -1, 39, 34, 40, -1,
 30, 15, 33, -1, 33, 15, 17, -1, 33, 17, 36, -1,
 36, 17, 19, -1, 36, 19, 28, -1, 32, 14, 29, -1,
 29, 14, 12, -1, 29, 12, 26, -1, 52, 67, 49, -1,
 49, 67, 62, -1, 49, 62, 46, -1, 66, 68, 53, -1,
 53, 68, 70, -1, 53, 70, 56, -1, 27, 11, 30, -1,
 30, 11, 13, -1, 30, 13, 15, -1, 22, 5, 25, -1,
 25, 5, 7, -1, 25, 7, 27, -1, 27, 7, 9, -1,
 27, 9, 11, -1, 31, 23, 35, -1, 35, 23, 18, -1,
 35, 18, 32, -1, 32, 18, 16, -1, 32, 16, 14, -1,
 62, 54, 46, -1, 46, 54, 48, -1, 46, 48, 42, -1,
 42, 48, 41, -1, 42, 41, 37, -1, 24, 4, 21, -1,
 21, 4, 2, -1, 21, 2, 20, -1, 55, 71, 52, -1,
 52, 71, 69, -1, 52, 69, 67, -1, 2, 0, 20, -1,
 20, 0, 1, -1, 20, 1, 22, -1, 22, 1, 3, -1,
 22, 3, 5, -1, 12, 10, 26, -1, 26, 10, 8, -1,
 26, 8, 24, -1, 24, 8, 6, -1, 24, 6, 4, -1,
 60, 77, 58, -1, 58, 77, 75, -1, 58, 75, 55, -1,
 55, 75, 73, -1, 55, 73, 71, -1, 63, 81, 60, -1,
 60, 81, 79, -1, 60, 79, 77, -1, 64, 84, 65, -1,
 65, 84, 85, -1, 65, 85, 63, -1, 63, 85, 83, -1,
 63, 83, 81, -1, 70, 72, 56, -1, 56, 72, 74, -1,
 56, 74, 59, -1, 59, 74, 76, -1, 59, 76, 61, -1,
 76, 78, 61, -1, 61, 78, 80, -1, 61, 80, 64, -1,
 64, 80, 82, -1, 64, 82, 84, -1, 142, 156, 139, -1,
 139, 156, 154, -1, 139, 154, 136, -1, 128, 124, 123, -1,
 131, 129, 133, -1, 123, 127, 128, -1, 128, 127, 134, -1,
 128, 134, 132, -1, 132, 134, 140, -1, 132, 140, 135, -1,
 154, 152, 136, -1, 136, 152, 143, -1, 136, 143, 133, -1,
 133, 143, 137, -1, 133, 137, 131, -1, 140, 148, 135, -1,
 135, 148, 153, -1, 135, 153, 138, -1, 125, 114, 122, -1,
 122, 114, 105, -1, 122, 105, 119, -1, 145, 160, 142, -1,
 142, 160, 158, -1, 142, 158, 156, -1, 118, 104, 121, -1,
 121, 104, 109, -1, 121, 109, 124, -1, 124, 109, 117, -1,
 124, 117, 123, -1, 110, 94, 112, -1, 112, 94, 96, -1,
 112, 96, 115, -1, 131, 130, 129, -1, 129, 130, 126, -1,
 129, 126, 125, -1, 125, 126, 120, -1, 125, 120, 114, -1,
 150, 166, 147, -1, 147, 166, 164, -1, 147, 164, 145, -1,
 145, 164, 162, -1, 145, 162, 160, -1, 96, 98, 115, -1,
 115, 98, 100, -1, 115, 100, 118, -1, 118, 100, 102, -1,
 118, 102, 104, -1, 107, 90, 110, -1, 110, 90, 92, -1,
 110, 92, 94, -1, 108, 87, 106, -1, 106, 87, 86, -1,
 106, 86, 107, -1, 107, 86, 88, -1, 107, 88, 90, -1,
 116, 97, 113, -1, 113, 97, 95, -1, 113, 95, 111, -1,
 151, 170, 150, -1, 150, 170, 168, -1, 150, 168, 166, -1,
 146, 167, 149, -1, 149, 167, 169, -1, 149, 169, 151, -1,
 151, 169, 171, -1, 151, 171, 170, -1, 153, 155, 138, -1,
 138, 155, 157, -1, 138, 157, 141, -1, 141, 157, 159, -1,
 141, 159, 144, -1, 95, 93, 111, -1, 111, 93, 91, -1,
 111, 91, 108, -1, 108, 91, 89, -1, 108, 89, 87, -1,
 105, 103, 119, -1, 119, 103, 101, -1, 119, 101, 116, -1,
 116, 101, 99, -1, 116, 99, 97, -1, 159, 161, 144, -1,
 144, 161, 163, -1, 144, 163, 146, -1, 146, 163, 165, -1,
 146, 165, 167, -1, 45, 44, 130, -1, 130, 44, 126, -1,
 44, 40, 126, -1, 126, 40, 34, -1, 126, 34, 120, -1,
 120, 34, 28, -1, 120, 28, 114, -1, 114, 28, 19, -1,
 114, 19, 105, -1, 105, 19, 17, -1, 105, 17, 103, -1,
 103, 17, 15, -1, 103, 15, 101, -1, 101, 15, 13, -1,
 101, 13, 99, -1, 99, 13, 11, -1, 99, 11, 97, -1,
 97, 11, 9, -1, 97, 9, 95, -1, 95, 9, 7, -1,
 95, 7, 93, -1, 93, 7, 5, -1, 93, 5, 91, -1,
 91, 5, 3, -1, 91, 3, 89, -1, 89, 3, 1, -1,
 89, 1, 87, -1, 87, 1, 0, -1, 87, 0, 86, -1,
 86, 0, 2, -1, 86, 2, 88, -1, 88, 2, 4, -1,
 88, 4, 90, -1, 90, 4, 6, -1, 90, 6, 92, -1,
 92, 6, 8, -1, 92, 8, 94, -1, 94, 8, 10, -1,
 94, 10, 96, -1, 96, 10, 12, -1, 96, 12, 98, -1,
 98, 12, 14, -1, 98, 14, 100, -1, 100, 14, 16, -1,
 100, 16, 102, -1, 102, 16, 18, -1, 102, 18, 104, -1,
 104, 18, 23, -1, 104, 23, 109, -1, 109, 23, 31, -1,
 109, 31, 117, -1, 117, 31, 37, -1, 117, 37, 123, -1,
 123, 37, 41, -1, 123, 41, 127, -1, 127, 41, 48, -1,
 127, 48, 134, -1, 134, 48, 54, -1, 134, 54, 140, -1,
 140, 54, 62, -1, 140, 62, 148, -1, 148, 62, 67, -1,
 148, 67, 153, -1, 153, 67, 69, -1, 153, 69, 155, -1,
 155, 69, 71, -1, 155, 71, 157, -1, 157, 71, 73, -1,
 157, 73, 159, -1, 159, 73, 75, -1, 159, 75, 161, -1,
 161, 75, 77, -1, 161, 77, 163, -1, 163, 77, 79, -1,
 163, 79, 165, -1, 165, 79, 81, -1, 165, 81, 167, -1,
 167, 81, 83, -1, 167, 83, 169, -1, 169, 83, 85, -1,
 169, 85, 171, -1, 171, 85, 84, -1, 171, 84, 170, -1,
 170, 84, 82, -1, 170, 82, 168, -1, 168, 82, 80, -1,
 168, 80, 166, -1, 166, 80, 78, -1, 166, 78, 164, -1,
 164, 78, 76, -1, 164, 76, 162, -1, 162, 76, 74, -1,
 162, 74, 160, -1, 160, 74, 72, -1, 160, 72, 158, -1,
 158, 72, 70, -1, 158, 70, 156, -1, 156, 70, 68, -1,
 156, 68, 154, -1, 154, 68, 66, -1, 154, 66, 152, -1,
 152, 66, 57, -1, 152, 57, 143, -1, 143, 57, 51, -1,
 143, 51, 137, -1, 137, 51, 45, -1, 137, 45, 131, -1,
 131, 45, 130, -1, 42, 128, 46, -1, 46, 128, 132, -1,
 46, 132, 49, -1, 49, 132, 135, -1, 49, 135, 52, -1,
 52, 135, 138, -1, 52, 138, 55, -1, 55, 138, 141, -1,
 55, 141, 58, -1, 58, 141, 144, -1, 58, 144, 60, -1,
 60, 144, 146, -1, 60, 146, 63, -1, 63, 146, 149, -1,
 63, 149, 65, -1, 65, 149, 151, -1, 65, 151, 64, -1,
 64, 151, 150, -1, 64, 150, 61, -1, 61, 150, 147, -1,
 61, 147, 59, -1, 59, 147, 145, -1, 59, 145, 56, -1,
 56, 145, 142, -1, 56, 142, 53, -1, 53, 142, 139, -1,
 53, 139, 50, -1, 50, 139, 136, -1, 50, 136, 47, -1,
 47, 136, 133, -1, 47, 133, 43, -1, 43, 133, 129, -1,
 43, 129, 39, -1, 39, 129, 125, -1, 39, 125, 36, -1,
 36, 125, 122, -1, 36, 122, 33, -1, 33, 122, 119, -1,
 33, 119, 30, -1, 30, 119, 116, -1, 30, 116, 27, -1,
 27, 116, 113, -1, 27, 113, 25, -1, 25, 113, 111, -1,
 25, 111, 22, -1, 22, 111, 108, -1, 22, 108, 20, -1,
 20, 108, 106, -1, 20, 106, 21, -1, 21, 106, 107, -1,
 21, 107, 24, -1, 24, 107, 110, -1, 24, 110, 26, -1,
 26, 110, 112, -1, 26, 112, 29, -1, 29, 112, 115, -1,
 29, 115, 32, -1, 32, 115, 118, -1, 32, 118, 35, -1,
 35, 118, 121, -1, 35, 121, 38, -1, 38, 121, 124, -1,
 38, 124, 42, -1, 42, 124, 128, -1
]
colorIndex [
 0, 0, 0, 0, 0, 0, 0, 0, 0, 0, 0, 0, 0, 0, 0, 0, 0, 0, 0, 0, 0, 0, 0, 0, 0, 0, 0, 0, 0, 0, 0, 0, 0, 0, 0, 0, 0, 0, 0, 0, 0, 0, 0, 0, 0, 0, 0, 0, 0, 0, 0, 0, 0, 0, 0, 0, 0, 0, 0, 0, 0, 0, 0, 0, 0, 0, 0, 0, 0, 0, 0, 0, 0, 0, 0, 0, 0, 0, 0, 0, 0, 0, 0, 0, 0, 0, 0, 0, 0, 0, 0, 0, 0, 0, 0, 0, 0, 0, 0, 0, 0, 0, 0, 0, 0, 0, 0, 0, 0, 0, 0, 0, 0, 0, 0, 0, 0, 0, 0, 0, 0, 0, 0, 0, 0, 0, 0, 0, 0, 0, 0, 0, 0, 0, 0, 0, 0, 0, 0, 0, 0, 0, 0, 0, 0, 0, 0, 0, 0, 0, 0, 0, 0, 0, 0, 0, 0, 0, 0, 0, 0, 0, 0, 0, 0, 0, 0, 0, 0, 0, 0, 0, 0, 0, 0, 0, 0, 0, 0, 0, 0, 0, 0, 0, 0, 0, 0, 0, 0, 0, 0, 0, 0, 0, 0, 0, 0, 0, 0, 0, 0, 0, 0, 0, 0, 0, 0, 0, 0, 0, 0, 0, 0, 0, 0, 0, 0, 0, 0, 0, 0, 0, 0, 0, 0, 0, 0, 0, 0, 0, 0, 0, 0, 0, 0, 0, 0, 0, 0, 0, 0, 0, 0, 0, 0, 0, 0, 0, 0, 0, 0, 0, 0, 0, 0, 0, 0, 0, 0, 0, 0, 0, 0, 0, 0, 0, 0, 0, 0, 0, 0, 0, 0, 0, 0, 0, 0, 0, 0, 0,
 0, 0, 0, 0, 0, 0, 0, 0, 0, 0, 0, 0, 0, 0, 0, 0, 0, 0, 0, 0, 0, 0, 0, 0, 0, 0, 0, 0, 0, 0, 0, 0, 0, 0, 0, 0, 0, 0, 0, 0, 0, 0, 0, 0, 0, 0, 0, 0, 0, 0, 0, 0, 0, 0, 0, 0, 0, 0, 0, 0, 0, 0, 0, 0,
]
normalIndex [
 0, 0, 0, -1, 0, 0, 0, -1, 0, 0, 0, -1,
 0, 0, 0, -1, 0, 0, 0, -1, 0, 0, 0, -1,
 0, 0, 0, -1, 0, 0, 0, -1, 0, 0, 0, -1,
 0, 0, 0, -1, 0, 0, 0, -1, 0, 0, 0, -1,
 0, 0, 0, -1, 0, 0, 0, -1, 0, 0, 0, -1,
 0, 0, 0, -1, 0, 0, 0, -1, 0, 0, 0, -1,
 0, 0, 0, -1, 0, 0, 0, -1, 0, 0, 0, -1,
 0, 0, 0, -1, 0, 0, 0, -1, 0, 0, 0, -1,
 0, 0, 0, -1, 0, 0, 0, -1, 0, 0, 0, -1,
 0, 0, 0, -1, 0, 0, 0, -1, 0, 0, 0, -1,
 0, 0, 0, -1, 0, 0, 0, -1, 0, 0, 0, -1,
 0, 0, 0, -1, 0, 0, 0, -1, 0, 0, 0, -1,
 0, 0, 0, -1, 0, 0, 0, -1, 0, 0, 0, -1,
 0, 0, 0, -1, 0, 0, 0, -1, 0, 0, 0, -1,
 0, 0, 0, -1, 0, 0, 0, -1, 0, 0, 0, -1,
 0, 0, 0, -1, 0, 0, 0, -1, 0, 0, 0, -1,
 0, 0, 0, -1, 0, 0, 0, -1, 0, 0, 0, -1,
 0, 0, 0, -1, 0, 0, 0, -1, 0, 0, 0, -1,
 0, 0, 0, -1, 0, 0, 0, -1, 0, 0, 0, -1,
 0, 0, 0, -1, 0, 0, 0, -1, 0, 0, 0, -1,
 0, 0, 0, -1, 0, 0, 0, -1, 0, 0, 0, -1,
 0, 0, 0, -1, 0, 0, 0, -1, 0, 0, 0, -1,
 0, 0, 0, -1, 0, 0, 0, -1, 0, 0, 0, -1,
 0, 0, 0, -1, 0, 0, 0, -1, 0, 0, 0, -1,
 0, 0, 0, -1, 0, 0, 0, -1, 0, 0, 0, -1,
 0, 0, 0, -1, 0, 0, 0, -1, 0, 0, 0, -1,
 0, 0, 0, -1, 0, 0, 0, -1, 0, 0, 0, -1,
 0, 0, 0, -1, 0, 0, 0, -1, 0, 0, 0, -1,
 0, 0, 0, -1, 0, 0, 0, -1, 85, 85, 85, -1,
 85, 85, 85, -1, 85, 85, 85, -1, 85, 85, 85, -1,
 85, 85, 85, -1, 85, 85, 85, -1, 85, 85, 85, -1,
 85, 85, 85, -1, 85, 85, 85, -1, 85, 85, 85, -1,
 85, 85, 85, -1, 85, 85, 85, -1, 85, 85, 85, -1,
 85, 85, 85, -1, 85, 85, 85, -1, 85, 85, 85, -1,
 85, 85, 85, -1, 85, 85, 85, -1, 85, 85, 85, -1,
 85, 85, 85, -1, 85, 85, 85, -1, 85, 85, 85, -1,
 85, 85, 85, -1, 85, 85, 85, -1, 85, 85, 85, -1,
 85, 85, 85, -1, 85, 85, 85, -1, 85, 85, 85, -1,
 85, 85, 85, -1, 85, 85, 85, -1, 85, 85, 85, -1,
 85, 85, 85, -1, 85, 85, 85, -1, 85, 85, 85, -1,
 85, 85, 85, -1, 85, 85, 85, -1, 85, 85, 85, -1,
 85, 85, 85, -1, 85, 85, 85, -1, 85, 85, 85, -1,
 85, 85, 85, -1, 85, 85, 85, -1, 85, 85, 85, -1,
 85, 85, 85, -1, 85, 85, 85, -1, 85, 85, 85, -1,
 85, 85, 85, -1, 85, 85, 85, -1, 85, 85, 85, -1,
 85, 85, 85, -1, 85, 85, 85, -1, 85, 85, 85, -1,
 85, 85, 85, -1, 85, 85, 85, -1, 85, 85, 85, -1,
 85, 85, 85, -1, 85, 85, 85, -1, 85, 85, 85, -1,
 85, 85, 85, -1, 85, 85, 85, -1, 85, 85, 85, -1,
 85, 85, 85, -1, 85, 85, 85, -1, 85, 85, 85, -1,
 85, 85, 85, -1, 85, 85, 85, -1, 85, 85, 85, -1,
 85, 85, 85, -1, 85, 85, 85, -1, 85, 85, 85, -1,
 85, 85, 85, -1, 85, 85, 85, -1, 85, 85, 85, -1,
 85, 85, 85, -1, 85, 85, 85, -1, 85, 85, 85, -1,
 85, 85, 85, -1, 85, 85, 85, -1, 85, 85, 85, -1,
 85, 85, 85, -1, 85, 85, 85, -1, 85, 85, 85, -1,
 85, 85, 85, -1, 85, 85, 85, -1, 85, 85, 85, -1,
 85, 85, 85, -1, 44, 43, 43, -1, 43, 43, 41, -1,
 43, 41, 41, -1, 41, 41, 39, -1, 41, 39, 39, -1,
 39, 39, 35, -1, 39, 35, 35, -1, 35, 35, 31, -1,
 35, 31, 31, -1, 31, 31, 29, -1, 31, 29, 29, -1,
 29, 29, 25, -1, 29, 25, 25, -1, 25, 25, 23, -1,
 25, 23, 23, -1, 23, 23, 19, -1, 23, 19, 19, -1,
 19, 19, 15, -1, 19, 15, 15, -1, 15, 15, 13, -1,
 15, 13, 13, -1, 13, 13, 9, -1, 13, 9, 9, -1,
 9, 9, 7, -1, 9, 7, 7, -1, 7, 7, 3, -1,
 7, 3, 3, -1, 3, 3, 2, -1, 3, 2, 2, -1,
 2, 2, 4, -1, 2, 4, 4, -1, 4, 4, 8, -1,
 4, 8, 8, -1, 8, 8, 10, -1, 8, 10, 10, -1,
 10, 10, 14, -1, 10, 14, 14, -1, 14, 14, 18, -1,
 14, 18, 18, -1, 18, 18, 20, -1, 18, 20, 20, -1,
 20, 20, 24, -1, 20, 24, 24, -1, 24, 24, 26, -1,
 24, 26, 26, -1, 26, 26, 30, -1, 26, 30, 30, -1,
 30, 30, 34, -1, 30, 34, 34, -1, 34, 34, 36, -1,
 34, 36, 36, -1, 36, 36, 40, -1, 36, 40, 40, -1,
 40, 40, 42, -1, 40, 42, 42, -1, 42, 42, 45, -1,
 42, 45, 45, -1, 45, 45, 49, -1, 45, 49, 49, -1,
 49, 49, 51, -1, 49, 51, 51, -1, 51, 51, 55, -1,
 51, 55, 55, -1, 55, 55, 59, -1, 55, 59, 59, -1,
 59, 59, 61, -1, 59, 61, 61, -1, 61, 61, 65, -1,
 61, 65, 65, -1, 65, 65, 67, -1, 65, 67, 67, -1,
 67, 67, 71, -1, 67, 71, 71, -1, 71, 71, 75, -1,
 71, 75, 75, -1, 75, 75, 77, -1, 75, 77, 77, -1,
 77, 77, 81, -1, 77, 81, 81, -1, 81, 81, 83, -1,
 81, 83, 83, -1, 83, 83, 82, -1, 83, 82, 82, -1,
 82, 82, 78, -1, 82, 78, 78, -1, 78, 78, 76, -1,
 78, 76, 76, -1, 76, 76, 72, -1, 76, 72, 72, -1,
 72, 72, 70, -1, 72, 70, 70, -1, 70, 70, 66, -1,
 70, 66, 66, -1, 66, 66, 62, -1, 66, 62, 62, -1,
 62, 62, 60, -1, 62, 60, 60, -1, 60, 60, 56, -1,
 60, 56, 56, -1, 56, 56, 54, -1, 56, 54, 54, -1,
 54, 54, 50, -1, 54, 50, 50, -1, 50, 50, 46, -1,
 50, 46, 46, -1, 46, 46, 44, -1, 46, 44, 44, -1,
 44, 44, 43, -1, 43, 43, 38, -1, 38, 43, 38, -1,
 38, 38, 33, -1, 33, 38, 33, -1, 33, 33, 28, -1,
 28, 33, 28, -1, 28, 28, 22, -1, 22, 28, 22, -1,
 22, 22, 17, -1, 17, 22, 17, -1, 17, 17, 12, -1,
 12, 17, 12, -1, 12, 12, 6, -1, 6, 12, 6, -1,
 6, 6, 1, -1, 1, 6, 1, -1, 1, 1, 5, -1,
 5, 1, 5, -1, 5, 5, 11, -1, 11, 5, 11, -1,
 11, 11, 16, -1, 16, 11, 16, -1, 16, 16, 21, -1,
 21, 16, 21, -1, 21, 21, 27, -1, 27, 21, 27, -1,
 27, 27, 32, -1, 32, 27, 32, -1, 32, 32, 37, -1,
 37, 32, 37, -1, 37, 37, 42, -1, 42, 37, 42, -1,
 42, 42, 47, -1, 47, 42, 47, -1, 47, 47, 52, -1,
 52, 47, 52, -1, 52, 52, 57, -1, 57, 52, 57, -1,
 57, 57, 63, -1, 63, 57, 63, -1, 63, 63, 68, -1,
 68, 63, 68, -1, 68, 68, 73, -1, 73, 68, 73, -1,
 73, 73, 79, -1, 79, 73, 79, -1, 79, 79, 84, -1,
 84, 79, 84, -1, 84, 84, 80, -1, 80, 84, 80, -1,
 80, 80, 74, -1, 74, 80, 74, -1, 74, 74, 69, -1,
 69, 74, 69, -1, 69, 69, 64, -1, 64, 69, 64, -1,
 64, 64, 58, -1, 58, 64, 58, -1, 58, 58, 53, -1,
 53, 58, 53, -1, 53, 53, 48, -1, 48, 53, 48, -1,
 48, 48, 43, -1, 43, 48, 43, -1
]
colorPerVertex FALSE
normalPerVertex TRUE
}
}
]
}
