<?xml version="1.0" encoding="UTF-8" standalone="no"?>
<!-- Created with Inkscape (http://www.inkscape.org/) -->

<svg
   xmlns:dc="http://purl.org/dc/elements/1.1/"
   xmlns:cc="http://creativecommons.org/ns#"
   xmlns:rdf="http://www.w3.org/1999/02/22-rdf-syntax-ns#"
   xmlns:svg="http://www.w3.org/2000/svg"
   xmlns="http://www.w3.org/2000/svg"
   xmlns:sodipodi="http://sodipodi.sourceforge.net/DTD/sodipodi-0.dtd"
   xmlns:inkscape="http://www.inkscape.org/namespaces/inkscape"
   width="251.4045mm"
   height="125.31203mm"
   viewBox="0 0 251.4045 125.31203"
   version="1.1"
   id="svg8"
   inkscape:version="0.92.4 (5da689c313, 2019-01-14)"
   sodipodi:docname="navsphere.svg"
   inkscape:export-filename="/home/david/Dev/osm_clinostat/static/navsphere.svg.png"
   inkscape:export-xdpi="96"
   inkscape:export-ydpi="96">
  <defs
     id="defs2" />
  <sodipodi:namedview
     id="base"
     pagecolor="#ffffff"
     bordercolor="#666666"
     borderopacity="1.0"
     inkscape:pageopacity="0.0"
     inkscape:pageshadow="2"
     inkscape:zoom="0.70710678"
     inkscape:cx="401.02213"
     inkscape:cy="148.57373"
     inkscape:document-units="mm"
     inkscape:current-layer="layer1"
     showgrid="false"
     inkscape:window-width="1366"
     inkscape:window-height="705"
     inkscape:window-x="0"
     inkscape:window-y="26"
     inkscape:window-maximized="1"
     showguides="false"
     fit-margin-top="0"
     fit-margin-left="0"
     fit-margin-right="0"
     fit-margin-bottom="0" />
  <metadata
     id="metadata5">
    <rdf:RDF>
      <cc:Work
         rdf:about="">
        <dc:format>image/svg+xml</dc:format>
        <dc:type
           rdf:resource="http://purl.org/dc/dcmitype/StillImage" />
        <dc:title></dc:title>
      </cc:Work>
    </rdf:RDF>
  </metadata>
  <g
     inkscape:label="Calque 1"
     inkscape:groupmode="layer"
     id="layer1"
     transform="translate(-25.105539,-127.6836)">
    <rect
       style="fill:#ff0000;stroke:none;stroke-width:1;stroke-miterlimit:4;stroke-dasharray:none"
       id="rect890"
       width="62.869999"
       height="124.34341"
       x="56.976387"
       y="128.16789" />
    <g
       id="g872"
       transform="matrix(0.98402809,0,0,1,63.286113,0)">
      <path
         sodipodi:nodetypes="czzzzzccczzzzzc"
         inkscape:connector-curvature="0"
         id="path866"
         d="m 57.478313,252.51132 c 0,0 5.513384,-6.4764 8.131,-9.95836 2.617616,-3.48196 5.23192,-6.95764 7.57695,-10.44269 2.34503,-3.48505 4.588556,-6.95322 6.50205,-10.44266 1.913494,-3.48944 3.644624,-6.94826 4.9965,-10.44266 1.351876,-3.4944 2.438907,-6.94493 3.13895,-10.44267 0.700043,-3.49774 1.080116,-10.44267 1.080116,-10.44267 H 57.478314 26.052748 c 0,0 0.380073,6.94493 1.080115,10.44267 0.700042,3.49774 1.787074,6.94827 3.13895,10.44267 1.351876,3.4944 3.083006,6.95322 4.9965,10.44266 1.913494,3.48944 4.15702,6.95761 6.50205,10.44266 2.34503,3.48505 4.959335,6.96073 7.57695,10.44269 2.617615,3.48196 8.131,9.95836 8.131,9.95836 z"
         style="fill:#d38d5f;stroke:none;stroke-width:0.24623999" />
      <path
         style="fill:#5fbcd3;stroke:none;stroke-width:0.24623999"
         d="m 57.478313,128.1679 c 0,0 5.513384,6.4764 8.131,9.95836 2.617616,3.48196 5.23192,6.95764 7.57695,10.44269 2.34503,3.48505 4.588556,6.95322 6.50205,10.44266 1.913494,3.48944 3.644624,6.94826 4.9965,10.44266 1.351876,3.4944 2.438907,6.94493 3.13895,10.44267 0.700043,3.49774 1.080116,10.44267 1.080116,10.44267 H 57.478314 26.052748 c 0,0 0.380073,-6.94493 1.080115,-10.44267 0.700042,-3.49774 1.787074,-6.94827 3.13895,-10.44267 1.351876,-3.4944 3.083006,-6.95322 4.9965,-10.44266 1.913494,-3.48944 4.15702,-6.95761 6.50205,-10.44266 2.34503,-3.48505 4.959335,-6.96073 7.57695,-10.44269 2.617615,-3.48196 8.131,-9.95836 8.131,-9.95836 z"
         id="path868"
         inkscape:connector-curvature="0"
         sodipodi:nodetypes="czzzzzccczzzzzc" />
      <path
         inkscape:connector-curvature="0"
         id="path870"
         d="m 57.478309,127.6836 c 8e-6,125.31203 8e-6,125.31203 8e-6,125.31203"
         style="fill:none;stroke:#ffffff;stroke-width:0.25;stroke-linecap:butt;stroke-linejoin:miter;stroke-miterlimit:4;stroke-dasharray:none;stroke-opacity:1" />
    </g>
    <g
       transform="matrix(0.98402809,0,0,1,126.15612,0)"
       id="g880">
      <path
         style="fill:#d38d5f;stroke:none;stroke-width:0.24623999"
         d="m 57.478313,252.51132 c 0,0 5.513384,-6.4764 8.131,-9.95836 2.617616,-3.48196 5.23192,-6.95764 7.57695,-10.44269 2.34503,-3.48505 4.588556,-6.95322 6.50205,-10.44266 1.913494,-3.48944 3.644624,-6.94826 4.9965,-10.44266 1.351876,-3.4944 2.438907,-6.94493 3.13895,-10.44267 0.700043,-3.49774 1.080116,-10.44267 1.080116,-10.44267 H 57.478314 26.052748 c 0,0 0.380073,6.94493 1.080115,10.44267 0.700042,3.49774 1.787074,6.94827 3.13895,10.44267 1.351876,3.4944 3.083006,6.95322 4.9965,10.44266 1.913494,3.48944 4.15702,6.95761 6.50205,10.44266 2.34503,3.48505 4.959335,6.96073 7.57695,10.44269 2.617615,3.48196 8.131,9.95836 8.131,9.95836 z"
         id="path874"
         inkscape:connector-curvature="0"
         sodipodi:nodetypes="czzzzzccczzzzzc" />
      <path
         sodipodi:nodetypes="czzzzzccczzzzzc"
         inkscape:connector-curvature="0"
         id="path876"
         d="m 57.478313,128.1679 c 0,0 5.513384,6.4764 8.131,9.95836 2.617616,3.48196 5.23192,6.95764 7.57695,10.44269 2.34503,3.48505 4.588556,6.95322 6.50205,10.44266 1.913494,3.48944 3.644624,6.94826 4.9965,10.44266 1.351876,3.4944 2.438907,6.94493 3.13895,10.44267 0.700043,3.49774 1.080116,10.44267 1.080116,10.44267 H 57.478314 26.052748 c 0,0 0.380073,-6.94493 1.080115,-10.44267 0.700042,-3.49774 1.787074,-6.94827 3.13895,-10.44267 1.351876,-3.4944 3.083006,-6.95322 4.9965,-10.44266 1.913494,-3.48944 4.15702,-6.95761 6.50205,-10.44266 2.34503,-3.48505 4.959335,-6.96073 7.57695,-10.44269 2.617615,-3.48196 8.131,-9.95836 8.131,-9.95836 z"
         style="fill:#5fbcd3;stroke:none;stroke-width:0.24623999" />
      <path
         style="fill:none;stroke:#ffffff;stroke-width:0.25;stroke-linecap:butt;stroke-linejoin:miter;stroke-miterlimit:4;stroke-dasharray:none;stroke-opacity:1"
         d="m 57.478309,127.6836 c 8e-6,125.31203 8e-6,125.31203 8e-6,125.31203"
         id="path878"
         inkscape:connector-curvature="0" />
    </g>
    <g
       id="g888"
       transform="matrix(0.98402809,0,0,1,189.02612,0)">
      <path
         sodipodi:nodetypes="czzzzzccczzzzzc"
         inkscape:connector-curvature="0"
         id="path882"
         d="m 57.478313,252.51132 c 0,0 5.513384,-6.4764 8.131,-9.95836 2.617616,-3.48196 5.23192,-6.95764 7.57695,-10.44269 2.34503,-3.48505 4.588556,-6.95322 6.50205,-10.44266 1.913494,-3.48944 3.644624,-6.94826 4.9965,-10.44266 1.351876,-3.4944 2.438907,-6.94493 3.13895,-10.44267 0.700043,-3.49774 1.080116,-10.44267 1.080116,-10.44267 H 57.478314 26.052748 c 0,0 0.380073,6.94493 1.080115,10.44267 0.700042,3.49774 1.787074,6.94827 3.13895,10.44267 1.351876,3.4944 3.083006,6.95322 4.9965,10.44266 1.913494,3.48944 4.15702,6.95761 6.50205,10.44266 2.34503,3.48505 4.959335,6.96073 7.57695,10.44269 2.617615,3.48196 8.131,9.95836 8.131,9.95836 z"
         style="fill:#d38d5f;stroke:none;stroke-width:0.24623999" />
      <path
         style="fill:#5fbcd3;stroke:none;stroke-width:0.24623999"
         d="m 57.478313,128.1679 c 0,0 5.513384,6.4764 8.131,9.95836 2.617616,3.48196 5.23192,6.95764 7.57695,10.44269 2.34503,3.48505 4.588556,6.95322 6.50205,10.44266 1.913494,3.48944 3.644624,6.94826 4.9965,10.44266 1.351876,3.4944 2.438907,6.94493 3.13895,10.44267 0.700043,3.49774 1.080116,10.44267 1.080116,10.44267 H 57.478314 26.052748 c 0,0 0.380073,-6.94493 1.080115,-10.44267 0.700042,-3.49774 1.787074,-6.94827 3.13895,-10.44267 1.351876,-3.4944 3.083006,-6.95322 4.9965,-10.44266 1.913494,-3.48944 4.15702,-6.95761 6.50205,-10.44266 2.34503,-3.48505 4.959335,-6.96073 7.57695,-10.44269 2.617615,-3.48196 8.131,-9.95836 8.131,-9.95836 z"
         id="path884"
         inkscape:connector-curvature="0"
         sodipodi:nodetypes="czzzzzccczzzzzc" />
      <path
         inkscape:connector-curvature="0"
         id="path886"
         d="m 57.478309,127.6836 c 8e-6,125.31203 8e-6,125.31203 8e-6,125.31203"
         style="fill:none;stroke:#ffffff;stroke-width:0.25;stroke-linecap:butt;stroke-linejoin:miter;stroke-miterlimit:4;stroke-dasharray:none;stroke-opacity:1" />
    </g>
    <g
       id="g864"
       transform="matrix(0.98402809,0,0,1,0.41611213,0)">
      <path
         style="fill:#d38d5f;stroke:none;stroke-width:0.24623999"
         d="m 57.478313,252.51132 c 0,0 5.513384,-6.4764 8.131,-9.95836 2.617616,-3.48196 5.23192,-6.95764 7.57695,-10.44269 2.34503,-3.48505 4.588556,-6.95322 6.50205,-10.44266 1.913494,-3.48944 3.644624,-6.94826 4.9965,-10.44266 1.351876,-3.4944 2.438907,-6.94493 3.13895,-10.44267 0.700043,-3.49774 1.080116,-10.44267 1.080116,-10.44267 H 57.478314 26.052748 c 0,0 0.380073,6.94493 1.080115,10.44267 0.700042,3.49774 1.787074,6.94827 3.13895,10.44267 1.351876,3.4944 3.083006,6.95322 4.9965,10.44266 1.913494,3.48944 4.15702,6.95761 6.50205,10.44266 2.34503,3.48505 4.959335,6.96073 7.57695,10.44269 2.617615,3.48196 8.131,9.95836 8.131,9.95836 z"
         id="path830"
         inkscape:connector-curvature="0"
         sodipodi:nodetypes="czzzzzccczzzzzc" />
      <path
         sodipodi:nodetypes="czzzzzccczzzzzc"
         inkscape:connector-curvature="0"
         id="rect12"
         d="m 57.478313,128.1679 c 0,0 5.513384,6.4764 8.131,9.95836 2.617616,3.48196 5.23192,6.95764 7.57695,10.44269 2.34503,3.48505 4.588556,6.95322 6.50205,10.44266 1.913494,3.48944 3.644624,6.94826 4.9965,10.44266 1.351876,3.4944 2.438907,6.94493 3.13895,10.44267 0.700043,3.49774 1.080116,10.44267 1.080116,10.44267 H 57.478314 26.052748 c 0,0 0.380073,-6.94493 1.080115,-10.44267 0.700042,-3.49774 1.787074,-6.94827 3.13895,-10.44267 1.351876,-3.4944 3.083006,-6.95322 4.9965,-10.44266 1.913494,-3.48944 4.15702,-6.95761 6.50205,-10.44266 2.34503,-3.48505 4.959335,-6.96073 7.57695,-10.44269 2.617615,-3.48196 8.131,-9.95836 8.131,-9.95836 z"
         style="fill:#5fbcd3;stroke:none;stroke-width:0.24623999" />
      <path
         style="fill:none;stroke:#ffffff;stroke-width:0.25;stroke-linecap:butt;stroke-linejoin:miter;stroke-miterlimit:4;stroke-dasharray:none;stroke-opacity:1"
         d="m 57.478309,127.6836 c 8e-6,125.31203 8e-6,125.31203 8e-6,125.31203"
         id="path839"
         inkscape:connector-curvature="0" />
    </g>
    <path
       style="fill:none;stroke:#ffffff;stroke-width:1;stroke-linecap:butt;stroke-linejoin:miter;stroke-miterlimit:4;stroke-dasharray:none;stroke-opacity:1"
       d="m 25.105539,190.33961 c 251.404491,0 251.404491,0 251.404491,0"
       id="path14"
       inkscape:connector-curvature="0" />
  </g>
</svg>
